%!PS-Adobe-3.0 EPSF-3.0
%%Creator: MATLAB, The MathWorks, Inc. Version 7.14.0.739 (R2012a). Operating System: Linux 2.6.38-16-generic #67-Ubuntu SMP Thu Sep 6 17:58:38 UTC 2012 x86_64.
%%Title: /home/birkeland/andreros/tma4265-stochastic-processes/project/first_problem/simulation_0_9.eps
%%CreationDate: 10/21/2012  21:31:14
%%DocumentNeededFonts: Helvetica
%%DocumentProcessColors: Cyan Magenta Yellow Black
%%LanguageLevel: 2
%%Pages: 1
%%BoundingBox:    37   304   573   488
%%EndComments

%%BeginProlog
% MathWorks dictionary
/MathWorks 160 dict begin
% definition operators
/bdef {bind def} bind def
/ldef {load def} bind def
/xdef {exch def} bdef
/xstore {exch store} bdef
% operator abbreviations
/c  /clip ldef
/cc /concat ldef
/cp /closepath ldef
/gr /grestore ldef
/gs /gsave ldef
/mt /moveto ldef
/np /newpath ldef
/cm /currentmatrix ldef
/sm /setmatrix ldef
/rm /rmoveto ldef
/rl /rlineto ldef
/s {show newpath} bdef
/sc {setcmykcolor} bdef
/sr /setrgbcolor ldef
/sg /setgray ldef
/w /setlinewidth ldef
/j /setlinejoin ldef
/cap /setlinecap ldef
/rc {rectclip} bdef
/rf {rectfill} bdef
% page state control
/pgsv () def
/bpage {/pgsv save def} bdef
/epage {pgsv restore} bdef
/bplot /gsave ldef
/eplot {stroke grestore} bdef
% orientation switch
/portraitMode 0 def /landscapeMode 1 def /rotateMode 2 def
% coordinate system mappings
/dpi2point 0 def
% font control
/FontSize 0 def
/FMS {/FontSize xstore findfont [FontSize 0 0 FontSize neg 0 0]
  makefont setfont} bdef
/reencode {exch dup where {pop load} {pop StandardEncoding} ifelse
  exch dup 3 1 roll findfont dup length dict begin
  { 1 index /FID ne {def}{pop pop} ifelse } forall
  /Encoding exch def currentdict end definefont pop} bdef
/isroman {findfont /CharStrings get /Agrave known} bdef
/FMSR {3 1 roll 1 index dup isroman {reencode} {pop pop} ifelse
  exch FMS} bdef
/csm {1 dpi2point div -1 dpi2point div scale neg translate
 dup landscapeMode eq {pop -90 rotate}
  {rotateMode eq {90 rotate} if} ifelse} bdef
% line types: solid, dotted, dashed, dotdash
/SO { [] 0 setdash } bdef
/DO { [.5 dpi2point mul 4 dpi2point mul] 0 setdash } bdef
/DA { [6 dpi2point mul] 0 setdash } bdef
/DD { [.5 dpi2point mul 4 dpi2point mul 6 dpi2point mul 4
  dpi2point mul] 0 setdash } bdef
% macros for lines and objects
/L {lineto stroke} bdef
/MP {3 1 roll moveto 1 sub {rlineto} repeat} bdef
/AP {{rlineto} repeat} bdef
/PDlw -1 def
/W {/PDlw currentlinewidth def setlinewidth} def
/PP {closepath eofill} bdef
/DP {closepath stroke} bdef
/MR {4 -2 roll moveto dup  0 exch rlineto exch 0 rlineto
  neg 0 exch rlineto closepath} bdef
/FR {MR stroke} bdef
/PR {MR fill} bdef
/L1i {{currentfile picstr readhexstring pop} image} bdef
/tMatrix matrix def
/MakeOval {newpath tMatrix currentmatrix pop translate scale
0 0 1 0 360 arc tMatrix setmatrix} bdef
/FO {MakeOval stroke} bdef
/PO {MakeOval fill} bdef
/PD {currentlinewidth 2 div 0 360 arc fill
   PDlw -1 eq not {PDlw w /PDlw -1 def} if} def
/FA {newpath tMatrix currentmatrix pop translate scale
  0 0 1 5 -2 roll arc tMatrix setmatrix stroke} bdef
/PA {newpath tMatrix currentmatrix pop	translate 0 0 moveto scale
  0 0 1 5 -2 roll arc closepath tMatrix setmatrix fill} bdef
/FAn {newpath tMatrix currentmatrix pop translate scale
  0 0 1 5 -2 roll arcn tMatrix setmatrix stroke} bdef
/PAn {newpath tMatrix currentmatrix pop translate 0 0 moveto scale
  0 0 1 5 -2 roll arcn closepath tMatrix setmatrix fill} bdef
/vradius 0 def /hradius 0 def /lry 0 def
/lrx 0 def /uly 0 def /ulx 0 def /rad 0 def
/MRR {/vradius xdef /hradius xdef /lry xdef /lrx xdef /uly xdef
  /ulx xdef newpath tMatrix currentmatrix pop ulx hradius add uly
  vradius add translate hradius vradius scale 0 0 1 180 270 arc 
  tMatrix setmatrix lrx hradius sub uly vradius add translate
  hradius vradius scale 0 0 1 270 360 arc tMatrix setmatrix
  lrx hradius sub lry vradius sub translate hradius vradius scale
  0 0 1 0 90 arc tMatrix setmatrix ulx hradius add lry vradius sub
  translate hradius vradius scale 0 0 1 90 180 arc tMatrix setmatrix
  closepath} bdef
/FRR {MRR stroke } bdef
/PRR {MRR fill } bdef
/MlrRR {/lry xdef /lrx xdef /uly xdef /ulx xdef /rad lry uly sub 2 div def
  newpath tMatrix currentmatrix pop ulx rad add uly rad add translate
  rad rad scale 0 0 1 90 270 arc tMatrix setmatrix lrx rad sub lry rad
  sub translate rad rad scale 0 0 1 270 90 arc tMatrix setmatrix
  closepath} bdef
/FlrRR {MlrRR stroke } bdef
/PlrRR {MlrRR fill } bdef
/MtbRR {/lry xdef /lrx xdef /uly xdef /ulx xdef /rad lrx ulx sub 2 div def
  newpath tMatrix currentmatrix pop ulx rad add uly rad add translate
  rad rad scale 0 0 1 180 360 arc tMatrix setmatrix lrx rad sub lry rad
  sub translate rad rad scale 0 0 1 0 180 arc tMatrix setmatrix
  closepath} bdef
/FtbRR {MtbRR stroke } bdef
/PtbRR {MtbRR fill } bdef
/stri 6 array def /dtri 6 array def
/smat 6 array def /dmat 6 array def
/tmat1 6 array def /tmat2 6 array def /dif 3 array def
/asub {/ind2 exch def /ind1 exch def dup dup
  ind1 get exch ind2 get sub exch } bdef
/tri_to_matrix {
  2 0 asub 3 1 asub 4 0 asub 5 1 asub
  dup 0 get exch 1 get 7 -1 roll astore } bdef
/compute_transform {
  dmat dtri tri_to_matrix tmat1 invertmatrix 
  smat stri tri_to_matrix tmat2 concatmatrix } bdef
/ds {stri astore pop} bdef
/dt {dtri astore pop} bdef
/db {2 copy /cols xdef /rows xdef mul dup 3 mul string
  currentfile 
  3 index 0 eq {/ASCIIHexDecode filter}
  {/ASCII85Decode filter 3 index 2 eq {/RunLengthDecode filter} if }
  ifelse exch readstring pop
  dup 0 3 index getinterval /rbmap xdef
  dup 2 index dup getinterval /gbmap xdef
  1 index dup 2 mul exch getinterval /bbmap xdef pop pop}bdef
/it {gs np dtri aload pop moveto lineto lineto cp c
  cols rows 8 compute_transform 
  rbmap gbmap bbmap true 3 colorimage gr}bdef
/il {newpath moveto lineto stroke}bdef
currentdict end def
%%EndProlog

%%BeginSetup
MathWorks begin

0 cap

end
%%EndSetup

%%Page: 1 1
%%BeginPageSetup
%%PageBoundingBox:    37   304   573   488
MathWorks begin
bpage
%%EndPageSetup

%%BeginObject: obj1
bplot

/dpi2point 12 def
portraitMode 0444 5856 csm

    0     0  6441  2199 rc
85 dict begin %Colortable dictionary
/c0 { 0.000000 0.000000 0.000000 sr} bdef
/c1 { 1.000000 1.000000 1.000000 sr} bdef
/c2 { 0.900000 0.000000 0.000000 sr} bdef
/c3 { 0.000000 0.820000 0.000000 sr} bdef
/c4 { 0.000000 0.000000 0.800000 sr} bdef
/c5 { 0.910000 0.820000 0.320000 sr} bdef
/c6 { 1.000000 0.260000 0.820000 sr} bdef
/c7 { 0.000000 0.820000 0.820000 sr} bdef
c0
1 j
1 sg
   0    0 6442 2200 rf
6 w
0 1717 4992 0 0 -1717 837 1882 4 MP
PP
-4992 0 0 1717 4992 0 0 -1717 837 1882 5 MP stroke
4 w
DO
0 sg
 837 1882 mt  837  165 L
 837  165 mt  837  165 L
 936 1882 mt  936  165 L
 936  165 mt  936  165 L
1036 1882 mt 1036  165 L
1036  165 mt 1036  165 L
1136 1882 mt 1136  165 L
1136  165 mt 1136  165 L
1236 1882 mt 1236  165 L
1236  165 mt 1236  165 L
1336 1882 mt 1336  165 L
1336  165 mt 1336  165 L
1436 1882 mt 1436  165 L
1436  165 mt 1436  165 L
1535 1882 mt 1535  165 L
1535  165 mt 1535  165 L
1635 1882 mt 1635  165 L
1635  165 mt 1635  165 L
1735 1882 mt 1735  165 L
1735  165 mt 1735  165 L
1835 1882 mt 1835  165 L
1835  165 mt 1835  165 L
2035 1882 mt 2035  165 L
2035  165 mt 2035  165 L
2234 1882 mt 2234  165 L
2234  165 mt 2234  165 L
2434 1882 mt 2434  165 L
2434  165 mt 2434  165 L
2634 1882 mt 2634  165 L
2634  165 mt 2634  165 L
2833 1882 mt 2833  165 L
2833  165 mt 2833  165 L
3033 1882 mt 3033  165 L
3033  165 mt 3033  165 L
3233 1882 mt 3233  165 L
3233  165 mt 3233  165 L
3432 1882 mt 3432  165 L
3432  165 mt 3432  165 L
3632 1882 mt 3632  165 L
3632  165 mt 3632  165 L
3832 1882 mt 3832  165 L
3832  165 mt 3832  165 L
4031 1882 mt 4031  165 L
4031  165 mt 4031  165 L
4231 1882 mt 4231  165 L
4231  165 mt 4231  165 L
4431 1882 mt 4431  165 L
4431  165 mt 4431  165 L
4630 1882 mt 4630  165 L
4630  165 mt 4630  165 L
4830 1882 mt 4830  165 L
4830  165 mt 4830  165 L
5030 1882 mt 5030  165 L
5030  165 mt 5030  165 L
5229 1882 mt 5229  165 L
5229  165 mt 5229  165 L
5429 1882 mt 5429  165 L
5429  165 mt 5429  165 L
5629 1882 mt 5629  165 L
5629  165 mt 5629  165 L
5829 1882 mt 5829  165 L
5829  165 mt 5829  165 L
 837 1882 mt 5829 1882 L
5829 1882 mt 5829 1882 L
 837 1667 mt 5829 1667 L
5829 1667 mt 5829 1667 L
 837 1452 mt 5829 1452 L
5829 1452 mt 5829 1452 L
 837 1238 mt 5829 1238 L
5829 1238 mt 5829 1238 L
 837 1023 mt 5829 1023 L
5829 1023 mt 5829 1023 L
 837  808 mt 5829  808 L
5829  808 mt 5829  808 L
 837  594 mt 5829  594 L
5829  594 mt 5829  594 L
 837  379 mt 5829  379 L
5829  379 mt 5829  379 L
 837  165 mt 5829  165 L
5829  165 mt 5829  165 L
SO
6 w
 837 1882 mt 5829 1882 L
 837  165 mt 5829  165 L
 837 1882 mt  837  165 L
5829 1882 mt 5829  165 L
 837 1882 mt 5829 1882 L
 837 1882 mt  837  165 L
 837 1882 mt  837 1832 L
 837  165 mt  837  214 L
%%IncludeResource: font Helvetica
/Helvetica /ISOLatin1Encoding 120 FMSR

 804 2027 mt 
(0) s
 936 1882 mt  936 1832 L
 936  165 mt  936  214 L
 903 2027 mt 
(1) s
1036 1882 mt 1036 1832 L
1036  165 mt 1036  214 L
1003 2027 mt 
(2) s
1136 1882 mt 1136 1832 L
1136  165 mt 1136  214 L
1103 2027 mt 
(3) s
1236 1882 mt 1236 1832 L
1236  165 mt 1236  214 L
1203 2027 mt 
(4) s
1336 1882 mt 1336 1832 L
1336  165 mt 1336  214 L
1303 2027 mt 
(5) s
1436 1882 mt 1436 1832 L
1436  165 mt 1436  214 L
1403 2027 mt 
(6) s
1535 1882 mt 1535 1832 L
1535  165 mt 1535  214 L
1502 2027 mt 
(7) s
1635 1882 mt 1635 1832 L
1635  165 mt 1635  214 L
1602 2027 mt 
(8) s
1735 1882 mt 1735 1832 L
1735  165 mt 1735  214 L
1702 2027 mt 
(9) s
1835 1882 mt 1835 1832 L
1835  165 mt 1835  214 L
1769 2027 mt 
(10) s
2035 1882 mt 2035 1832 L
2035  165 mt 2035  214 L
1969 2027 mt 
(12) s
2234 1882 mt 2234 1832 L
2234  165 mt 2234  214 L
2168 2027 mt 
(14) s
2434 1882 mt 2434 1832 L
2434  165 mt 2434  214 L
2368 2027 mt 
(16) s
2634 1882 mt 2634 1832 L
2634  165 mt 2634  214 L
2568 2027 mt 
(18) s
2833 1882 mt 2833 1832 L
2833  165 mt 2833  214 L
2767 2027 mt 
(20) s
3033 1882 mt 3033 1832 L
3033  165 mt 3033  214 L
2967 2027 mt 
(22) s
3233 1882 mt 3233 1832 L
3233  165 mt 3233  214 L
3167 2027 mt 
(24) s
3432 1882 mt 3432 1832 L
3432  165 mt 3432  214 L
3366 2027 mt 
(26) s
3632 1882 mt 3632 1832 L
3632  165 mt 3632  214 L
3566 2027 mt 
(28) s
3832 1882 mt 3832 1832 L
3832  165 mt 3832  214 L
3766 2027 mt 
(30) s
4031 1882 mt 4031 1832 L
4031  165 mt 4031  214 L
3965 2027 mt 
(32) s
4231 1882 mt 4231 1832 L
4231  165 mt 4231  214 L
4165 2027 mt 
(34) s
4431 1882 mt 4431 1832 L
4431  165 mt 4431  214 L
4365 2027 mt 
(36) s
4630 1882 mt 4630 1832 L
4630  165 mt 4630  214 L
4564 2027 mt 
(38) s
4830 1882 mt 4830 1832 L
4830  165 mt 4830  214 L
4764 2027 mt 
(40) s
5030 1882 mt 5030 1832 L
5030  165 mt 5030  214 L
4964 2027 mt 
(42) s
5229 1882 mt 5229 1832 L
5229  165 mt 5229  214 L
5163 2027 mt 
(44) s
5429 1882 mt 5429 1832 L
5429  165 mt 5429  214 L
5363 2027 mt 
(46) s
5629 1882 mt 5629 1832 L
5629  165 mt 5629  214 L
5563 2027 mt 
(48) s
5829 1882 mt 5829 1832 L
5829  165 mt 5829  214 L
5763 2027 mt 
(50) s
 837 1882 mt  886 1882 L
5829 1882 mt 5779 1882 L
 736 1926 mt 
(0) s
 837 1667 mt  886 1667 L
5829 1667 mt 5779 1667 L
 736 1711 mt 
(1) s
 837 1452 mt  886 1452 L
5829 1452 mt 5779 1452 L
 736 1496 mt 
(2) s
 837 1238 mt  886 1238 L
5829 1238 mt 5779 1238 L
 736 1282 mt 
(3) s
 837 1023 mt  886 1023 L
5829 1023 mt 5779 1023 L
 736 1067 mt 
(4) s
 837  808 mt  886  808 L
5829  808 mt 5779  808 L
 736  852 mt 
(5) s
 837  594 mt  886  594 L
5829  594 mt 5779  594 L
 736  638 mt 
(6) s
 837  379 mt  886  379 L
5829  379 mt 5779  379 L
 736  423 mt 
(7) s
 837  165 mt  886  165 L
5829  165 mt 5779  165 L
 736  209 mt 
(8) s
 837 1882 mt 5829 1882 L
 837  165 mt 5829  165 L
 837 1882 mt  837  165 L
5829 1882 mt 5829  165 L
gs 837 165 4993 1718 rc
/c8 { 0.000000 0.000000 1.000000 sr} bdef
c8
100 -214 100 214 100 215 100 -215 100 -214 100 -215 99 -215 100 215 
100 215 100 -215 100 215 100 -215 99 215 100 -215 100 -215 100 -214 
100 214 100 215 99 -215 100 215 100 215 100 -215 100 215 100 214 
99 215 100 -215 100 215 100 -215 100 -214 100 -215 100 215 99 -215 
100 215 100 -215 100 215 100 -215 100 -215 99 -214 100 214 100 -214 
100 -215 100 215 100 214 99 215 100 -215 100 -214 100 -215 100 -215 
100 215 99 -215 837 1882 51 MP stroke
gr

c8
0 sg
 654 1164 mt  -90 rotate
(State) s
90 rotate
3199 2170 mt 
(Time) s

end %%Color Dict

eplot
%%EndObject

epage
end

showpage

%%Trailer
%%EOF
