%!PS-Adobe-3.0 EPSF-3.0
%%Creator: MATLAB, The MathWorks, Inc. Version 7.14.0.739 (R2012a). Operating System: Linux 2.6.38-16-generic #67-Ubuntu SMP Thu Sep 6 17:58:38 UTC 2012 x86_64.
%%Title: /home/birkeland/andreros/tma4265-stochastic-processes/project/second_problem/awesome_populations.eps
%%CreationDate: 10/22/2012  06:49:50
%%DocumentNeededFonts: Helvetica
%%DocumentProcessColors: Cyan Magenta Yellow Black
%%LanguageLevel: 2
%%Pages: 1
%%BoundingBox:    88   246   521   544
%%EndComments

%%BeginProlog
% MathWorks dictionary
/MathWorks 160 dict begin
% definition operators
/bdef {bind def} bind def
/ldef {load def} bind def
/xdef {exch def} bdef
/xstore {exch store} bdef
% operator abbreviations
/c  /clip ldef
/cc /concat ldef
/cp /closepath ldef
/gr /grestore ldef
/gs /gsave ldef
/mt /moveto ldef
/np /newpath ldef
/cm /currentmatrix ldef
/sm /setmatrix ldef
/rm /rmoveto ldef
/rl /rlineto ldef
/s {show newpath} bdef
/sc {setcmykcolor} bdef
/sr /setrgbcolor ldef
/sg /setgray ldef
/w /setlinewidth ldef
/j /setlinejoin ldef
/cap /setlinecap ldef
/rc {rectclip} bdef
/rf {rectfill} bdef
% page state control
/pgsv () def
/bpage {/pgsv save def} bdef
/epage {pgsv restore} bdef
/bplot /gsave ldef
/eplot {stroke grestore} bdef
% orientation switch
/portraitMode 0 def /landscapeMode 1 def /rotateMode 2 def
% coordinate system mappings
/dpi2point 0 def
% font control
/FontSize 0 def
/FMS {/FontSize xstore findfont [FontSize 0 0 FontSize neg 0 0]
  makefont setfont} bdef
/reencode {exch dup where {pop load} {pop StandardEncoding} ifelse
  exch dup 3 1 roll findfont dup length dict begin
  { 1 index /FID ne {def}{pop pop} ifelse } forall
  /Encoding exch def currentdict end definefont pop} bdef
/isroman {findfont /CharStrings get /Agrave known} bdef
/FMSR {3 1 roll 1 index dup isroman {reencode} {pop pop} ifelse
  exch FMS} bdef
/csm {1 dpi2point div -1 dpi2point div scale neg translate
 dup landscapeMode eq {pop -90 rotate}
  {rotateMode eq {90 rotate} if} ifelse} bdef
% line types: solid, dotted, dashed, dotdash
/SO { [] 0 setdash } bdef
/DO { [.5 dpi2point mul 4 dpi2point mul] 0 setdash } bdef
/DA { [6 dpi2point mul] 0 setdash } bdef
/DD { [.5 dpi2point mul 4 dpi2point mul 6 dpi2point mul 4
  dpi2point mul] 0 setdash } bdef
% macros for lines and objects
/L {lineto stroke} bdef
/MP {3 1 roll moveto 1 sub {rlineto} repeat} bdef
/AP {{rlineto} repeat} bdef
/PDlw -1 def
/W {/PDlw currentlinewidth def setlinewidth} def
/PP {closepath eofill} bdef
/DP {closepath stroke} bdef
/MR {4 -2 roll moveto dup  0 exch rlineto exch 0 rlineto
  neg 0 exch rlineto closepath} bdef
/FR {MR stroke} bdef
/PR {MR fill} bdef
/L1i {{currentfile picstr readhexstring pop} image} bdef
/tMatrix matrix def
/MakeOval {newpath tMatrix currentmatrix pop translate scale
0 0 1 0 360 arc tMatrix setmatrix} bdef
/FO {MakeOval stroke} bdef
/PO {MakeOval fill} bdef
/PD {currentlinewidth 2 div 0 360 arc fill
   PDlw -1 eq not {PDlw w /PDlw -1 def} if} def
/FA {newpath tMatrix currentmatrix pop translate scale
  0 0 1 5 -2 roll arc tMatrix setmatrix stroke} bdef
/PA {newpath tMatrix currentmatrix pop	translate 0 0 moveto scale
  0 0 1 5 -2 roll arc closepath tMatrix setmatrix fill} bdef
/FAn {newpath tMatrix currentmatrix pop translate scale
  0 0 1 5 -2 roll arcn tMatrix setmatrix stroke} bdef
/PAn {newpath tMatrix currentmatrix pop translate 0 0 moveto scale
  0 0 1 5 -2 roll arcn closepath tMatrix setmatrix fill} bdef
/vradius 0 def /hradius 0 def /lry 0 def
/lrx 0 def /uly 0 def /ulx 0 def /rad 0 def
/MRR {/vradius xdef /hradius xdef /lry xdef /lrx xdef /uly xdef
  /ulx xdef newpath tMatrix currentmatrix pop ulx hradius add uly
  vradius add translate hradius vradius scale 0 0 1 180 270 arc 
  tMatrix setmatrix lrx hradius sub uly vradius add translate
  hradius vradius scale 0 0 1 270 360 arc tMatrix setmatrix
  lrx hradius sub lry vradius sub translate hradius vradius scale
  0 0 1 0 90 arc tMatrix setmatrix ulx hradius add lry vradius sub
  translate hradius vradius scale 0 0 1 90 180 arc tMatrix setmatrix
  closepath} bdef
/FRR {MRR stroke } bdef
/PRR {MRR fill } bdef
/MlrRR {/lry xdef /lrx xdef /uly xdef /ulx xdef /rad lry uly sub 2 div def
  newpath tMatrix currentmatrix pop ulx rad add uly rad add translate
  rad rad scale 0 0 1 90 270 arc tMatrix setmatrix lrx rad sub lry rad
  sub translate rad rad scale 0 0 1 270 90 arc tMatrix setmatrix
  closepath} bdef
/FlrRR {MlrRR stroke } bdef
/PlrRR {MlrRR fill } bdef
/MtbRR {/lry xdef /lrx xdef /uly xdef /ulx xdef /rad lrx ulx sub 2 div def
  newpath tMatrix currentmatrix pop ulx rad add uly rad add translate
  rad rad scale 0 0 1 180 360 arc tMatrix setmatrix lrx rad sub lry rad
  sub translate rad rad scale 0 0 1 0 180 arc tMatrix setmatrix
  closepath} bdef
/FtbRR {MtbRR stroke } bdef
/PtbRR {MtbRR fill } bdef
/stri 6 array def /dtri 6 array def
/smat 6 array def /dmat 6 array def
/tmat1 6 array def /tmat2 6 array def /dif 3 array def
/asub {/ind2 exch def /ind1 exch def dup dup
  ind1 get exch ind2 get sub exch } bdef
/tri_to_matrix {
  2 0 asub 3 1 asub 4 0 asub 5 1 asub
  dup 0 get exch 1 get 7 -1 roll astore } bdef
/compute_transform {
  dmat dtri tri_to_matrix tmat1 invertmatrix 
  smat stri tri_to_matrix tmat2 concatmatrix } bdef
/ds {stri astore pop} bdef
/dt {dtri astore pop} bdef
/db {2 copy /cols xdef /rows xdef mul dup 3 mul string
  currentfile 
  3 index 0 eq {/ASCIIHexDecode filter}
  {/ASCII85Decode filter 3 index 2 eq {/RunLengthDecode filter} if }
  ifelse exch readstring pop
  dup 0 3 index getinterval /rbmap xdef
  dup 2 index dup getinterval /gbmap xdef
  1 index dup 2 mul exch getinterval /bbmap xdef pop pop}bdef
/it {gs np dtri aload pop moveto lineto lineto cp c
  cols rows 8 compute_transform 
  rbmap gbmap bbmap true 3 colorimage gr}bdef
/il {newpath moveto lineto stroke}bdef
currentdict end def
%%EndProlog

%%BeginSetup
MathWorks begin

0 cap

end
%%EndSetup

%%Page: 1 1
%%BeginPageSetup
%%PageBoundingBox:    88   246   521   544
MathWorks begin
bpage
%%EndPageSetup

%%BeginObject: obj1
bplot

/dpi2point 12 def
portraitMode 1056 6528 csm

    0     0  5203  3571 rc
86 dict begin %Colortable dictionary
/c0 { 0.000000 0.000000 0.000000 sr} bdef
/c1 { 1.000000 1.000000 1.000000 sr} bdef
/c2 { 0.900000 0.000000 0.000000 sr} bdef
/c3 { 0.000000 0.820000 0.000000 sr} bdef
/c4 { 0.000000 0.000000 0.800000 sr} bdef
/c5 { 0.910000 0.820000 0.320000 sr} bdef
/c6 { 1.000000 0.260000 0.820000 sr} bdef
/c7 { 0.000000 0.820000 0.820000 sr} bdef
c0
1 j
1 sg
   0    0 5204 3572 rf
6 w
0 2910 4033 0 0 -2910 676 3178 4 MP
PP
-4033 0 0 2910 4033 0 0 -2910 676 3178 5 MP stroke
4 w
DO
SO
6 w
0 sg
 676 3178 mt 4709 3178 L
 676 3178 mt  676  268 L
 676 3178 mt  676 3137 L
%%IncludeResource: font Helvetica
/Helvetica /ISOLatin1Encoding 120 FMSR

 643 3323 mt 
(0) s
1482 3178 mt 1482 3137 L
1416 3323 mt 
(50) s
2289 3178 mt 2289 3137 L
2189 3323 mt 
(100) s
3095 3178 mt 3095 3137 L
2995 3323 mt 
(150) s
3902 3178 mt 3902 3137 L
3802 3323 mt 
(200) s
4709 3178 mt 4709 3137 L
4609 3323 mt 
(250) s
 676 3178 mt  716 3178 L
 575 3222 mt 
(0) s
 676 2693 mt  716 2693 L
 508 2737 mt 
(10) s
 676 2208 mt  716 2208 L
 508 2252 mt 
(20) s
 676 1723 mt  716 1723 L
 508 1767 mt 
(30) s
 676 1238 mt  716 1238 L
 508 1282 mt 
(40) s
 676  753 mt  716  753 L
 508  797 mt 
(50) s
 676  268 mt  716  268 L
 508  312 mt 
(60) s
gs 676 268 4034 2911 rc
/c8 { 1.000000 0.000000 0.000000 sr} bdef
c8
17 49 16 48 16 -48 16 0 16 0 16 0 16 48 16 49 
17 0 16 0 16 48 16 49 16 48 16 97 16 0 16 49 
17 -146 16 49 16 48 16 -97 16 49 16 194 16 0 17 48 
16 0 16 0 16 49 16 -97 16 0 16 48 16 0 17 -48 
16 0 16 145 16 0 16 -194 16 97 16 -97 17 -48 16 -49 
16 -194 16 -97 16 49 16 97 16 -97 16 -97 17 0 16 0 
16 0 16 0 16 0 16 194 16 -97 17 -49 16 0 16 49 
16 0 16 48 16 -48 16 -97 16 0 17 194 16 -97 16 -49 
16 49 16 0 16 0 16 48 16 0 17 0 16 -97 16 49 
16 97 16 -49 16 49 16 -97 17 0 16 97 16 -97 16 0 
16 -49 16 -48 16 48 16 0 17 0 16 -48 16 0 16 0 
16 0 16 0 16 0 17 0 16 0 16 0 16 0 16 0 
16 0 16 0 16 0 17 0 16 0 16 48 16 49 16 194 
16 -49 16 49 17 145 16 -145 16 0 16 97 16 48 16 -194 
16 146 16 48 17 97 16 0 16 -48 16 0 16 -49 16 49 
16 -49 16 -48 17 -97 16 -97 16 0 16 -97 16 -49 16 97 
16 0 17 49 16 48 16 49 16 0 16 0 16 48 16 0 
16 49 17 0 16 145 16 340 16 -146 16 -97 16 49 16 0 
17 194 16 -97 16 -49 16 49 16 -194 16 -49 16 -194 16 49 
17 -146 16 0 16 49 16 0 16 -49 16 49 16 -97 17 97 
16 97 16 0 16 48 16 49 16 -49 16 194 16 97 17 49 
16 291 16 242 16 -48 16 -388 16 -194 16 145 16 0 17 -194 
16 49 16 0 16 48 16 0 16 -242 16 97 17 97 16 -97 
16 -97 16 -146 16 146 16 -194 16 -49 16 -48 17 -49 16 -97 
16 0 16 0 16 0 16 49 16 -49 17 0 16 0 16 49 
16 -49 16 49 16 97 16 -97 16 0 17 97 16 0 16 -49 
16 0 16 0 16 -48 16 -97 692 3129 213 MP stroke
/c9 { 0.000000 1.000000 0.000000 sr} bdef
c9
16 49 16 0 16 48 16 0 17 49 16 -49 16 194 16 -48 
16 -49 16 -48 16 0 16 48 17 49 16 145 16 97 16 194 
16 49 16 -49 16 194 17 -145 16 -97 16 0 16 0 16 145 
16 -48 16 48 16 146 17 145 16 -145 16 -49 16 0 16 -97 
16 -194 16 -145 17 242 16 146 16 -49 16 97 16 194 16 0 
16 -48 16 242 17 -145 16 0 16 -146 16 340 16 48 16 340 
16 48 17 -97 16 97 16 49 16 194 16 -97 16 194 16 339 
16 -48 17 97 16 -388 16 -291 16 -194 16 0 16 48 16 -97 
16 -97 17 -242 16 -340 16 49 16 -146 16 194 16 -48 16 0 
17 -97 16 194 16 194 16 194 16 48 16 194 16 97 16 49 
17 -146 16 -48 16 -146 16 -242 16 -194 16 -243 16 49 17 -243 
16 -97 16 -97 16 49 16 145 16 -97 16 -145 16 -49 17 -97 
16 -97 16 0 16 -48 16 0 16 0 16 0 692 3129 103 MP stroke
DD
/c10 { 0.000000 0.000000 1.000000 sr} bdef
c10
16 49 16 48 16 0 16 97 16 146 16 -49 17 0 16 97 
16 -48 16 97 16 97 16 -146 16 0 16 -145 17 -97 16 0 
16 0 16 0 16 48 16 -48 16 -97 17 0 16 0 16 145 
16 49 16 97 16 145 16 49 16 97 17 194 16 0 16 48 
16 194 16 -97 16 -194 16 49 17 48 16 49 16 48 16 49 
16 -49 16 97 16 -48 16 339 17 97 16 -97 16 49 16 -534 
16 97 16 0 16 -145 17 48 16 -194 16 0 16 340 16 48 
16 97 16 -48 16 97 17 48 16 -48 16 -291 16 -146 16 291 
16 -194 16 -48 16 145 17 243 16 194 16 -291 16 -194 16 -146 
16 340 16 194 17 194 16 -243 16 0 16 340 16 -97 16 -97 
16 97 16 -243 17 -97 16 -194 16 0 16 -97 16 146 16 0 
16 -243 17 0 16 -194 16 -97 16 -48 16 97 16 48 16 49 
16 -146 17 194 16 97 16 194 16 -48 16 145 16 -97 16 0 
17 -48 16 -194 16 48 16 -48 16 -146 16 -97 16 146 16 -194 
17 -194 16 0 16 48 16 -48 16 97 16 97 16 0 16 -97 
17 145 16 -145 16 -49 16 -48 16 97 16 48 16 194 17 -145 
16 48 16 0 16 194 16 194 16 -145 16 -146 16 -48 17 -194 
16 0 16 -97 16 0 16 0 16 48 16 0 17 -48 16 0 
16 48 16 0 16 -97 16 97 16 -97 16 0 17 49 16 48 
16 -48 16 -49 16 49 16 -97 16 -97 692 3129 158 MP stroke
gr

c10
DD
0 sg
2395 3466 mt 
(Generation) s
 426 2005 mt  -90 rotate
(Population) s
90 rotate
 659 3221 mt 
( ) s
4693  310 mt 
( ) s
SO
1 sg
0 480 1760 0 0 -480 2890 808 4 MP
PP
-1760 0 0 480 1760 0 0 -480 2890 808 5 MP stroke
4 w
DO
SO
6 w
0 sg
2890  808 mt 4650  808 L
2890  328 mt 4650  328 L
2890  808 mt 2890  328 L
4650  808 mt 4650  328 L
2890  808 mt 4650  808 L
2890  808 mt 2890  328 L
2890  808 mt 4650  808 L
2890  328 mt 4650  328 L
2890  808 mt 2890  328 L
4650  808 mt 4650  328 L
3358  462 mt 
(Longest time) s
gs 2890 328 1761 481 rc
c8
360 0 2961 420 2 MP stroke
gr

c8
0 sg
3358  611 mt 
(Maximum population) s
gs 2890 328 1761 481 rc
c9
360 0 2961 568 2 MP stroke
gr

c9
0 sg
3358  759 mt 
(Highest total population) s
gs 2890 328 1761 481 rc
DD
c10
360 0 2961 715 2 MP stroke
SO
gr

c10

end %%Color Dict

eplot
%%EndObject

epage
end

showpage

%%Trailer
%%EOF
