%!PS-Adobe-3.0 EPSF-3.0
%%Creator: MATLAB, The MathWorks, Inc. Version 7.14.0.739 (R2012a). Operating System: Linux 2.6.38-16-generic #67-Ubuntu SMP Thu Sep 6 17:58:38 UTC 2012 x86_64.
%%Title: /home/birkeland/andreros/tma4265-stochastic-processes/project/second_problem/histogram_survival_times.eps
%%CreationDate: 10/22/2012  10:35:12
%%DocumentNeededFonts: Helvetica
%%DocumentProcessColors: Cyan Magenta Yellow Black
%%LanguageLevel: 2
%%Pages: 1
%%BoundingBox:    81   227   529   564
%%EndComments

%%BeginProlog
% MathWorks dictionary
/MathWorks 160 dict begin
% definition operators
/bdef {bind def} bind def
/ldef {load def} bind def
/xdef {exch def} bdef
/xstore {exch store} bdef
% operator abbreviations
/c  /clip ldef
/cc /concat ldef
/cp /closepath ldef
/gr /grestore ldef
/gs /gsave ldef
/mt /moveto ldef
/np /newpath ldef
/cm /currentmatrix ldef
/sm /setmatrix ldef
/rm /rmoveto ldef
/rl /rlineto ldef
/s {show newpath} bdef
/sc {setcmykcolor} bdef
/sr /setrgbcolor ldef
/sg /setgray ldef
/w /setlinewidth ldef
/j /setlinejoin ldef
/cap /setlinecap ldef
/rc {rectclip} bdef
/rf {rectfill} bdef
% page state control
/pgsv () def
/bpage {/pgsv save def} bdef
/epage {pgsv restore} bdef
/bplot /gsave ldef
/eplot {stroke grestore} bdef
% orientation switch
/portraitMode 0 def /landscapeMode 1 def /rotateMode 2 def
% coordinate system mappings
/dpi2point 0 def
% font control
/FontSize 0 def
/FMS {/FontSize xstore findfont [FontSize 0 0 FontSize neg 0 0]
  makefont setfont} bdef
/reencode {exch dup where {pop load} {pop StandardEncoding} ifelse
  exch dup 3 1 roll findfont dup length dict begin
  { 1 index /FID ne {def}{pop pop} ifelse } forall
  /Encoding exch def currentdict end definefont pop} bdef
/isroman {findfont /CharStrings get /Agrave known} bdef
/FMSR {3 1 roll 1 index dup isroman {reencode} {pop pop} ifelse
  exch FMS} bdef
/csm {1 dpi2point div -1 dpi2point div scale neg translate
 dup landscapeMode eq {pop -90 rotate}
  {rotateMode eq {90 rotate} if} ifelse} bdef
% line types: solid, dotted, dashed, dotdash
/SO { [] 0 setdash } bdef
/DO { [.5 dpi2point mul 4 dpi2point mul] 0 setdash } bdef
/DA { [6 dpi2point mul] 0 setdash } bdef
/DD { [.5 dpi2point mul 4 dpi2point mul 6 dpi2point mul 4
  dpi2point mul] 0 setdash } bdef
% macros for lines and objects
/L {lineto stroke} bdef
/MP {3 1 roll moveto 1 sub {rlineto} repeat} bdef
/AP {{rlineto} repeat} bdef
/PDlw -1 def
/W {/PDlw currentlinewidth def setlinewidth} def
/PP {closepath eofill} bdef
/DP {closepath stroke} bdef
/MR {4 -2 roll moveto dup  0 exch rlineto exch 0 rlineto
  neg 0 exch rlineto closepath} bdef
/FR {MR stroke} bdef
/PR {MR fill} bdef
/L1i {{currentfile picstr readhexstring pop} image} bdef
/tMatrix matrix def
/MakeOval {newpath tMatrix currentmatrix pop translate scale
0 0 1 0 360 arc tMatrix setmatrix} bdef
/FO {MakeOval stroke} bdef
/PO {MakeOval fill} bdef
/PD {currentlinewidth 2 div 0 360 arc fill
   PDlw -1 eq not {PDlw w /PDlw -1 def} if} def
/FA {newpath tMatrix currentmatrix pop translate scale
  0 0 1 5 -2 roll arc tMatrix setmatrix stroke} bdef
/PA {newpath tMatrix currentmatrix pop	translate 0 0 moveto scale
  0 0 1 5 -2 roll arc closepath tMatrix setmatrix fill} bdef
/FAn {newpath tMatrix currentmatrix pop translate scale
  0 0 1 5 -2 roll arcn tMatrix setmatrix stroke} bdef
/PAn {newpath tMatrix currentmatrix pop translate 0 0 moveto scale
  0 0 1 5 -2 roll arcn closepath tMatrix setmatrix fill} bdef
/vradius 0 def /hradius 0 def /lry 0 def
/lrx 0 def /uly 0 def /ulx 0 def /rad 0 def
/MRR {/vradius xdef /hradius xdef /lry xdef /lrx xdef /uly xdef
  /ulx xdef newpath tMatrix currentmatrix pop ulx hradius add uly
  vradius add translate hradius vradius scale 0 0 1 180 270 arc 
  tMatrix setmatrix lrx hradius sub uly vradius add translate
  hradius vradius scale 0 0 1 270 360 arc tMatrix setmatrix
  lrx hradius sub lry vradius sub translate hradius vradius scale
  0 0 1 0 90 arc tMatrix setmatrix ulx hradius add lry vradius sub
  translate hradius vradius scale 0 0 1 90 180 arc tMatrix setmatrix
  closepath} bdef
/FRR {MRR stroke } bdef
/PRR {MRR fill } bdef
/MlrRR {/lry xdef /lrx xdef /uly xdef /ulx xdef /rad lry uly sub 2 div def
  newpath tMatrix currentmatrix pop ulx rad add uly rad add translate
  rad rad scale 0 0 1 90 270 arc tMatrix setmatrix lrx rad sub lry rad
  sub translate rad rad scale 0 0 1 270 90 arc tMatrix setmatrix
  closepath} bdef
/FlrRR {MlrRR stroke } bdef
/PlrRR {MlrRR fill } bdef
/MtbRR {/lry xdef /lrx xdef /uly xdef /ulx xdef /rad lrx ulx sub 2 div def
  newpath tMatrix currentmatrix pop ulx rad add uly rad add translate
  rad rad scale 0 0 1 180 360 arc tMatrix setmatrix lrx rad sub lry rad
  sub translate rad rad scale 0 0 1 0 180 arc tMatrix setmatrix
  closepath} bdef
/FtbRR {MtbRR stroke } bdef
/PtbRR {MtbRR fill } bdef
/stri 6 array def /dtri 6 array def
/smat 6 array def /dmat 6 array def
/tmat1 6 array def /tmat2 6 array def /dif 3 array def
/asub {/ind2 exch def /ind1 exch def dup dup
  ind1 get exch ind2 get sub exch } bdef
/tri_to_matrix {
  2 0 asub 3 1 asub 4 0 asub 5 1 asub
  dup 0 get exch 1 get 7 -1 roll astore } bdef
/compute_transform {
  dmat dtri tri_to_matrix tmat1 invertmatrix 
  smat stri tri_to_matrix tmat2 concatmatrix } bdef
/ds {stri astore pop} bdef
/dt {dtri astore pop} bdef
/db {2 copy /cols xdef /rows xdef mul dup 3 mul string
  currentfile 
  3 index 0 eq {/ASCIIHexDecode filter}
  {/ASCII85Decode filter 3 index 2 eq {/RunLengthDecode filter} if }
  ifelse exch readstring pop
  dup 0 3 index getinterval /rbmap xdef
  dup 2 index dup getinterval /gbmap xdef
  1 index dup 2 mul exch getinterval /bbmap xdef pop pop}bdef
/it {gs np dtri aload pop moveto lineto lineto cp c
  cols rows 8 compute_transform 
  rbmap gbmap bbmap true 3 colorimage gr}bdef
/il {newpath moveto lineto stroke}bdef
currentdict end def
%%EndProlog

%%BeginSetup
MathWorks begin

0 cap

end
%%EndSetup

%%Page: 1 1
%%BeginPageSetup
%%PageBoundingBox:    81   227   529   564
MathWorks begin
bpage
%%EndPageSetup

%%BeginObject: obj1
bplot

/dpi2point 12 def
portraitMode 0972 6768 csm

    0     0  5376  4033 rc
85 dict begin %Colortable dictionary
/c0 { 0.000000 0.000000 0.000000 sr} bdef
/c1 { 1.000000 1.000000 1.000000 sr} bdef
/c2 { 0.900000 0.000000 0.000000 sr} bdef
/c3 { 0.000000 0.820000 0.000000 sr} bdef
/c4 { 0.000000 0.000000 0.800000 sr} bdef
/c5 { 0.910000 0.820000 0.320000 sr} bdef
/c6 { 1.000000 0.260000 0.820000 sr} bdef
/c7 { 0.000000 0.820000 0.820000 sr} bdef
c0
1 j
1 sg
   0    0 5377 4034 rf
6 w
0 3287 4166 0 0 -3287 699 3589 4 MP
PP
-4166 0 0 3287 4166 0 0 -3287 699 3589 5 MP stroke
4 w
DO
SO
6 w
0 sg
 699 3589 mt 4865 3589 L
 699  302 mt 4865  302 L
 699 3589 mt  699  302 L
4865 3589 mt 4865  302 L
 699 3589 mt 4865 3589 L
 699 3589 mt  699  302 L
1014 3589 mt 1014 3547 L
1014  302 mt 1014  343 L
%%IncludeResource: font Helvetica
/Helvetica /ISOLatin1Encoding 120 FMSR

 981 3734 mt 
(5) s
1394 3589 mt 1394 3547 L
1394  302 mt 1394  343 L
1328 3734 mt 
(10) s
1775 3589 mt 1775 3547 L
1775  302 mt 1775  343 L
1709 3734 mt 
(15) s
2155 3589 mt 2155 3547 L
2155  302 mt 2155  343 L
2089 3734 mt 
(20) s
2536 3589 mt 2536 3547 L
2536  302 mt 2536  343 L
2470 3734 mt 
(25) s
2916 3589 mt 2916 3547 L
2916  302 mt 2916  343 L
2850 3734 mt 
(30) s
3297 3589 mt 3297 3547 L
3297  302 mt 3297  343 L
3231 3734 mt 
(35) s
3677 3589 mt 3677 3547 L
3677  302 mt 3677  343 L
3611 3734 mt 
(40) s
4058 3589 mt 4058 3547 L
4058  302 mt 4058  343 L
3992 3734 mt 
(45) s
4438 3589 mt 4438 3547 L
4438  302 mt 4438  343 L
4372 3734 mt 
(50) s
4819 3589 mt 4819 3547 L
4819  302 mt 4819  343 L
4753 3734 mt 
(55) s
 699 2924 mt  740 2924 L
4865 2924 mt 4823 2924 L
 498 2968 mt 
(0.5) s
 699 2250 mt  740 2250 L
4865 2250 mt 4823 2250 L
 598 2294 mt 
(1) s
 699 1576 mt  740 1576 L
4865 1576 mt 4823 1576 L
 498 1620 mt 
(1.5) s
 699  902 mt  740  902 L
4865  902 mt 4823  902 L
 598  946 mt 
(2) s
 699  248 mt 
(x 10) s
%%IncludeResource: font Helvetica
/Helvetica /ISOLatin1Encoding 80 FMSR

 925  174 mt 
(4) s
 699 3589 mt 4865 3589 L
 699  302 mt 4865  302 L
 699 3589 mt  699  302 L
4865 3589 mt 4865  302 L
gs 699 301 4167 3288 rc
/c8 { 0.000000 0.000000 0.562500 sr} bdef
c8
0 8068 39 0 0 -8068 710 3598 4 MP
PP
 710 3598 mt  710 -4470 L
 710 -4470 mt  749 -4470 L
 749 -4470 mt  749 3598 L
 749 3598 mt  710 3598 L
0 1704 40 0 0 -1704 749 3598 4 MP
PP
 749 3598 mt  749 1894 L
 749 1894 mt  789 1894 L
 789 1894 mt  789 3598 L
 789 3598 mt  749 3598 L
0 0 40 0 0 0 789 3598 4 MP
PP
 789 3598 mt  789 3598 L
 789 3598 mt  829 3598 L
 829 3598 mt  829 3598 L
 829 3598 mt  789 3598 L
0 879 40 0 0 -879 829 3598 4 MP
PP
 829 3598 mt  829 2719 L
 829 2719 mt  869 2719 L
 869 2719 mt  869 3598 L
 869 3598 mt  829 3598 L
0 0 40 0 0 0 869 3598 4 MP
PP
 869 3598 mt  869 3598 L
 869 3598 mt  909 3598 L
 909 3598 mt  909 3598 L
 909 3598 mt  869 3598 L
0 562 40 0 0 -562 909 3598 4 MP
PP
 909 3598 mt  909 3036 L
 909 3036 mt  949 3036 L
 949 3036 mt  949 3598 L
 949 3598 mt  909 3598 L
0 0 40 0 0 0 949 3598 4 MP
PP
 949 3598 mt  949 3598 L
 949 3598 mt  989 3598 L
 989 3598 mt  989 3598 L
 989 3598 mt  949 3598 L
0 383 40 0 0 -383 989 3598 4 MP
PP
 989 3598 mt  989 3215 L
 989 3215 mt 1029 3215 L
1029 3215 mt 1029 3598 L
1029 3598 mt  989 3598 L
0 0 40 0 0 0 1029 3598 4 MP
PP
1029 3598 mt 1029 3598 L
1029 3598 mt 1069 3598 L
1069 3598 mt 1069 3598 L
1069 3598 mt 1029 3598 L
0 277 40 0 0 -277 1069 3598 4 MP
PP
1069 3598 mt 1069 3321 L
1069 3321 mt 1109 3321 L
1109 3321 mt 1109 3598 L
1109 3598 mt 1069 3598 L
0 0 40 0 0 0 1109 3598 4 MP
PP
1109 3598 mt 1109 3598 L
1109 3598 mt 1149 3598 L
1149 3598 mt 1149 3598 L
1149 3598 mt 1109 3598 L
0 218 40 0 0 -218 1149 3598 4 MP
PP
1149 3598 mt 1149 3380 L
1149 3380 mt 1189 3380 L
1189 3380 mt 1189 3598 L
1189 3598 mt 1149 3598 L
0 0 40 0 0 0 1189 3598 4 MP
PP
1189 3598 mt 1189 3598 L
1189 3598 mt 1229 3598 L
1229 3598 mt 1229 3598 L
1229 3598 mt 1189 3598 L
0 166 40 0 0 -166 1229 3598 4 MP
PP
1229 3598 mt 1229 3432 L
1229 3432 mt 1269 3432 L
1269 3432 mt 1269 3598 L
1269 3598 mt 1229 3598 L
0 0 40 0 0 0 1269 3598 4 MP
PP
1269 3598 mt 1269 3598 L
1269 3598 mt 1309 3598 L
1309 3598 mt 1309 3598 L
1309 3598 mt 1269 3598 L
0 139 40 0 0 -139 1309 3598 4 MP
PP
1309 3598 mt 1309 3459 L
1309 3459 mt 1349 3459 L
1349 3459 mt 1349 3598 L
1349 3598 mt 1309 3598 L
0 0 40 0 0 0 1349 3598 4 MP
PP
1349 3598 mt 1349 3598 L
1349 3598 mt 1389 3598 L
1389 3598 mt 1389 3598 L
1389 3598 mt 1349 3598 L
0 111 40 0 0 -111 1389 3598 4 MP
PP
1389 3598 mt 1389 3487 L
1389 3487 mt 1429 3487 L
1429 3487 mt 1429 3598 L
1429 3598 mt 1389 3598 L
0 0 39 0 0 0 1429 3598 4 MP
PP
1429 3598 mt 1429 3598 L
1429 3598 mt 1468 3598 L
1468 3598 mt 1468 3598 L
1468 3598 mt 1429 3598 L
0 97 40 0 0 -97 1468 3598 4 MP
PP
1468 3598 mt 1468 3501 L
1468 3501 mt 1508 3501 L
1508 3501 mt 1508 3598 L
1508 3598 mt 1468 3598 L
0 83 40 0 0 -83 1508 3598 4 MP
PP
1508 3598 mt 1508 3515 L
1508 3515 mt 1548 3515 L
1548 3515 mt 1548 3598 L
1548 3598 mt 1508 3598 L
0 0 40 0 0 0 1548 3598 4 MP
PP
1548 3598 mt 1548 3598 L
1548 3598 mt 1588 3598 L
1588 3598 mt 1588 3598 L
1588 3598 mt 1548 3598 L
0 72 40 0 0 -72 1588 3598 4 MP
PP
1588 3598 mt 1588 3526 L
1588 3526 mt 1628 3526 L
1628 3526 mt 1628 3598 L
1628 3598 mt 1588 3598 L
0 0 40 0 0 0 1628 3598 4 MP
PP
1628 3598 mt 1628 3598 L
1628 3598 mt 1668 3598 L
1668 3598 mt 1668 3598 L
1668 3598 mt 1628 3598 L
0 69 40 0 0 -69 1668 3598 4 MP
PP
1668 3598 mt 1668 3529 L
1668 3529 mt 1708 3529 L
1708 3529 mt 1708 3598 L
1708 3598 mt 1668 3598 L
0 0 40 0 0 0 1708 3598 4 MP
PP
1708 3598 mt 1708 3598 L
1708 3598 mt 1748 3598 L
1748 3598 mt 1748 3598 L
1748 3598 mt 1708 3598 L
0 55 40 0 0 -55 1748 3598 4 MP
PP
1748 3598 mt 1748 3543 L
1748 3543 mt 1788 3543 L
1788 3543 mt 1788 3598 L
1788 3598 mt 1748 3598 L
0 0 40 0 0 0 1788 3598 4 MP
PP
1788 3598 mt 1788 3598 L
1788 3598 mt 1828 3598 L
1828 3598 mt 1828 3598 L
1828 3598 mt 1788 3598 L
0 50 40 0 0 -50 1828 3598 4 MP
PP
1828 3598 mt 1828 3548 L
1828 3548 mt 1868 3548 L
1868 3548 mt 1868 3598 L
1868 3598 mt 1828 3598 L
0 0 40 0 0 0 1868 3598 4 MP
PP
1868 3598 mt 1868 3598 L
1868 3598 mt 1908 3598 L
1908 3598 mt 1908 3598 L
1908 3598 mt 1868 3598 L
0 43 40 0 0 -43 1908 3598 4 MP
PP
1908 3598 mt 1908 3555 L
1908 3555 mt 1948 3555 L
1948 3555 mt 1948 3598 L
1948 3598 mt 1908 3598 L
0 0 40 0 0 0 1948 3598 4 MP
PP
1948 3598 mt 1948 3598 L
1948 3598 mt 1988 3598 L
1988 3598 mt 1988 3598 L
1988 3598 mt 1948 3598 L
0 40 40 0 0 -40 1988 3598 4 MP
PP
1988 3598 mt 1988 3558 L
1988 3558 mt 2028 3558 L
2028 3558 mt 2028 3598 L
2028 3598 mt 1988 3598 L
0 0 40 0 0 0 2028 3598 4 MP
PP
2028 3598 mt 2028 3598 L
2028 3598 mt 2068 3598 L
2068 3598 mt 2068 3598 L
2068 3598 mt 2028 3598 L
0 36 40 0 0 -36 2068 3598 4 MP
PP
2068 3598 mt 2068 3562 L
2068 3562 mt 2108 3562 L
2108 3562 mt 2108 3598 L
2108 3598 mt 2068 3598 L
0 0 40 0 0 0 2108 3598 4 MP
PP
2108 3598 mt 2108 3598 L
2108 3598 mt 2148 3598 L
2148 3598 mt 2148 3598 L
2148 3598 mt 2108 3598 L
0 31 40 0 0 -31 2148 3598 4 MP
PP
2148 3598 mt 2148 3567 L
2148 3567 mt 2188 3567 L
2188 3567 mt 2188 3598 L
2188 3598 mt 2148 3598 L
0 0 39 0 0 0 2188 3598 4 MP
PP
2188 3598 mt 2188 3598 L
2188 3598 mt 2227 3598 L
2227 3598 mt 2227 3598 L
2227 3598 mt 2188 3598 L
0 28 40 0 0 -28 2227 3598 4 MP
PP
2227 3598 mt 2227 3570 L
2227 3570 mt 2267 3570 L
2267 3570 mt 2267 3598 L
2267 3598 mt 2227 3598 L
0 0 40 0 0 0 2267 3598 4 MP
PP
2267 3598 mt 2267 3598 L
2267 3598 mt 2307 3598 L
2307 3598 mt 2307 3598 L
2307 3598 mt 2267 3598 L
0 27 40 0 0 -27 2307 3598 4 MP
PP
2307 3598 mt 2307 3571 L
2307 3571 mt 2347 3571 L
2347 3571 mt 2347 3598 L
2347 3598 mt 2307 3598 L
0 23 40 0 0 -23 2347 3598 4 MP
PP
2347 3598 mt 2347 3575 L
2347 3575 mt 2387 3575 L
2387 3575 mt 2387 3598 L
2387 3598 mt 2347 3598 L
0 0 40 0 0 0 2387 3598 4 MP
PP
2387 3598 mt 2387 3598 L
2387 3598 mt 2427 3598 L
2427 3598 mt 2427 3598 L
2427 3598 mt 2387 3598 L
0 26 40 0 0 -26 2427 3598 4 MP
PP
2427 3598 mt 2427 3572 L
2427 3572 mt 2467 3572 L
2467 3572 mt 2467 3598 L
2467 3598 mt 2427 3598 L
0 0 40 0 0 0 2467 3598 4 MP
PP
2467 3598 mt 2467 3598 L
2467 3598 mt 2507 3598 L
2507 3598 mt 2507 3598 L
2507 3598 mt 2467 3598 L
0 16 40 0 0 -16 2507 3598 4 MP
PP
2507 3598 mt 2507 3582 L
2507 3582 mt 2547 3582 L
2547 3582 mt 2547 3598 L
2547 3598 mt 2507 3598 L
0 0 40 0 0 0 2547 3598 4 MP
PP
2547 3598 mt 2547 3598 L
2547 3598 mt 2587 3598 L
2587 3598 mt 2587 3598 L
2587 3598 mt 2547 3598 L
0 16 40 0 0 -16 2587 3598 4 MP
PP
2587 3598 mt 2587 3582 L
2587 3582 mt 2627 3582 L
2627 3582 mt 2627 3598 L
2627 3598 mt 2587 3598 L
0 0 40 0 0 0 2627 3598 4 MP
PP
2627 3598 mt 2627 3598 L
2627 3598 mt 2667 3598 L
2667 3598 mt 2667 3598 L
2667 3598 mt 2627 3598 L
0 16 40 0 0 -16 2667 3598 4 MP
PP
2667 3598 mt 2667 3582 L
2667 3582 mt 2707 3582 L
2707 3582 mt 2707 3598 L
2707 3598 mt 2667 3598 L
0 0 40 0 0 0 2707 3598 4 MP
PP
2707 3598 mt 2707 3598 L
2707 3598 mt 2747 3598 L
2747 3598 mt 2747 3598 L
2747 3598 mt 2707 3598 L
0 15 40 0 0 -15 2747 3598 4 MP
PP
2747 3598 mt 2747 3583 L
2747 3583 mt 2787 3583 L
2787 3583 mt 2787 3598 L
2787 3598 mt 2747 3598 L
0 0 40 0 0 0 2787 3598 4 MP
PP
2787 3598 mt 2787 3598 L
2787 3598 mt 2827 3598 L
2827 3598 mt 2827 3598 L
2827 3598 mt 2787 3598 L
0 16 40 0 0 -16 2827 3598 4 MP
PP
2827 3598 mt 2827 3582 L
2827 3582 mt 2867 3582 L
2867 3582 mt 2867 3598 L
2867 3598 mt 2827 3598 L
0 0 40 0 0 0 2867 3598 4 MP
PP
2867 3598 mt 2867 3598 L
2867 3598 mt 2907 3598 L
2907 3598 mt 2907 3598 L
2907 3598 mt 2867 3598 L
0 14 39 0 0 -14 2907 3598 4 MP
PP
2907 3598 mt 2907 3584 L
2907 3584 mt 2946 3584 L
2946 3584 mt 2946 3598 L
2946 3598 mt 2907 3598 L
0 0 40 0 0 0 2946 3598 4 MP
PP
2946 3598 mt 2946 3598 L
2946 3598 mt 2986 3598 L
2986 3598 mt 2986 3598 L
2986 3598 mt 2946 3598 L
0 10 40 0 0 -10 2986 3598 4 MP
PP
2986 3598 mt 2986 3588 L
2986 3588 mt 3026 3588 L
3026 3588 mt 3026 3598 L
3026 3598 mt 2986 3598 L
0 0 40 0 0 0 3026 3598 4 MP
PP
3026 3598 mt 3026 3598 L
3026 3598 mt 3066 3598 L
3066 3598 mt 3066 3598 L
3066 3598 mt 3026 3598 L
0 11 40 0 0 -11 3066 3598 4 MP
PP
3066 3598 mt 3066 3587 L
3066 3587 mt 3106 3587 L
3106 3587 mt 3106 3598 L
3106 3598 mt 3066 3598 L
0 9 40 0 0 -9 3106 3598 4 MP
PP
3106 3598 mt 3106 3589 L
3106 3589 mt 3146 3589 L
3146 3589 mt 3146 3598 L
3146 3598 mt 3106 3598 L
0 0 40 0 0 0 3146 3598 4 MP
PP
3146 3598 mt 3146 3598 L
3146 3598 mt 3186 3598 L
3186 3598 mt 3186 3598 L
3186 3598 mt 3146 3598 L
0 10 40 0 0 -10 3186 3598 4 MP
PP
3186 3598 mt 3186 3588 L
3186 3588 mt 3226 3588 L
3226 3588 mt 3226 3598 L
3226 3598 mt 3186 3598 L
0 0 40 0 0 0 3226 3598 4 MP
PP
3226 3598 mt 3226 3598 L
3226 3598 mt 3266 3598 L
3266 3598 mt 3266 3598 L
3266 3598 mt 3226 3598 L
0 10 40 0 0 -10 3266 3598 4 MP
PP
3266 3598 mt 3266 3588 L
3266 3588 mt 3306 3588 L
3306 3588 mt 3306 3598 L
3306 3598 mt 3266 3598 L
0 0 40 0 0 0 3306 3598 4 MP
PP
3306 3598 mt 3306 3598 L
3306 3598 mt 3346 3598 L
3346 3598 mt 3346 3598 L
3346 3598 mt 3306 3598 L
0 9 40 0 0 -9 3346 3598 4 MP
PP
3346 3598 mt 3346 3589 L
3346 3589 mt 3386 3589 L
3386 3589 mt 3386 3598 L
3386 3598 mt 3346 3598 L
0 0 40 0 0 0 3386 3598 4 MP
PP
3386 3598 mt 3386 3598 L
3386 3598 mt 3426 3598 L
3426 3598 mt 3426 3598 L
3426 3598 mt 3386 3598 L
0 10 40 0 0 -10 3426 3598 4 MP
PP
3426 3598 mt 3426 3588 L
3426 3588 mt 3466 3588 L
3466 3588 mt 3466 3598 L
3466 3598 mt 3426 3598 L
0 0 40 0 0 0 3466 3598 4 MP
PP
3466 3598 mt 3466 3598 L
3466 3598 mt 3506 3598 L
3506 3598 mt 3506 3598 L
3506 3598 mt 3466 3598 L
0 8 40 0 0 -8 3506 3598 4 MP
PP
3506 3598 mt 3506 3590 L
3506 3590 mt 3546 3590 L
3546 3590 mt 3546 3598 L
3546 3598 mt 3506 3598 L
0 0 40 0 0 0 3546 3598 4 MP
PP
3546 3598 mt 3546 3598 L
3546 3598 mt 3586 3598 L
3586 3598 mt 3586 3598 L
3586 3598 mt 3546 3598 L
0 6 40 0 0 -6 3586 3598 4 MP
PP
3586 3598 mt 3586 3592 L
3586 3592 mt 3626 3592 L
3626 3592 mt 3626 3598 L
3626 3598 mt 3586 3598 L
0 0 39 0 0 0 3626 3598 4 MP
PP
3626 3598 mt 3626 3598 L
3626 3598 mt 3665 3598 L
3665 3598 mt 3665 3598 L
3665 3598 mt 3626 3598 L
0 7 40 0 0 -7 3665 3598 4 MP
PP
3665 3598 mt 3665 3591 L
3665 3591 mt 3705 3591 L
3705 3591 mt 3705 3598 L
3705 3598 mt 3665 3598 L
0 0 40 0 0 0 3705 3598 4 MP
PP
3705 3598 mt 3705 3598 L
3705 3598 mt 3745 3598 L
3745 3598 mt 3745 3598 L
3745 3598 mt 3705 3598 L
0 6 40 0 0 -6 3745 3598 4 MP
PP
3745 3598 mt 3745 3592 L
3745 3592 mt 3785 3592 L
3785 3592 mt 3785 3598 L
3785 3598 mt 3745 3598 L
0 0 40 0 0 0 3785 3598 4 MP
PP
3785 3598 mt 3785 3598 L
3785 3598 mt 3825 3598 L
3825 3598 mt 3825 3598 L
3825 3598 mt 3785 3598 L
0 5 40 0 0 -5 3825 3598 4 MP
PP
3825 3598 mt 3825 3593 L
3825 3593 mt 3865 3593 L
3865 3593 mt 3865 3598 L
3865 3598 mt 3825 3598 L
0 0 40 0 0 0 3865 3598 4 MP
PP
3865 3598 mt 3865 3598 L
3865 3598 mt 3905 3598 L
3905 3598 mt 3905 3598 L
3905 3598 mt 3865 3598 L
0 4 40 0 0 -4 3905 3598 4 MP
PP
3905 3598 mt 3905 3594 L
3905 3594 mt 3945 3594 L
3945 3594 mt 3945 3598 L
3945 3598 mt 3905 3598 L
0 5 40 0 0 -5 3945 3598 4 MP
PP
3945 3598 mt 3945 3593 L
3945 3593 mt 3985 3593 L
3985 3593 mt 3985 3598 L
3985 3598 mt 3945 3598 L
0 0 40 0 0 0 3985 3598 4 MP
PP
3985 3598 mt 3985 3598 L
3985 3598 mt 4025 3598 L
4025 3598 mt 4025 3598 L
4025 3598 mt 3985 3598 L
0 6 40 0 0 -6 4025 3598 4 MP
PP
4025 3598 mt 4025 3592 L
4025 3592 mt 4065 3592 L
4065 3592 mt 4065 3598 L
4065 3598 mt 4025 3598 L
0 0 40 0 0 0 4065 3598 4 MP
PP
4065 3598 mt 4065 3598 L
4065 3598 mt 4105 3598 L
4105 3598 mt 4105 3598 L
4105 3598 mt 4065 3598 L
0 5 40 0 0 -5 4105 3598 4 MP
PP
4105 3598 mt 4105 3593 L
4105 3593 mt 4145 3593 L
4145 3593 mt 4145 3598 L
4145 3598 mt 4105 3598 L
0 0 40 0 0 0 4145 3598 4 MP
PP
4145 3598 mt 4145 3598 L
4145 3598 mt 4185 3598 L
4185 3598 mt 4185 3598 L
4185 3598 mt 4145 3598 L
0 5 40 0 0 -5 4185 3598 4 MP
PP
4185 3598 mt 4185 3593 L
4185 3593 mt 4225 3593 L
4225 3593 mt 4225 3598 L
4225 3598 mt 4185 3598 L
0 0 40 0 0 0 4225 3598 4 MP
PP
4225 3598 mt 4225 3598 L
4225 3598 mt 4265 3598 L
4265 3598 mt 4265 3598 L
4265 3598 mt 4225 3598 L
0 3 40 0 0 -3 4265 3598 4 MP
PP
4265 3598 mt 4265 3595 L
4265 3595 mt 4305 3595 L
4305 3595 mt 4305 3598 L
4305 3598 mt 4265 3598 L
0 0 40 0 0 0 4305 3598 4 MP
PP
4305 3598 mt 4305 3598 L
4305 3598 mt 4345 3598 L
4345 3598 mt 4345 3598 L
4345 3598 mt 4305 3598 L
0 4 40 0 0 -4 4345 3598 4 MP
PP
4345 3598 mt 4345 3594 L
4345 3594 mt 4385 3594 L
4385 3594 mt 4385 3598 L
4385 3598 mt 4345 3598 L
0 0 39 0 0 0 4385 3598 4 MP
PP
4385 3598 mt 4385 3598 L
4385 3598 mt 4424 3598 L
4424 3598 mt 4424 3598 L
4424 3598 mt 4385 3598 L
0 3 40 0 0 -3 4424 3598 4 MP
PP
4424 3598 mt 4424 3595 L
4424 3595 mt 4464 3595 L
4464 3595 mt 4464 3598 L
4464 3598 mt 4424 3598 L
0 0 40 0 0 0 4464 3598 4 MP
PP
4464 3598 mt 4464 3598 L
4464 3598 mt 4504 3598 L
4504 3598 mt 4504 3598 L
4504 3598 mt 4464 3598 L
0 4 40 0 0 -4 4504 3598 4 MP
PP
4504 3598 mt 4504 3594 L
4504 3594 mt 4544 3594 L
4544 3594 mt 4544 3598 L
4544 3598 mt 4504 3598 L
0 0 40 0 0 0 4544 3598 4 MP
PP
4544 3598 mt 4544 3598 L
4544 3598 mt 4584 3598 L
4584 3598 mt 4584 3598 L
4584 3598 mt 4544 3598 L
0 3 40 0 0 -3 4584 3598 4 MP
PP
4584 3598 mt 4584 3595 L
4584 3595 mt 4624 3595 L
4624 3595 mt 4624 3598 L
4624 3598 mt 4584 3598 L
0 0 40 0 0 0 4624 3598 4 MP
PP
4624 3598 mt 4624 3598 L
4624 3598 mt 4664 3598 L
4664 3598 mt 4664 3598 L
4664 3598 mt 4624 3598 L
0 3 40 0 0 -3 4664 3598 4 MP
PP
4664 3598 mt 4664 3595 L
4664 3595 mt 4704 3595 L
4704 3595 mt 4704 3598 L
4704 3598 mt 4664 3598 L
0 3 40 0 0 -3 4704 3598 4 MP
PP
4704 3598 mt 4704 3595 L
4704 3595 mt 4744 3595 L
4744 3595 mt 4744 3598 L
4744 3598 mt 4704 3598 L
0 0 40 0 0 0 4744 3598 4 MP
PP
4744 3598 mt 4744 3598 L
4744 3598 mt 4784 3598 L
4784 3598 mt 4784 3598 L
4784 3598 mt 4744 3598 L
0 3 40 0 0 -3 4784 3598 4 MP
PP
4784 3598 mt 4784 3595 L
4784 3595 mt 4824 3595 L
4824 3595 mt 4824 3598 L
4824 3598 mt 4784 3598 L
0 0 40 0 0 0 4824 3598 4 MP
PP
4824 3598 mt 4824 3598 L
4824 3598 mt 4864 3598 L
4864 3598 mt 4864 3598 L
4864 3598 mt 4824 3598 L
0 1 40 0 0 -1 4864 3598 4 MP
PP
4864 3598 mt 4864 3597 L
4864 3597 mt 4904 3597 L
4904 3597 mt 4904 3598 L
4904 3598 mt 4864 3598 L
0 0 40 0 0 0 4904 3598 4 MP
PP
4904 3598 mt 4904 3598 L
4904 3598 mt 4944 3598 L
4944 3598 mt 4944 3598 L
4944 3598 mt 4904 3598 L
0 1 40 0 0 -1 4944 3598 4 MP
PP
4944 3598 mt 4944 3597 L
4944 3597 mt 4984 3597 L
4984 3597 mt 4984 3598 L
4984 3598 mt 4944 3598 L
0 0 40 0 0 0 4984 3598 4 MP
PP
4984 3598 mt 4984 3598 L
4984 3598 mt 5024 3598 L
5024 3598 mt 5024 3598 L
5024 3598 mt 4984 3598 L
0 2 40 0 0 -2 5024 3598 4 MP
PP
5024 3598 mt 5024 3596 L
5024 3596 mt 5064 3596 L
5064 3596 mt 5064 3598 L
5064 3598 mt 5024 3598 L
0 0 40 0 0 0 5064 3598 4 MP
PP
5064 3598 mt 5064 3598 L
5064 3598 mt 5104 3598 L
5104 3598 mt 5104 3598 L
5104 3598 mt 5064 3598 L
0 2 39 0 0 -2 5104 3598 4 MP
PP
5104 3598 mt 5104 3596 L
5104 3596 mt 5143 3596 L
5143 3596 mt 5143 3598 L
5143 3598 mt 5104 3598 L
0 0 40 0 0 0 5143 3598 4 MP
PP
5143 3598 mt 5143 3598 L
5143 3598 mt 5183 3598 L
5183 3598 mt 5183 3598 L
5183 3598 mt 5143 3598 L
0 2 40 0 0 -2 5183 3598 4 MP
PP
5183 3598 mt 5183 3596 L
5183 3596 mt 5223 3596 L
5223 3596 mt 5223 3598 L
5223 3598 mt 5183 3598 L
0 0 40 0 0 0 5223 3598 4 MP
PP
5223 3598 mt 5223 3598 L
5223 3598 mt 5263 3598 L
5263 3598 mt 5263 3598 L
5263 3598 mt 5223 3598 L
0 3 40 0 0 -3 5263 3598 4 MP
PP
5263 3598 mt 5263 3595 L
5263 3595 mt 5303 3595 L
5303 3595 mt 5303 3598 L
5303 3598 mt 5263 3598 L
0 0 40 0 0 0 5303 3598 4 MP
PP
5303 3598 mt 5303 3598 L
5303 3598 mt 5343 3598 L
5343 3598 mt 5343 3598 L
5343 3598 mt 5303 3598 L
0 2 40 0 0 -2 5343 3598 4 MP
PP
5343 3598 mt 5343 3596 L
5343 3596 mt 5383 3596 L
5383 3596 mt 5383 3598 L
5383 3598 mt 5343 3598 L
0 0 40 0 0 0 5383 3598 4 MP
PP
5383 3598 mt 5383 3598 L
5383 3598 mt 5423 3598 L
5423 3598 mt 5423 3598 L
5423 3598 mt 5383 3598 L
0 2 40 0 0 -2 5423 3598 4 MP
PP
5423 3598 mt 5423 3596 L
5423 3596 mt 5463 3596 L
5463 3596 mt 5463 3598 L
5463 3598 mt 5423 3598 L
0 0 40 0 0 0 5463 3598 4 MP
PP
5463 3598 mt 5463 3598 L
5463 3598 mt 5503 3598 L
5503 3598 mt 5503 3598 L
5503 3598 mt 5463 3598 L
0 2 40 0 0 -2 5503 3598 4 MP
PP
5503 3598 mt 5503 3596 L
5503 3596 mt 5543 3596 L
5543 3596 mt 5543 3598 L
5543 3598 mt 5503 3598 L
0 1 40 0 0 -1 5543 3598 4 MP
PP
5543 3598 mt 5543 3597 L
5543 3597 mt 5583 3597 L
5583 3597 mt 5583 3598 L
5583 3598 mt 5543 3598 L
0 0 40 0 0 0 5583 3598 4 MP
PP
5583 3598 mt 5583 3598 L
5583 3598 mt 5623 3598 L
5623 3598 mt 5623 3598 L
5623 3598 mt 5583 3598 L
0 1 40 0 0 -1 5623 3598 4 MP
PP
5623 3598 mt 5623 3597 L
5623 3597 mt 5663 3597 L
5663 3597 mt 5663 3598 L
5663 3598 mt 5623 3598 L
0 0 40 0 0 0 5663 3598 4 MP
PP
5663 3598 mt 5663 3598 L
5663 3598 mt 5703 3598 L
5703 3598 mt 5703 3598 L
5703 3598 mt 5663 3598 L
0 1 40 0 0 -1 5703 3598 4 MP
PP
5703 3598 mt 5703 3597 L
5703 3597 mt 5743 3597 L
5743 3597 mt 5743 3598 L
5743 3598 mt 5703 3598 L
0 0 40 0 0 0 5743 3598 4 MP
PP
5743 3598 mt 5743 3598 L
5743 3598 mt 5783 3598 L
5783 3598 mt 5783 3598 L
5783 3598 mt 5743 3598 L
0 1 40 0 0 -1 5783 3598 4 MP
PP
5783 3598 mt 5783 3597 L
5783 3597 mt 5823 3597 L
5823 3597 mt 5823 3598 L
5823 3598 mt 5783 3598 L
0 0 40 0 0 0 5823 3598 4 MP
PP
5823 3598 mt 5823 3598 L
5823 3598 mt 5863 3598 L
5863 3598 mt 5863 3598 L
5863 3598 mt 5823 3598 L
0 2 39 0 0 -2 5863 3598 4 MP
PP
5863 3598 mt 5863 3596 L
5863 3596 mt 5902 3596 L
5902 3596 mt 5902 3598 L
5902 3598 mt 5863 3598 L
0 0 40 0 0 0 5902 3598 4 MP
PP
5902 3598 mt 5902 3598 L
5902 3598 mt 5942 3598 L
5942 3598 mt 5942 3598 L
5942 3598 mt 5902 3598 L
0 1 40 0 0 -1 5942 3598 4 MP
PP
5942 3598 mt 5942 3597 L
5942 3597 mt 5982 3597 L
5982 3597 mt 5982 3598 L
5982 3598 mt 5942 3598 L
0 0 40 0 0 0 5982 3598 4 MP
PP
5982 3598 mt 5982 3598 L
5982 3598 mt 6022 3598 L
6022 3598 mt 6022 3598 L
6022 3598 mt 5982 3598 L
0 1 40 0 0 -1 6022 3598 4 MP
PP
6022 3598 mt 6022 3597 L
6022 3597 mt 6062 3597 L
6062 3597 mt 6062 3598 L
6062 3598 mt 6022 3598 L
0 0 40 0 0 0 6062 3598 4 MP
PP
6062 3598 mt 6062 3598 L
6062 3598 mt 6102 3598 L
6102 3598 mt 6102 3598 L
6102 3598 mt 6062 3598 L
0 1 40 0 0 -1 6102 3598 4 MP
PP
6102 3598 mt 6102 3597 L
6102 3597 mt 6142 3597 L
6142 3597 mt 6142 3598 L
6142 3598 mt 6102 3598 L
0 0 40 0 0 0 6142 3598 4 MP
PP
6142 3598 mt 6142 3598 L
6142 3598 mt 6182 3598 L
6182 3598 mt 6182 3598 L
6182 3598 mt 6142 3598 L
0 1 40 0 0 -1 6182 3598 4 MP
PP
6182 3598 mt 6182 3597 L
6182 3597 mt 6222 3597 L
6222 3597 mt 6222 3598 L
6222 3598 mt 6182 3598 L
0 0 40 0 0 0 6222 3598 4 MP
PP
6222 3598 mt 6222 3598 L
6222 3598 mt 6262 3598 L
6262 3598 mt 6262 3598 L
6262 3598 mt 6222 3598 L
0 1 40 0 0 -1 6262 3598 4 MP
PP
6262 3598 mt 6262 3597 L
6262 3597 mt 6302 3597 L
6302 3597 mt 6302 3598 L
6302 3598 mt 6262 3598 L
0 1 40 0 0 -1 6302 3598 4 MP
PP
6302 3598 mt 6302 3597 L
6302 3597 mt 6342 3597 L
6342 3597 mt 6342 3598 L
6342 3598 mt 6302 3598 L
0 0 40 0 0 0 6342 3598 4 MP
PP
6342 3598 mt 6342 3598 L
6342 3598 mt 6382 3598 L
6382 3598 mt 6382 3598 L
6382 3598 mt 6342 3598 L
0 0 40 0 0 0 6382 3598 4 MP
PP
6382 3598 mt 6382 3598 L
6382 3598 mt 6422 3598 L
6422 3598 mt 6422 3598 L
6422 3598 mt 6382 3598 L
0 0 40 0 0 0 6422 3598 4 MP
PP
6422 3598 mt 6422 3598 L
6422 3598 mt 6462 3598 L
6462 3598 mt 6462 3598 L
6462 3598 mt 6422 3598 L
0 1 40 0 0 -1 6462 3598 4 MP
PP
6462 3598 mt 6462 3597 L
6462 3597 mt 6502 3597 L
6502 3597 mt 6502 3598 L
6502 3598 mt 6462 3598 L
0 0 40 0 0 0 6502 3598 4 MP
PP
6502 3598 mt 6502 3598 L
6502 3598 mt 6542 3598 L
6542 3598 mt 6542 3598 L
6542 3598 mt 6502 3598 L
0 1 40 0 0 -1 6542 3598 4 MP
PP
6542 3598 mt 6542 3597 L
6542 3597 mt 6582 3597 L
6582 3597 mt 6582 3598 L
6582 3598 mt 6542 3598 L
0 0 39 0 0 0 6582 3598 4 MP
PP
6582 3598 mt 6582 3598 L
6582 3598 mt 6621 3598 L
6621 3598 mt 6621 3598 L
6621 3598 mt 6582 3598 L
0 1 40 0 0 -1 6621 3598 4 MP
PP
6621 3598 mt 6621 3597 L
6621 3597 mt 6661 3597 L
6661 3597 mt 6661 3598 L
6661 3598 mt 6621 3598 L
0 0 40 0 0 0 6661 3598 4 MP
PP
6661 3598 mt 6661 3598 L
6661 3598 mt 6701 3598 L
6701 3598 mt 6701 3598 L
6701 3598 mt 6661 3598 L
0 1 40 0 0 -1 6701 3598 4 MP
PP
6701 3598 mt 6701 3597 L
6701 3597 mt 6741 3597 L
6741 3597 mt 6741 3598 L
6741 3598 mt 6701 3598 L
0 0 40 0 0 0 6741 3598 4 MP
PP
6741 3598 mt 6741 3598 L
6741 3598 mt 6781 3598 L
6781 3598 mt 6781 3598 L
6781 3598 mt 6741 3598 L
0 1 40 0 0 -1 6781 3598 4 MP
PP
6781 3598 mt 6781 3597 L
6781 3597 mt 6821 3597 L
6821 3597 mt 6821 3598 L
6821 3598 mt 6781 3598 L
0 0 40 0 0 0 6821 3598 4 MP
PP
6821 3598 mt 6821 3598 L
6821 3598 mt 6861 3598 L
6861 3598 mt 6861 3598 L
6861 3598 mt 6821 3598 L
0 0 40 0 0 0 6861 3598 4 MP
PP
6861 3598 mt 6861 3598 L
6861 3598 mt 6901 3598 L
6901 3598 mt 6901 3598 L
6901 3598 mt 6861 3598 L
0 0 40 0 0 0 6901 3598 4 MP
PP
6901 3598 mt 6901 3598 L
6901 3598 mt 6941 3598 L
6941 3598 mt 6941 3598 L
6941 3598 mt 6901 3598 L
0 1 40 0 0 -1 6941 3598 4 MP
PP
6941 3598 mt 6941 3597 L
6941 3597 mt 6981 3597 L
6981 3597 mt 6981 3598 L
6981 3598 mt 6941 3598 L
0 0 40 0 0 0 6981 3598 4 MP
PP
6981 3598 mt 6981 3598 L
6981 3598 mt 7021 3598 L
7021 3598 mt 7021 3598 L
7021 3598 mt 6981 3598 L
0 1 40 0 0 -1 7021 3598 4 MP
PP
7021 3598 mt 7021 3597 L
7021 3597 mt 7061 3597 L
7061 3597 mt 7061 3598 L
7061 3598 mt 7021 3598 L
0 0 40 0 0 0 7061 3598 4 MP
PP
7061 3598 mt 7061 3598 L
7061 3598 mt 7101 3598 L
7101 3598 mt 7101 3598 L
7101 3598 mt 7061 3598 L
0 1 40 0 0 -1 7101 3598 4 MP
PP
7101 3598 mt 7101 3597 L
7101 3597 mt 7141 3597 L
7141 3597 mt 7141 3598 L
7141 3598 mt 7101 3598 L
0 1 40 0 0 -1 7141 3598 4 MP
PP
7141 3598 mt 7141 3597 L
7141 3597 mt 7181 3597 L
7181 3597 mt 7181 3598 L
7181 3598 mt 7141 3598 L
0 0 40 0 0 0 7181 3598 4 MP
PP
7181 3598 mt 7181 3598 L
7181 3598 mt 7221 3598 L
7221 3598 mt 7221 3598 L
7221 3598 mt 7181 3598 L
0 1 40 0 0 -1 7221 3598 4 MP
PP
7221 3598 mt 7221 3597 L
7221 3597 mt 7261 3597 L
7261 3597 mt 7261 3598 L
7261 3598 mt 7221 3598 L
0 0 40 0 0 0 7261 3598 4 MP
PP
7261 3598 mt 7261 3598 L
7261 3598 mt 7301 3598 L
7301 3598 mt 7301 3598 L
7301 3598 mt 7261 3598 L
0 0 40 0 0 0 7301 3598 4 MP
PP
7301 3598 mt 7301 3598 L
7301 3598 mt 7341 3598 L
7341 3598 mt 7341 3598 L
7341 3598 mt 7301 3598 L
0 0 39 0 0 0 7341 3598 4 MP
PP
7341 3598 mt 7341 3598 L
7341 3598 mt 7380 3598 L
7380 3598 mt 7380 3598 L
7380 3598 mt 7341 3598 L
0 0 40 0 0 0 7380 3598 4 MP
PP
7380 3598 mt 7380 3598 L
7380 3598 mt 7420 3598 L
7420 3598 mt 7420 3598 L
7420 3598 mt 7380 3598 L
0 0 40 0 0 0 7420 3598 4 MP
PP
7420 3598 mt 7420 3598 L
7420 3598 mt 7460 3598 L
7460 3598 mt 7460 3598 L
7460 3598 mt 7420 3598 L
0 0 40 0 0 0 7460 3598 4 MP
PP
7460 3598 mt 7460 3598 L
7460 3598 mt 7500 3598 L
7500 3598 mt 7500 3598 L
7500 3598 mt 7460 3598 L
0 0 40 0 0 0 7500 3598 4 MP
PP
7500 3598 mt 7500 3598 L
7500 3598 mt 7540 3598 L
7540 3598 mt 7540 3598 L
7540 3598 mt 7500 3598 L
0 0 40 0 0 0 7540 3598 4 MP
PP
7540 3598 mt 7540 3598 L
7540 3598 mt 7580 3598 L
7580 3598 mt 7580 3598 L
7580 3598 mt 7540 3598 L
0 0 40 0 0 0 7580 3598 4 MP
PP
7580 3598 mt 7580 3598 L
7580 3598 mt 7620 3598 L
7620 3598 mt 7620 3598 L
7620 3598 mt 7580 3598 L
0 1 40 0 0 -1 7620 3598 4 MP
PP
7620 3598 mt 7620 3597 L
7620 3597 mt 7660 3597 L
7660 3597 mt 7660 3598 L
7660 3598 mt 7620 3598 L
0 0 40 0 0 0 7660 3598 4 MP
PP
7660 3598 mt 7660 3598 L
7660 3598 mt 7700 3598 L
7700 3598 mt 7700 3598 L
7700 3598 mt 7660 3598 L
0 0 40 0 0 0 7700 3598 4 MP
PP
7700 3598 mt 7700 3598 L
7700 3598 mt 7740 3598 L
7740 3598 mt 7740 3598 L
7740 3598 mt 7700 3598 L
0 0 40 0 0 0 7740 3598 4 MP
PP
7740 3598 mt 7740 3598 L
7740 3598 mt 7780 3598 L
7780 3598 mt 7780 3598 L
7780 3598 mt 7740 3598 L
0 0 40 0 0 0 7780 3598 4 MP
PP
7780 3598 mt 7780 3598 L
7780 3598 mt 7820 3598 L
7820 3598 mt 7820 3598 L
7820 3598 mt 7780 3598 L
0 0 40 0 0 0 7820 3598 4 MP
PP
7820 3598 mt 7820 3598 L
7820 3598 mt 7860 3598 L
7860 3598 mt 7860 3598 L
7860 3598 mt 7820 3598 L
0 0 40 0 0 0 7860 3598 4 MP
PP
7860 3598 mt 7860 3598 L
7860 3598 mt 7900 3598 L
7900 3598 mt 7900 3598 L
7900 3598 mt 7860 3598 L
0 0 40 0 0 0 7900 3598 4 MP
PP
7900 3598 mt 7900 3598 L
7900 3598 mt 7940 3598 L
7940 3598 mt 7940 3598 L
7940 3598 mt 7900 3598 L
0 0 40 0 0 0 7940 3598 4 MP
PP
7940 3598 mt 7940 3598 L
7940 3598 mt 7980 3598 L
7980 3598 mt 7980 3598 L
7980 3598 mt 7940 3598 L
0 0 40 0 0 0 7980 3598 4 MP
PP
7980 3598 mt 7980 3598 L
7980 3598 mt 8020 3598 L
8020 3598 mt 8020 3598 L
8020 3598 mt 7980 3598 L
0 0 40 0 0 0 8020 3598 4 MP
PP
8020 3598 mt 8020 3598 L
8020 3598 mt 8060 3598 L
8060 3598 mt 8060 3598 L
8060 3598 mt 8020 3598 L
0 0 39 0 0 0 8060 3598 4 MP
PP
8060 3598 mt 8060 3598 L
8060 3598 mt 8099 3598 L
8099 3598 mt 8099 3598 L
8099 3598 mt 8060 3598 L
0 0 40 0 0 0 8099 3598 4 MP
PP
8099 3598 mt 8099 3598 L
8099 3598 mt 8139 3598 L
8139 3598 mt 8139 3598 L
8139 3598 mt 8099 3598 L
0 0 40 0 0 0 8139 3598 4 MP
PP
8139 3598 mt 8139 3598 L
8139 3598 mt 8179 3598 L
8179 3598 mt 8179 3598 L
8179 3598 mt 8139 3598 L
0 0 40 0 0 0 8179 3598 4 MP
PP
8179 3598 mt 8179 3598 L
8179 3598 mt 8219 3598 L
8219 3598 mt 8219 3598 L
8219 3598 mt 8179 3598 L
0 0 40 0 0 0 8219 3598 4 MP
PP
8219 3598 mt 8219 3598 L
8219 3598 mt 8259 3598 L
8259 3598 mt 8259 3598 L
8259 3598 mt 8219 3598 L
0 0 40 0 0 0 8259 3598 4 MP
PP
8259 3598 mt 8259 3598 L
8259 3598 mt 8299 3598 L
8299 3598 mt 8299 3598 L
8299 3598 mt 8259 3598 L
0 0 40 0 0 0 8299 3598 4 MP
PP
8299 3598 mt 8299 3598 L
8299 3598 mt 8339 3598 L
8339 3598 mt 8339 3598 L
8339 3598 mt 8299 3598 L
0 0 40 0 0 0 8339 3598 4 MP
PP
8339 3598 mt 8339 3598 L
8339 3598 mt 8379 3598 L
8379 3598 mt 8379 3598 L
8379 3598 mt 8339 3598 L
0 0 40 0 0 0 8379 3598 4 MP
PP
8379 3598 mt 8379 3598 L
8379 3598 mt 8419 3598 L
8419 3598 mt 8419 3598 L
8419 3598 mt 8379 3598 L
0 0 40 0 0 0 8419 3598 4 MP
PP
8419 3598 mt 8419 3598 L
8419 3598 mt 8459 3598 L
8459 3598 mt 8459 3598 L
8459 3598 mt 8419 3598 L
0 0 40 0 0 0 8459 3598 4 MP
PP
8459 3598 mt 8459 3598 L
8459 3598 mt 8499 3598 L
8499 3598 mt 8499 3598 L
8499 3598 mt 8459 3598 L
0 0 40 0 0 0 8499 3598 4 MP
PP
8499 3598 mt 8499 3598 L
8499 3598 mt 8539 3598 L
8539 3598 mt 8539 3598 L
8539 3598 mt 8499 3598 L
0 0 40 0 0 0 8539 3598 4 MP
PP
8539 3598 mt 8539 3598 L
8539 3598 mt 8579 3598 L
8579 3598 mt 8579 3598 L
8579 3598 mt 8539 3598 L
0 0 40 0 0 0 8579 3598 4 MP
PP
8579 3598 mt 8579 3598 L
8579 3598 mt 8619 3598 L
8619 3598 mt 8619 3598 L
8619 3598 mt 8579 3598 L
0 1 40 0 0 -1 8619 3598 4 MP
PP
8619 3598 mt 8619 3597 L
8619 3597 mt 8659 3597 L
8659 3597 mt 8659 3598 L
8659 3598 mt 8619 3598 L
0 0 40 0 0 0 8659 3598 4 MP
PP
8659 3598 mt 8659 3598 L
8659 3598 mt 8699 3598 L
8699 3598 mt 8699 3598 L
8699 3598 mt 8659 3598 L
0 0 40 0 0 0 8699 3598 4 MP
PP
8699 3598 mt 8699 3598 L
8699 3598 mt 8739 3598 L
8739 3598 mt 8739 3598 L
8739 3598 mt 8699 3598 L
0 0 40 0 0 0 8739 3598 4 MP
PP
8739 3598 mt 8739 3598 L
8739 3598 mt 8779 3598 L
8779 3598 mt 8779 3598 L
8779 3598 mt 8739 3598 L
0 0 39 0 0 0 8779 3598 4 MP
PP
8779 3598 mt 8779 3598 L
8779 3598 mt 8818 3598 L
8818 3598 mt 8818 3598 L
8818 3598 mt 8779 3598 L
0 0 40 0 0 0 8818 3598 4 MP
PP
8818 3598 mt 8818 3598 L
8818 3598 mt 8858 3598 L
8858 3598 mt 8858 3598 L
8858 3598 mt 8818 3598 L
0 0 40 0 0 0 8858 3598 4 MP
PP
8858 3598 mt 8858 3598 L
8858 3598 mt 8898 3598 L
8898 3598 mt 8898 3598 L
8898 3598 mt 8858 3598 L
0 0 40 0 0 0 8898 3598 4 MP
PP
8898 3598 mt 8898 3598 L
8898 3598 mt 8938 3598 L
8938 3598 mt 8938 3598 L
8938 3598 mt 8898 3598 L
0 0 40 0 0 0 8938 3598 4 MP
PP
8938 3598 mt 8938 3598 L
8938 3598 mt 8978 3598 L
8978 3598 mt 8978 3598 L
8978 3598 mt 8938 3598 L
0 1 40 0 0 -1 8978 3598 4 MP
PP
8978 3598 mt 8978 3597 L
8978 3597 mt 9018 3597 L
9018 3597 mt 9018 3598 L
9018 3598 mt 8978 3598 L
0 0 40 0 0 0 9018 3598 4 MP
PP
9018 3598 mt 9018 3598 L
9018 3598 mt 9058 3598 L
9058 3598 mt 9058 3598 L
9058 3598 mt 9018 3598 L
0 0 40 0 0 0 9058 3598 4 MP
PP
9058 3598 mt 9058 3598 L
9058 3598 mt 9098 3598 L
9098 3598 mt 9098 3598 L
9098 3598 mt 9058 3598 L
0 0 40 0 0 0 9098 3598 4 MP
PP
9098 3598 mt 9098 3598 L
9098 3598 mt 9138 3598 L
9138 3598 mt 9138 3598 L
9138 3598 mt 9098 3598 L
0 0 40 0 0 0 9138 3598 4 MP
PP
9138 3598 mt 9138 3598 L
9138 3598 mt 9178 3598 L
9178 3598 mt 9178 3598 L
9178 3598 mt 9138 3598 L
0 0 40 0 0 0 9178 3598 4 MP
PP
9178 3598 mt 9178 3598 L
9178 3598 mt 9218 3598 L
9218 3598 mt 9218 3598 L
9218 3598 mt 9178 3598 L
0 0 40 0 0 0 9218 3598 4 MP
PP
9218 3598 mt 9218 3598 L
9218 3598 mt 9258 3598 L
9258 3598 mt 9258 3598 L
9258 3598 mt 9218 3598 L
0 0 40 0 0 0 9258 3598 4 MP
PP
9258 3598 mt 9258 3598 L
9258 3598 mt 9298 3598 L
9298 3598 mt 9298 3598 L
9298 3598 mt 9258 3598 L
0 0 40 0 0 0 9298 3598 4 MP
PP
9298 3598 mt 9298 3598 L
9298 3598 mt 9338 3598 L
9338 3598 mt 9338 3598 L
9338 3598 mt 9298 3598 L
0 0 40 0 0 0 9338 3598 4 MP
PP
9338 3598 mt 9338 3598 L
9338 3598 mt 9378 3598 L
9378 3598 mt 9378 3598 L
9378 3598 mt 9338 3598 L
0 0 40 0 0 0 9378 3598 4 MP
PP
9378 3598 mt 9378 3598 L
9378 3598 mt 9418 3598 L
9418 3598 mt 9418 3598 L
9418 3598 mt 9378 3598 L
0 0 40 0 0 0 9418 3598 4 MP
PP
9418 3598 mt 9418 3598 L
9418 3598 mt 9458 3598 L
9458 3598 mt 9458 3598 L
9458 3598 mt 9418 3598 L
0 0 40 0 0 0 9458 3598 4 MP
PP
9458 3598 mt 9458 3598 L
9458 3598 mt 9498 3598 L
9498 3598 mt 9498 3598 L
9498 3598 mt 9458 3598 L
0 0 40 0 0 0 9498 3598 4 MP
PP
9498 3598 mt 9498 3598 L
9498 3598 mt 9538 3598 L
9538 3598 mt 9538 3598 L
9538 3598 mt 9498 3598 L
0 0 39 0 0 0 9538 3598 4 MP
PP
9538 3598 mt 9538 3598 L
9538 3598 mt 9577 3598 L
9577 3598 mt 9577 3598 L
9577 3598 mt 9538 3598 L
0 0 40 0 0 0 9577 3598 4 MP
PP
9577 3598 mt 9577 3598 L
9577 3598 mt 9617 3598 L
9617 3598 mt 9617 3598 L
9617 3598 mt 9577 3598 L
0 0 40 0 0 0 9617 3598 4 MP
PP
9617 3598 mt 9617 3598 L
9617 3598 mt 9657 3598 L
9657 3598 mt 9657 3598 L
9657 3598 mt 9617 3598 L
0 0 40 0 0 0 9657 3598 4 MP
PP
9657 3598 mt 9657 3598 L
9657 3598 mt 9697 3598 L
9697 3598 mt 9697 3598 L
9697 3598 mt 9657 3598 L
0 0 40 0 0 0 9697 3598 4 MP
PP
9697 3598 mt 9697 3598 L
9697 3598 mt 9737 3598 L
9737 3598 mt 9737 3598 L
9737 3598 mt 9697 3598 L
0 0 40 0 0 0 9737 3598 4 MP
PP
9737 3598 mt 9737 3598 L
9737 3598 mt 9777 3598 L
9777 3598 mt 9777 3598 L
9777 3598 mt 9737 3598 L
0 0 40 0 0 0 9777 3598 4 MP
PP
9777 3598 mt 9777 3598 L
9777 3598 mt 9817 3598 L
9817 3598 mt 9817 3598 L
9817 3598 mt 9777 3598 L
0 0 40 0 0 0 9817 3598 4 MP
PP
9817 3598 mt 9817 3598 L
9817 3598 mt 9857 3598 L
9857 3598 mt 9857 3598 L
9857 3598 mt 9817 3598 L
0 0 40 0 0 0 9857 3598 4 MP
PP
9857 3598 mt 9857 3598 L
9857 3598 mt 9897 3598 L
9897 3598 mt 9897 3598 L
9897 3598 mt 9857 3598 L
0 0 40 0 0 0 9897 3598 4 MP
PP
9897 3598 mt 9897 3598 L
9897 3598 mt 9937 3598 L
9937 3598 mt 9937 3598 L
9937 3598 mt 9897 3598 L
0 0 40 0 0 0 9937 3598 4 MP
PP
9937 3598 mt 9937 3598 L
9937 3598 mt 9977 3598 L
9977 3598 mt 9977 3598 L
9977 3598 mt 9937 3598 L
0 0 40 0 0 0 9977 3598 4 MP
PP
9977 3598 mt 9977 3598 L
9977 3598 mt 10017 3598 L
10017 3598 mt 10017 3598 L
10017 3598 mt 9977 3598 L
0 0 40 0 0 0 10017 3598 4 MP
PP
10017 3598 mt 10017 3598 L
10017 3598 mt 10057 3598 L
10057 3598 mt 10057 3598 L
10057 3598 mt 10017 3598 L
0 0 40 0 0 0 10057 3598 4 MP
PP
10057 3598 mt 10057 3598 L
10057 3598 mt 10097 3598 L
10097 3598 mt 10097 3598 L
10097 3598 mt 10057 3598 L
0 0 40 0 0 0 10097 3598 4 MP
PP
10097 3598 mt 10097 3598 L
10097 3598 mt 10137 3598 L
10137 3598 mt 10137 3598 L
10137 3598 mt 10097 3598 L
0 0 40 0 0 0 10137 3598 4 MP
PP
10137 3598 mt 10137 3598 L
10137 3598 mt 10177 3598 L
10177 3598 mt 10177 3598 L
10177 3598 mt 10137 3598 L
0 0 40 0 0 0 10177 3598 4 MP
PP
10177 3598 mt 10177 3598 L
10177 3598 mt 10217 3598 L
10217 3598 mt 10217 3598 L
10217 3598 mt 10177 3598 L
0 0 40 0 0 0 10217 3598 4 MP
PP
10217 3598 mt 10217 3598 L
10217 3598 mt 10257 3598 L
10257 3598 mt 10257 3598 L
10257 3598 mt 10217 3598 L
0 0 39 0 0 0 10257 3598 4 MP
PP
10257 3598 mt 10257 3598 L
10257 3598 mt 10296 3598 L
10296 3598 mt 10296 3598 L
10296 3598 mt 10257 3598 L
0 0 40 0 0 0 10296 3598 4 MP
PP
10296 3598 mt 10296 3598 L
10296 3598 mt 10336 3598 L
10336 3598 mt 10336 3598 L
10336 3598 mt 10296 3598 L
0 0 40 0 0 0 10336 3598 4 MP
PP
10336 3598 mt 10336 3598 L
10336 3598 mt 10376 3598 L
10376 3598 mt 10376 3598 L
10376 3598 mt 10336 3598 L
0 0 40 0 0 0 10376 3598 4 MP
PP
10376 3598 mt 10376 3598 L
10376 3598 mt 10416 3598 L
10416 3598 mt 10416 3598 L
10416 3598 mt 10376 3598 L
0 0 40 0 0 0 10416 3598 4 MP
PP
10416 3598 mt 10416 3598 L
10416 3598 mt 10456 3598 L
10456 3598 mt 10456 3598 L
10456 3598 mt 10416 3598 L
0 0 40 0 0 0 10456 3598 4 MP
PP
10456 3598 mt 10456 3598 L
10456 3598 mt 10496 3598 L
10496 3598 mt 10496 3598 L
10496 3598 mt 10456 3598 L
0 0 40 0 0 0 10496 3598 4 MP
PP
10496 3598 mt 10496 3598 L
10496 3598 mt 10536 3598 L
10536 3598 mt 10536 3598 L
10536 3598 mt 10496 3598 L
0 0 40 0 0 0 10536 3598 4 MP
PP
10536 3598 mt 10536 3598 L
10536 3598 mt 10576 3598 L
10576 3598 mt 10576 3598 L
10576 3598 mt 10536 3598 L
0 0 40 0 0 0 10576 3598 4 MP
PP
10576 3598 mt 10576 3598 L
10576 3598 mt 10616 3598 L
10616 3598 mt 10616 3598 L
10616 3598 mt 10576 3598 L
0 0 40 0 0 0 10616 3598 4 MP
PP
10616 3598 mt 10616 3598 L
10616 3598 mt 10656 3598 L
10656 3598 mt 10656 3598 L
10656 3598 mt 10616 3598 L
0 0 40 0 0 0 10656 3598 4 MP
PP
10656 3598 mt 10656 3598 L
10656 3598 mt 10696 3598 L
10696 3598 mt 10696 3598 L
10696 3598 mt 10656 3598 L
0 0 40 0 0 0 10696 3598 4 MP
PP
10696 3598 mt 10696 3598 L
10696 3598 mt 10736 3598 L
10736 3598 mt 10736 3598 L
10736 3598 mt 10696 3598 L
0 0 40 0 0 0 10736 3598 4 MP
PP
10736 3598 mt 10736 3598 L
10736 3598 mt 10776 3598 L
10776 3598 mt 10776 3598 L
10776 3598 mt 10736 3598 L
0 0 40 0 0 0 10776 3598 4 MP
PP
10776 3598 mt 10776 3598 L
10776 3598 mt 10816 3598 L
10816 3598 mt 10816 3598 L
10816 3598 mt 10776 3598 L
0 0 40 0 0 0 10816 3598 4 MP
PP
10816 3598 mt 10816 3598 L
10816 3598 mt 10856 3598 L
10856 3598 mt 10856 3598 L
10856 3598 mt 10816 3598 L
0 0 40 0 0 0 10856 3598 4 MP
PP
10856 3598 mt 10856 3598 L
10856 3598 mt 10896 3598 L
10896 3598 mt 10896 3598 L
10896 3598 mt 10856 3598 L
0 0 40 0 0 0 10896 3598 4 MP
PP
10896 3598 mt 10896 3598 L
10896 3598 mt 10936 3598 L
10936 3598 mt 10936 3598 L
10936 3598 mt 10896 3598 L
0 0 40 0 0 0 10936 3598 4 MP
PP
10936 3598 mt 10936 3598 L
10936 3598 mt 10976 3598 L
10976 3598 mt 10976 3598 L
10976 3598 mt 10936 3598 L
0 0 40 0 0 0 10976 3598 4 MP
PP
10976 3598 mt 10976 3598 L
10976 3598 mt 11016 3598 L
11016 3598 mt 11016 3598 L
11016 3598 mt 10976 3598 L
0 0 39 0 0 0 11016 3598 4 MP
PP
11016 3598 mt 11016 3598 L
11016 3598 mt 11055 3598 L
11055 3598 mt 11055 3598 L
11055 3598 mt 11016 3598 L
0 0 40 0 0 0 11055 3598 4 MP
PP
11055 3598 mt 11055 3598 L
11055 3598 mt 11095 3598 L
11095 3598 mt 11095 3598 L
11095 3598 mt 11055 3598 L
0 0 40 0 0 0 11095 3598 4 MP
PP
11095 3598 mt 11095 3598 L
11095 3598 mt 11135 3598 L
11135 3598 mt 11135 3598 L
11135 3598 mt 11095 3598 L
0 0 40 0 0 0 11135 3598 4 MP
PP
11135 3598 mt 11135 3598 L
11135 3598 mt 11175 3598 L
11175 3598 mt 11175 3598 L
11175 3598 mt 11135 3598 L
0 0 40 0 0 0 11175 3598 4 MP
PP
11175 3598 mt 11175 3598 L
11175 3598 mt 11215 3598 L
11215 3598 mt 11215 3598 L
11215 3598 mt 11175 3598 L
0 0 40 0 0 0 11215 3598 4 MP
PP
11215 3598 mt 11215 3598 L
11215 3598 mt 11255 3598 L
11255 3598 mt 11255 3598 L
11255 3598 mt 11215 3598 L
0 0 40 0 0 0 11255 3598 4 MP
PP
11255 3598 mt 11255 3598 L
11255 3598 mt 11295 3598 L
11295 3598 mt 11295 3598 L
11295 3598 mt 11255 3598 L
0 0 40 0 0 0 11295 3598 4 MP
PP
11295 3598 mt 11295 3598 L
11295 3598 mt 11335 3598 L
11335 3598 mt 11335 3598 L
11335 3598 mt 11295 3598 L
0 0 40 0 0 0 11335 3598 4 MP
PP
11335 3598 mt 11335 3598 L
11335 3598 mt 11375 3598 L
11375 3598 mt 11375 3598 L
11375 3598 mt 11335 3598 L
0 0 40 0 0 0 11375 3598 4 MP
PP
11375 3598 mt 11375 3598 L
11375 3598 mt 11415 3598 L
11415 3598 mt 11415 3598 L
11415 3598 mt 11375 3598 L
0 0 40 0 0 0 11415 3598 4 MP
PP
11415 3598 mt 11415 3598 L
11415 3598 mt 11455 3598 L
11455 3598 mt 11455 3598 L
11455 3598 mt 11415 3598 L
0 0 40 0 0 0 11455 3598 4 MP
PP
11455 3598 mt 11455 3598 L
11455 3598 mt 11495 3598 L
11495 3598 mt 11495 3598 L
11495 3598 mt 11455 3598 L
0 0 40 0 0 0 11495 3598 4 MP
PP
11495 3598 mt 11495 3598 L
11495 3598 mt 11535 3598 L
11535 3598 mt 11535 3598 L
11535 3598 mt 11495 3598 L
0 0 40 0 0 0 11535 3598 4 MP
PP
11535 3598 mt 11535 3598 L
11535 3598 mt 11575 3598 L
11575 3598 mt 11575 3598 L
11575 3598 mt 11535 3598 L
0 0 40 0 0 0 11575 3598 4 MP
PP
11575 3598 mt 11575 3598 L
11575 3598 mt 11615 3598 L
11615 3598 mt 11615 3598 L
11615 3598 mt 11575 3598 L
0 0 40 0 0 0 11615 3598 4 MP
PP
11615 3598 mt 11615 3598 L
11615 3598 mt 11655 3598 L
11655 3598 mt 11655 3598 L
11655 3598 mt 11615 3598 L
0 0 40 0 0 0 11655 3598 4 MP
PP
11655 3598 mt 11655 3598 L
11655 3598 mt 11695 3598 L
11695 3598 mt 11695 3598 L
11695 3598 mt 11655 3598 L
0 0 40 0 0 0 11695 3598 4 MP
PP
11695 3598 mt 11695 3598 L
11695 3598 mt 11735 3598 L
11735 3598 mt 11735 3598 L
11735 3598 mt 11695 3598 L
0 0 39 0 0 0 11735 3598 4 MP
PP
11735 3598 mt 11735 3598 L
11735 3598 mt 11774 3598 L
11774 3598 mt 11774 3598 L
11774 3598 mt 11735 3598 L
0 0 40 0 0 0 11774 3598 4 MP
PP
11774 3598 mt 11774 3598 L
11774 3598 mt 11814 3598 L
11814 3598 mt 11814 3598 L
11814 3598 mt 11774 3598 L
0 0 40 0 0 0 11814 3598 4 MP
PP
11814 3598 mt 11814 3598 L
11814 3598 mt 11854 3598 L
11854 3598 mt 11854 3598 L
11854 3598 mt 11814 3598 L
0 0 40 0 0 0 11854 3598 4 MP
PP
11854 3598 mt 11854 3598 L
11854 3598 mt 11894 3598 L
11894 3598 mt 11894 3598 L
11894 3598 mt 11854 3598 L
0 0 40 0 0 0 11894 3598 4 MP
PP
11894 3598 mt 11894 3598 L
11894 3598 mt 11934 3598 L
11934 3598 mt 11934 3598 L
11934 3598 mt 11894 3598 L
0 0 40 0 0 0 11934 3598 4 MP
PP
11934 3598 mt 11934 3598 L
11934 3598 mt 11974 3598 L
11974 3598 mt 11974 3598 L
11974 3598 mt 11934 3598 L
0 0 40 0 0 0 11974 3598 4 MP
PP
11974 3598 mt 11974 3598 L
11974 3598 mt 12014 3598 L
12014 3598 mt 12014 3598 L
12014 3598 mt 11974 3598 L
0 0 40 0 0 0 12014 3598 4 MP
PP
12014 3598 mt 12014 3598 L
12014 3598 mt 12054 3598 L
12054 3598 mt 12054 3598 L
12054 3598 mt 12014 3598 L
0 0 40 0 0 0 12054 3598 4 MP
PP
12054 3598 mt 12054 3598 L
12054 3598 mt 12094 3598 L
12094 3598 mt 12094 3598 L
12094 3598 mt 12054 3598 L
0 0 40 0 0 0 12094 3598 4 MP
PP
12094 3598 mt 12094 3598 L
12094 3598 mt 12134 3598 L
12134 3598 mt 12134 3598 L
12134 3598 mt 12094 3598 L
0 0 40 0 0 0 12134 3598 4 MP
PP
12134 3598 mt 12134 3598 L
12134 3598 mt 12174 3598 L
12174 3598 mt 12174 3598 L
12174 3598 mt 12134 3598 L
0 0 40 0 0 0 12174 3598 4 MP
PP
12174 3598 mt 12174 3598 L
12174 3598 mt 12214 3598 L
12214 3598 mt 12214 3598 L
12214 3598 mt 12174 3598 L
0 0 40 0 0 0 12214 3598 4 MP
PP
12214 3598 mt 12214 3598 L
12214 3598 mt 12254 3598 L
12254 3598 mt 12254 3598 L
12254 3598 mt 12214 3598 L
0 0 40 0 0 0 12254 3598 4 MP
PP
12254 3598 mt 12254 3598 L
12254 3598 mt 12294 3598 L
12294 3598 mt 12294 3598 L
12294 3598 mt 12254 3598 L
0 0 40 0 0 0 12294 3598 4 MP
PP
12294 3598 mt 12294 3598 L
12294 3598 mt 12334 3598 L
12334 3598 mt 12334 3598 L
12334 3598 mt 12294 3598 L
0 0 40 0 0 0 12334 3598 4 MP
PP
12334 3598 mt 12334 3598 L
12334 3598 mt 12374 3598 L
12374 3598 mt 12374 3598 L
12374 3598 mt 12334 3598 L
0 0 40 0 0 0 12374 3598 4 MP
PP
12374 3598 mt 12374 3598 L
12374 3598 mt 12414 3598 L
12414 3598 mt 12414 3598 L
12414 3598 mt 12374 3598 L
0 0 40 0 0 0 12414 3598 4 MP
PP
12414 3598 mt 12414 3598 L
12414 3598 mt 12454 3598 L
12454 3598 mt 12454 3598 L
12454 3598 mt 12414 3598 L
0 0 40 0 0 0 12454 3598 4 MP
PP
12454 3598 mt 12454 3598 L
12454 3598 mt 12494 3598 L
12494 3598 mt 12494 3598 L
12494 3598 mt 12454 3598 L
0 0 39 0 0 0 12494 3598 4 MP
PP
12494 3598 mt 12494 3598 L
12494 3598 mt 12533 3598 L
12533 3598 mt 12533 3598 L
12533 3598 mt 12494 3598 L
0 0 40 0 0 0 12533 3598 4 MP
PP
12533 3598 mt 12533 3598 L
12533 3598 mt 12573 3598 L
12573 3598 mt 12573 3598 L
12573 3598 mt 12533 3598 L
0 0 40 0 0 0 12573 3598 4 MP
PP
12573 3598 mt 12573 3598 L
12573 3598 mt 12613 3598 L
12613 3598 mt 12613 3598 L
12613 3598 mt 12573 3598 L
0 0 40 0 0 0 12613 3598 4 MP
PP
12613 3598 mt 12613 3598 L
12613 3598 mt 12653 3598 L
12653 3598 mt 12653 3598 L
12653 3598 mt 12613 3598 L
0 0 40 0 0 0 12653 3598 4 MP
PP
12653 3598 mt 12653 3598 L
12653 3598 mt 12693 3598 L
12693 3598 mt 12693 3598 L
12693 3598 mt 12653 3598 L
0 0 40 0 0 0 12693 3598 4 MP
PP
12693 3598 mt 12693 3598 L
12693 3598 mt 12733 3598 L
12733 3598 mt 12733 3598 L
12733 3598 mt 12693 3598 L
0 0 40 0 0 0 12733 3598 4 MP
PP
12733 3598 mt 12733 3598 L
12733 3598 mt 12773 3598 L
12773 3598 mt 12773 3598 L
12773 3598 mt 12733 3598 L
0 0 40 0 0 0 12773 3598 4 MP
PP
12773 3598 mt 12773 3598 L
12773 3598 mt 12813 3598 L
12813 3598 mt 12813 3598 L
12813 3598 mt 12773 3598 L
0 0 40 0 0 0 12813 3598 4 MP
PP
12813 3598 mt 12813 3598 L
12813 3598 mt 12853 3598 L
12853 3598 mt 12853 3598 L
12853 3598 mt 12813 3598 L
0 0 40 0 0 0 12853 3598 4 MP
PP
12853 3598 mt 12853 3598 L
12853 3598 mt 12893 3598 L
12893 3598 mt 12893 3598 L
12893 3598 mt 12853 3598 L
0 0 40 0 0 0 12893 3598 4 MP
PP
12893 3598 mt 12893 3598 L
12893 3598 mt 12933 3598 L
12933 3598 mt 12933 3598 L
12933 3598 mt 12893 3598 L
0 0 40 0 0 0 12933 3598 4 MP
PP
12933 3598 mt 12933 3598 L
12933 3598 mt 12973 3598 L
12973 3598 mt 12973 3598 L
12973 3598 mt 12933 3598 L
0 0 40 0 0 0 12973 3598 4 MP
PP
12973 3598 mt 12973 3598 L
12973 3598 mt 13013 3598 L
13013 3598 mt 13013 3598 L
13013 3598 mt 12973 3598 L
0 0 40 0 0 0 13013 3598 4 MP
PP
13013 3598 mt 13013 3598 L
13013 3598 mt 13053 3598 L
13053 3598 mt 13053 3598 L
13053 3598 mt 13013 3598 L
0 0 40 0 0 0 13053 3598 4 MP
PP
13053 3598 mt 13053 3598 L
13053 3598 mt 13093 3598 L
13093 3598 mt 13093 3598 L
13093 3598 mt 13053 3598 L
0 0 40 0 0 0 13093 3598 4 MP
PP
13093 3598 mt 13093 3598 L
13093 3598 mt 13133 3598 L
13133 3598 mt 13133 3598 L
13133 3598 mt 13093 3598 L
0 0 40 0 0 0 13133 3598 4 MP
PP
13133 3598 mt 13133 3598 L
13133 3598 mt 13173 3598 L
13173 3598 mt 13173 3598 L
13173 3598 mt 13133 3598 L
0 0 40 0 0 0 13173 3598 4 MP
PP
13173 3598 mt 13173 3598 L
13173 3598 mt 13213 3598 L
13213 3598 mt 13213 3598 L
13213 3598 mt 13173 3598 L
0 0 39 0 0 0 13213 3598 4 MP
PP
13213 3598 mt 13213 3598 L
13213 3598 mt 13252 3598 L
13252 3598 mt 13252 3598 L
13252 3598 mt 13213 3598 L
0 0 40 0 0 0 13252 3598 4 MP
PP
13252 3598 mt 13252 3598 L
13252 3598 mt 13292 3598 L
13292 3598 mt 13292 3598 L
13292 3598 mt 13252 3598 L
0 0 49 0 0 0 13292 3598 4 MP
PP
13292 3598 mt 13292 3598 L
13292 3598 mt 13341 3598 L
13341 3598 mt 13341 3598 L
13341 3598 mt 13292 3598 L
gr

c8
0 sg
%%IncludeResource: font Helvetica
/Helvetica /ISOLatin1Encoding 120 FMSR

 416 2227 mt  -90 rotate
(Frequency) s
90 rotate
2437 3877 mt 
(Survival time) s
 682 3631 mt 
( ) s
4849  343 mt 
( ) s
1 sg
0 188 1945 0 0 -188 2861 549 4 MP
PP
-1945 0 0 188 1945 0 0 -188 2861 549 5 MP stroke
4 w
DO
SO
6 w
0 sg
2861  549 mt 4806  549 L
2861  361 mt 4806  361 L
2861  549 mt 2861  361 L
4806  549 mt 4806  361 L
2861  549 mt 4806  549 L
2861  549 mt 2861  361 L
2861  549 mt 4806  549 L
2861  361 mt 4806  361 L
2861  549 mt 2861  361 L
4806  549 mt 4806  361 L
3334  498 mt 
(Histogram of survival times) s
gs 2861 361 1946 189 rc
c8
0 111 364 0 0 -111 2933 510 4 MP
PP
2933  510 mt 2933  399 L
2933  399 mt 3297  399 L
3297  399 mt 3297  510 L
3297  510 mt 2933  510 L
gr

c8

end %%Color Dict

eplot
%%EndObject

epage
end

showpage

%%Trailer
%%EOF
