%!PS-Adobe-3.0 EPSF-3.0
%%Creator: MATLAB, The MathWorks, Inc. Version 7.14.0.739 (R2012a). Operating System: Linux 2.6.38-16-generic #67-Ubuntu SMP Thu Sep 6 17:58:38 UTC 2012 x86_64.
%%Title: /home/birkeland/andreros/tma4265-stochastic-processes/project/second_problem/histogram_maximum_population.eps
%%CreationDate: 10/22/2012  10:35:49
%%DocumentNeededFonts: Helvetica
%%DocumentProcessColors: Cyan Magenta Yellow Black
%%LanguageLevel: 2
%%Pages: 1
%%BoundingBox:    81   227   529   564
%%EndComments

%%BeginProlog
% MathWorks dictionary
/MathWorks 160 dict begin
% definition operators
/bdef {bind def} bind def
/ldef {load def} bind def
/xdef {exch def} bdef
/xstore {exch store} bdef
% operator abbreviations
/c  /clip ldef
/cc /concat ldef
/cp /closepath ldef
/gr /grestore ldef
/gs /gsave ldef
/mt /moveto ldef
/np /newpath ldef
/cm /currentmatrix ldef
/sm /setmatrix ldef
/rm /rmoveto ldef
/rl /rlineto ldef
/s {show newpath} bdef
/sc {setcmykcolor} bdef
/sr /setrgbcolor ldef
/sg /setgray ldef
/w /setlinewidth ldef
/j /setlinejoin ldef
/cap /setlinecap ldef
/rc {rectclip} bdef
/rf {rectfill} bdef
% page state control
/pgsv () def
/bpage {/pgsv save def} bdef
/epage {pgsv restore} bdef
/bplot /gsave ldef
/eplot {stroke grestore} bdef
% orientation switch
/portraitMode 0 def /landscapeMode 1 def /rotateMode 2 def
% coordinate system mappings
/dpi2point 0 def
% font control
/FontSize 0 def
/FMS {/FontSize xstore findfont [FontSize 0 0 FontSize neg 0 0]
  makefont setfont} bdef
/reencode {exch dup where {pop load} {pop StandardEncoding} ifelse
  exch dup 3 1 roll findfont dup length dict begin
  { 1 index /FID ne {def}{pop pop} ifelse } forall
  /Encoding exch def currentdict end definefont pop} bdef
/isroman {findfont /CharStrings get /Agrave known} bdef
/FMSR {3 1 roll 1 index dup isroman {reencode} {pop pop} ifelse
  exch FMS} bdef
/csm {1 dpi2point div -1 dpi2point div scale neg translate
 dup landscapeMode eq {pop -90 rotate}
  {rotateMode eq {90 rotate} if} ifelse} bdef
% line types: solid, dotted, dashed, dotdash
/SO { [] 0 setdash } bdef
/DO { [.5 dpi2point mul 4 dpi2point mul] 0 setdash } bdef
/DA { [6 dpi2point mul] 0 setdash } bdef
/DD { [.5 dpi2point mul 4 dpi2point mul 6 dpi2point mul 4
  dpi2point mul] 0 setdash } bdef
% macros for lines and objects
/L {lineto stroke} bdef
/MP {3 1 roll moveto 1 sub {rlineto} repeat} bdef
/AP {{rlineto} repeat} bdef
/PDlw -1 def
/W {/PDlw currentlinewidth def setlinewidth} def
/PP {closepath eofill} bdef
/DP {closepath stroke} bdef
/MR {4 -2 roll moveto dup  0 exch rlineto exch 0 rlineto
  neg 0 exch rlineto closepath} bdef
/FR {MR stroke} bdef
/PR {MR fill} bdef
/L1i {{currentfile picstr readhexstring pop} image} bdef
/tMatrix matrix def
/MakeOval {newpath tMatrix currentmatrix pop translate scale
0 0 1 0 360 arc tMatrix setmatrix} bdef
/FO {MakeOval stroke} bdef
/PO {MakeOval fill} bdef
/PD {currentlinewidth 2 div 0 360 arc fill
   PDlw -1 eq not {PDlw w /PDlw -1 def} if} def
/FA {newpath tMatrix currentmatrix pop translate scale
  0 0 1 5 -2 roll arc tMatrix setmatrix stroke} bdef
/PA {newpath tMatrix currentmatrix pop	translate 0 0 moveto scale
  0 0 1 5 -2 roll arc closepath tMatrix setmatrix fill} bdef
/FAn {newpath tMatrix currentmatrix pop translate scale
  0 0 1 5 -2 roll arcn tMatrix setmatrix stroke} bdef
/PAn {newpath tMatrix currentmatrix pop translate 0 0 moveto scale
  0 0 1 5 -2 roll arcn closepath tMatrix setmatrix fill} bdef
/vradius 0 def /hradius 0 def /lry 0 def
/lrx 0 def /uly 0 def /ulx 0 def /rad 0 def
/MRR {/vradius xdef /hradius xdef /lry xdef /lrx xdef /uly xdef
  /ulx xdef newpath tMatrix currentmatrix pop ulx hradius add uly
  vradius add translate hradius vradius scale 0 0 1 180 270 arc 
  tMatrix setmatrix lrx hradius sub uly vradius add translate
  hradius vradius scale 0 0 1 270 360 arc tMatrix setmatrix
  lrx hradius sub lry vradius sub translate hradius vradius scale
  0 0 1 0 90 arc tMatrix setmatrix ulx hradius add lry vradius sub
  translate hradius vradius scale 0 0 1 90 180 arc tMatrix setmatrix
  closepath} bdef
/FRR {MRR stroke } bdef
/PRR {MRR fill } bdef
/MlrRR {/lry xdef /lrx xdef /uly xdef /ulx xdef /rad lry uly sub 2 div def
  newpath tMatrix currentmatrix pop ulx rad add uly rad add translate
  rad rad scale 0 0 1 90 270 arc tMatrix setmatrix lrx rad sub lry rad
  sub translate rad rad scale 0 0 1 270 90 arc tMatrix setmatrix
  closepath} bdef
/FlrRR {MlrRR stroke } bdef
/PlrRR {MlrRR fill } bdef
/MtbRR {/lry xdef /lrx xdef /uly xdef /ulx xdef /rad lrx ulx sub 2 div def
  newpath tMatrix currentmatrix pop ulx rad add uly rad add translate
  rad rad scale 0 0 1 180 360 arc tMatrix setmatrix lrx rad sub lry rad
  sub translate rad rad scale 0 0 1 0 180 arc tMatrix setmatrix
  closepath} bdef
/FtbRR {MtbRR stroke } bdef
/PtbRR {MtbRR fill } bdef
/stri 6 array def /dtri 6 array def
/smat 6 array def /dmat 6 array def
/tmat1 6 array def /tmat2 6 array def /dif 3 array def
/asub {/ind2 exch def /ind1 exch def dup dup
  ind1 get exch ind2 get sub exch } bdef
/tri_to_matrix {
  2 0 asub 3 1 asub 4 0 asub 5 1 asub
  dup 0 get exch 1 get 7 -1 roll astore } bdef
/compute_transform {
  dmat dtri tri_to_matrix tmat1 invertmatrix 
  smat stri tri_to_matrix tmat2 concatmatrix } bdef
/ds {stri astore pop} bdef
/dt {dtri astore pop} bdef
/db {2 copy /cols xdef /rows xdef mul dup 3 mul string
  currentfile 
  3 index 0 eq {/ASCIIHexDecode filter}
  {/ASCII85Decode filter 3 index 2 eq {/RunLengthDecode filter} if }
  ifelse exch readstring pop
  dup 0 3 index getinterval /rbmap xdef
  dup 2 index dup getinterval /gbmap xdef
  1 index dup 2 mul exch getinterval /bbmap xdef pop pop}bdef
/it {gs np dtri aload pop moveto lineto lineto cp c
  cols rows 8 compute_transform 
  rbmap gbmap bbmap true 3 colorimage gr}bdef
/il {newpath moveto lineto stroke}bdef
currentdict end def
%%EndProlog

%%BeginSetup
MathWorks begin

0 cap

end
%%EndSetup

%%Page: 1 1
%%BeginPageSetup
%%PageBoundingBox:    81   227   529   564
MathWorks begin
bpage
%%EndPageSetup

%%BeginObject: obj1
bplot

/dpi2point 12 def
portraitMode 0972 6768 csm

    0     0  5376  4033 rc
85 dict begin %Colortable dictionary
/c0 { 0.000000 0.000000 0.000000 sr} bdef
/c1 { 1.000000 1.000000 1.000000 sr} bdef
/c2 { 0.900000 0.000000 0.000000 sr} bdef
/c3 { 0.000000 0.820000 0.000000 sr} bdef
/c4 { 0.000000 0.000000 0.800000 sr} bdef
/c5 { 0.910000 0.820000 0.320000 sr} bdef
/c6 { 1.000000 0.260000 0.820000 sr} bdef
/c7 { 0.000000 0.820000 0.820000 sr} bdef
c0
1 j
1 sg
   0    0 5377 4034 rf
6 w
0 3287 4166 0 0 -3287 699 3589 4 MP
PP
-4166 0 0 3287 4166 0 0 -3287 699 3589 5 MP stroke
4 w
DO
SO
6 w
0 sg
 699 3589 mt 4865 3589 L
 699  302 mt 4865  302 L
 699 3589 mt  699  302 L
4865 3589 mt 4865  302 L
 699 3589 mt 4865 3589 L
 699 3589 mt  699  302 L
1045 3589 mt 1045 3547 L
1045  302 mt 1045  343 L
%%IncludeResource: font Helvetica
/Helvetica /ISOLatin1Encoding 120 FMSR

1012 3734 mt 
(5) s
1474 3589 mt 1474 3547 L
1474  302 mt 1474  343 L
1408 3734 mt 
(10) s
1904 3589 mt 1904 3547 L
1904  302 mt 1904  343 L
1838 3734 mt 
(15) s
2333 3589 mt 2333 3547 L
2333  302 mt 2333  343 L
2267 3734 mt 
(20) s
2762 3589 mt 2762 3547 L
2762  302 mt 2762  343 L
2696 3734 mt 
(25) s
3192 3589 mt 3192 3547 L
3192  302 mt 3192  343 L
3126 3734 mt 
(30) s
3621 3589 mt 3621 3547 L
3621  302 mt 3621  343 L
3555 3734 mt 
(35) s
4050 3589 mt 4050 3547 L
4050  302 mt 4050  343 L
3984 3734 mt 
(40) s
4479 3589 mt 4479 3547 L
4479  302 mt 4479  343 L
4413 3734 mt 
(45) s
 699 3581 mt  740 3581 L
4865 3581 mt 4823 3581 L
 598 3625 mt 
(0) s
 699 3049 mt  740 3049 L
4865 3049 mt 4823 3049 L
 498 3093 mt 
(0.5) s
 699 2517 mt  740 2517 L
4865 2517 mt 4823 2517 L
 598 2561 mt 
(1) s
 699 1985 mt  740 1985 L
4865 1985 mt 4823 1985 L
 498 2029 mt 
(1.5) s
 699 1454 mt  740 1454 L
4865 1454 mt 4823 1454 L
 598 1498 mt 
(2) s
 699  922 mt  740  922 L
4865  922 mt 4823  922 L
 498  966 mt 
(2.5) s
 699  390 mt  740  390 L
4865  390 mt 4823  390 L
 598  434 mt 
(3) s
 699  248 mt 
(x 10) s
%%IncludeResource: font Helvetica
/Helvetica /ISOLatin1Encoding 80 FMSR

 925  174 mt 
(4) s
 699 3589 mt 4865 3589 L
 699  302 mt 4865  302 L
 699 3589 mt  699  302 L
4865 3589 mt 4865  302 L
gs 699 301 4167 3288 rc
/c8 { 0.000000 0.000000 0.562500 sr} bdef
c8
0 6704 43 0 0 -6704 702 3581 4 MP
PP
 702 3581 mt  702 -3123 L
 702 -3123 mt  745 -3123 L
 745 -3123 mt  745 3581 L
 745 3581 mt  702 3581 L
0 822 44 0 0 -822 745 3581 4 MP
PP
 745 3581 mt  745 2759 L
 745 2759 mt  789 2759 L
 789 2759 mt  789 3581 L
 789 3581 mt  745 3581 L
0 0 43 0 0 0 789 3581 4 MP
PP
 789 3581 mt  789 3581 L
 789 3581 mt  832 3581 L
 832 3581 mt  832 3581 L
 832 3581 mt  789 3581 L
0 1367 44 0 0 -1367 832 3581 4 MP
PP
 832 3581 mt  832 2214 L
 832 2214 mt  876 2214 L
 876 2214 mt  876 3581 L
 876 3581 mt  832 3581 L
0 0 43 0 0 0 876 3581 4 MP
PP
 876 3581 mt  876 3581 L
 876 3581 mt  919 3581 L
 919 3581 mt  919 3581 L
 919 3581 mt  876 3581 L
0 177 43 0 0 -177 919 3581 4 MP
PP
 919 3581 mt  919 3404 L
 919 3404 mt  962 3404 L
 962 3404 mt  962 3581 L
 962 3581 mt  919 3581 L
0 0 44 0 0 0 962 3581 4 MP
PP
 962 3581 mt  962 3581 L
 962 3581 mt 1006 3581 L
1006 3581 mt 1006 3581 L
1006 3581 mt  962 3581 L
0 284 43 0 0 -284 1006 3581 4 MP
PP
1006 3581 mt 1006 3297 L
1006 3297 mt 1049 3297 L
1049 3297 mt 1049 3581 L
1049 3581 mt 1006 3581 L
0 0 44 0 0 0 1049 3581 4 MP
PP
1049 3581 mt 1049 3581 L
1049 3581 mt 1093 3581 L
1093 3581 mt 1093 3581 L
1093 3581 mt 1049 3581 L
0 282 43 0 0 -282 1093 3581 4 MP
PP
1093 3581 mt 1093 3299 L
1093 3299 mt 1136 3299 L
1136 3299 mt 1136 3581 L
1136 3581 mt 1093 3581 L
0 0 44 0 0 0 1136 3581 4 MP
PP
1136 3581 mt 1136 3581 L
1136 3581 mt 1180 3581 L
1180 3581 mt 1180 3581 L
1180 3581 mt 1136 3581 L
0 112 43 0 0 -112 1180 3581 4 MP
PP
1180 3581 mt 1180 3469 L
1180 3469 mt 1223 3469 L
1223 3469 mt 1223 3581 L
1223 3581 mt 1180 3581 L
0 0 44 0 0 0 1223 3581 4 MP
PP
1223 3581 mt 1223 3581 L
1223 3581 mt 1267 3581 L
1267 3581 mt 1267 3581 L
1267 3581 mt 1223 3581 L
0 138 43 0 0 -138 1267 3581 4 MP
PP
1267 3581 mt 1267 3443 L
1267 3443 mt 1310 3443 L
1310 3443 mt 1310 3581 L
1310 3581 mt 1267 3581 L
0 0 43 0 0 0 1310 3581 4 MP
PP
1310 3581 mt 1310 3581 L
1310 3581 mt 1353 3581 L
1353 3581 mt 1353 3581 L
1353 3581 mt 1310 3581 L
0 107 44 0 0 -107 1353 3581 4 MP
PP
1353 3581 mt 1353 3474 L
1353 3474 mt 1397 3474 L
1397 3474 mt 1397 3581 L
1397 3581 mt 1353 3581 L
0 0 43 0 0 0 1397 3581 4 MP
PP
1397 3581 mt 1397 3581 L
1397 3581 mt 1440 3581 L
1440 3581 mt 1440 3581 L
1440 3581 mt 1397 3581 L
0 71 44 0 0 -71 1440 3581 4 MP
PP
1440 3581 mt 1440 3510 L
1440 3510 mt 1484 3510 L
1484 3510 mt 1484 3581 L
1484 3581 mt 1440 3581 L
0 0 43 0 0 0 1484 3581 4 MP
PP
1484 3581 mt 1484 3581 L
1484 3581 mt 1527 3581 L
1527 3581 mt 1527 3581 L
1527 3581 mt 1484 3581 L
0 75 44 0 0 -75 1527 3581 4 MP
PP
1527 3581 mt 1527 3506 L
1527 3506 mt 1571 3506 L
1571 3506 mt 1571 3581 L
1571 3581 mt 1527 3581 L
0 0 43 0 0 0 1571 3581 4 MP
PP
1571 3581 mt 1571 3581 L
1571 3581 mt 1614 3581 L
1614 3581 mt 1614 3581 L
1614 3581 mt 1571 3581 L
0 55 43 0 0 -55 1614 3581 4 MP
PP
1614 3581 mt 1614 3526 L
1614 3526 mt 1657 3526 L
1657 3526 mt 1657 3581 L
1657 3581 mt 1614 3581 L
0 0 44 0 0 0 1657 3581 4 MP
PP
1657 3581 mt 1657 3581 L
1657 3581 mt 1701 3581 L
1701 3581 mt 1701 3581 L
1701 3581 mt 1657 3581 L
0 43 43 0 0 -43 1701 3581 4 MP
PP
1701 3581 mt 1701 3538 L
1701 3538 mt 1744 3538 L
1744 3538 mt 1744 3581 L
1744 3581 mt 1701 3581 L
0 0 44 0 0 0 1744 3581 4 MP
PP
1744 3581 mt 1744 3581 L
1744 3581 mt 1788 3581 L
1788 3581 mt 1788 3581 L
1788 3581 mt 1744 3581 L
0 44 43 0 0 -44 1788 3581 4 MP
PP
1788 3581 mt 1788 3537 L
1788 3537 mt 1831 3537 L
1831 3537 mt 1831 3581 L
1831 3581 mt 1788 3581 L
0 0 44 0 0 0 1831 3581 4 MP
PP
1831 3581 mt 1831 3581 L
1831 3581 mt 1875 3581 L
1875 3581 mt 1875 3581 L
1875 3581 mt 1831 3581 L
0 30 43 0 0 -30 1875 3581 4 MP
PP
1875 3581 mt 1875 3551 L
1875 3551 mt 1918 3551 L
1918 3551 mt 1918 3581 L
1918 3581 mt 1875 3581 L
0 0 44 0 0 0 1918 3581 4 MP
PP
1918 3581 mt 1918 3581 L
1918 3581 mt 1962 3581 L
1962 3581 mt 1962 3581 L
1962 3581 mt 1918 3581 L
0 27 43 0 0 -27 1962 3581 4 MP
PP
1962 3581 mt 1962 3554 L
1962 3554 mt 2005 3554 L
2005 3554 mt 2005 3581 L
2005 3581 mt 1962 3581 L
0 0 43 0 0 0 2005 3581 4 MP
PP
2005 3581 mt 2005 3581 L
2005 3581 mt 2048 3581 L
2048 3581 mt 2048 3581 L
2048 3581 mt 2005 3581 L
0 27 44 0 0 -27 2048 3581 4 MP
PP
2048 3581 mt 2048 3554 L
2048 3554 mt 2092 3554 L
2092 3554 mt 2092 3581 L
2092 3581 mt 2048 3581 L
0 0 43 0 0 0 2092 3581 4 MP
PP
2092 3581 mt 2092 3581 L
2092 3581 mt 2135 3581 L
2135 3581 mt 2135 3581 L
2135 3581 mt 2092 3581 L
0 25 44 0 0 -25 2135 3581 4 MP
PP
2135 3581 mt 2135 3556 L
2135 3556 mt 2179 3556 L
2179 3556 mt 2179 3581 L
2179 3581 mt 2135 3581 L
0 0 43 0 0 0 2179 3581 4 MP
PP
2179 3581 mt 2179 3581 L
2179 3581 mt 2222 3581 L
2222 3581 mt 2222 3581 L
2222 3581 mt 2179 3581 L
0 21 44 0 0 -21 2222 3581 4 MP
PP
2222 3581 mt 2222 3560 L
2222 3560 mt 2266 3560 L
2266 3560 mt 2266 3581 L
2266 3581 mt 2222 3581 L
0 0 43 0 0 0 2266 3581 4 MP
PP
2266 3581 mt 2266 3581 L
2266 3581 mt 2309 3581 L
2309 3581 mt 2309 3581 L
2309 3581 mt 2266 3581 L
0 21 43 0 0 -21 2309 3581 4 MP
PP
2309 3581 mt 2309 3560 L
2309 3560 mt 2352 3560 L
2352 3560 mt 2352 3581 L
2352 3581 mt 2309 3581 L
0 0 44 0 0 0 2352 3581 4 MP
PP
2352 3581 mt 2352 3581 L
2352 3581 mt 2396 3581 L
2396 3581 mt 2396 3581 L
2396 3581 mt 2352 3581 L
0 18 43 0 0 -18 2396 3581 4 MP
PP
2396 3581 mt 2396 3563 L
2396 3563 mt 2439 3563 L
2439 3563 mt 2439 3581 L
2439 3581 mt 2396 3581 L
0 0 44 0 0 0 2439 3581 4 MP
PP
2439 3581 mt 2439 3581 L
2439 3581 mt 2483 3581 L
2483 3581 mt 2483 3581 L
2483 3581 mt 2439 3581 L
0 19 43 0 0 -19 2483 3581 4 MP
PP
2483 3581 mt 2483 3562 L
2483 3562 mt 2526 3562 L
2526 3562 mt 2526 3581 L
2526 3581 mt 2483 3581 L
0 0 44 0 0 0 2526 3581 4 MP
PP
2526 3581 mt 2526 3581 L
2526 3581 mt 2570 3581 L
2570 3581 mt 2570 3581 L
2570 3581 mt 2526 3581 L
0 15 43 0 0 -15 2570 3581 4 MP
PP
2570 3581 mt 2570 3566 L
2570 3566 mt 2613 3566 L
2613 3566 mt 2613 3581 L
2613 3581 mt 2570 3581 L
0 0 44 0 0 0 2613 3581 4 MP
PP
2613 3581 mt 2613 3581 L
2613 3581 mt 2657 3581 L
2657 3581 mt 2657 3581 L
2657 3581 mt 2613 3581 L
0 13 43 0 0 -13 2657 3581 4 MP
PP
2657 3581 mt 2657 3568 L
2657 3568 mt 2700 3568 L
2700 3568 mt 2700 3581 L
2700 3581 mt 2657 3581 L
0 0 43 0 0 0 2700 3581 4 MP
PP
2700 3581 mt 2700 3581 L
2700 3581 mt 2743 3581 L
2743 3581 mt 2743 3581 L
2743 3581 mt 2700 3581 L
0 11 44 0 0 -11 2743 3581 4 MP
PP
2743 3581 mt 2743 3570 L
2743 3570 mt 2787 3570 L
2787 3570 mt 2787 3581 L
2787 3581 mt 2743 3581 L
0 0 43 0 0 0 2787 3581 4 MP
PP
2787 3581 mt 2787 3581 L
2787 3581 mt 2830 3581 L
2830 3581 mt 2830 3581 L
2830 3581 mt 2787 3581 L
0 10 44 0 0 -10 2830 3581 4 MP
PP
2830 3581 mt 2830 3571 L
2830 3571 mt 2874 3571 L
2874 3571 mt 2874 3581 L
2874 3581 mt 2830 3581 L
0 0 43 0 0 0 2874 3581 4 MP
PP
2874 3581 mt 2874 3581 L
2874 3581 mt 2917 3581 L
2917 3581 mt 2917 3581 L
2917 3581 mt 2874 3581 L
0 10 44 0 0 -10 2917 3581 4 MP
PP
2917 3581 mt 2917 3571 L
2917 3571 mt 2961 3571 L
2961 3571 mt 2961 3581 L
2961 3581 mt 2917 3581 L
0 0 43 0 0 0 2961 3581 4 MP
PP
2961 3581 mt 2961 3581 L
2961 3581 mt 3004 3581 L
3004 3581 mt 3004 3581 L
3004 3581 mt 2961 3581 L
0 7 43 0 0 -7 3004 3581 4 MP
PP
3004 3581 mt 3004 3574 L
3004 3574 mt 3047 3574 L
3047 3574 mt 3047 3581 L
3047 3581 mt 3004 3581 L
0 0 44 0 0 0 3047 3581 4 MP
PP
3047 3581 mt 3047 3581 L
3047 3581 mt 3091 3581 L
3091 3581 mt 3091 3581 L
3091 3581 mt 3047 3581 L
0 7 43 0 0 -7 3091 3581 4 MP
PP
3091 3581 mt 3091 3574 L
3091 3574 mt 3134 3574 L
3134 3574 mt 3134 3581 L
3134 3581 mt 3091 3581 L
0 0 44 0 0 0 3134 3581 4 MP
PP
3134 3581 mt 3134 3581 L
3134 3581 mt 3178 3581 L
3178 3581 mt 3178 3581 L
3178 3581 mt 3134 3581 L
0 6 43 0 0 -6 3178 3581 4 MP
PP
3178 3581 mt 3178 3575 L
3178 3575 mt 3221 3575 L
3221 3575 mt 3221 3581 L
3221 3581 mt 3178 3581 L
0 0 44 0 0 0 3221 3581 4 MP
PP
3221 3581 mt 3221 3581 L
3221 3581 mt 3265 3581 L
3265 3581 mt 3265 3581 L
3265 3581 mt 3221 3581 L
0 8 43 0 0 -8 3265 3581 4 MP
PP
3265 3581 mt 3265 3573 L
3265 3573 mt 3308 3573 L
3308 3573 mt 3308 3581 L
3308 3581 mt 3265 3581 L
0 0 44 0 0 0 3308 3581 4 MP
PP
3308 3581 mt 3308 3581 L
3308 3581 mt 3352 3581 L
3352 3581 mt 3352 3581 L
3352 3581 mt 3308 3581 L
0 6 43 0 0 -6 3352 3581 4 MP
PP
3352 3581 mt 3352 3575 L
3352 3575 mt 3395 3575 L
3395 3575 mt 3395 3581 L
3395 3581 mt 3352 3581 L
0 0 43 0 0 0 3395 3581 4 MP
PP
3395 3581 mt 3395 3581 L
3395 3581 mt 3438 3581 L
3438 3581 mt 3438 3581 L
3438 3581 mt 3395 3581 L
0 7 44 0 0 -7 3438 3581 4 MP
PP
3438 3581 mt 3438 3574 L
3438 3574 mt 3482 3574 L
3482 3574 mt 3482 3581 L
3482 3581 mt 3438 3581 L
0 0 43 0 0 0 3482 3581 4 MP
PP
3482 3581 mt 3482 3581 L
3482 3581 mt 3525 3581 L
3525 3581 mt 3525 3581 L
3525 3581 mt 3482 3581 L
0 6 44 0 0 -6 3525 3581 4 MP
PP
3525 3581 mt 3525 3575 L
3525 3575 mt 3569 3575 L
3569 3575 mt 3569 3581 L
3569 3581 mt 3525 3581 L
0 0 43 0 0 0 3569 3581 4 MP
PP
3569 3581 mt 3569 3581 L
3569 3581 mt 3612 3581 L
3612 3581 mt 3612 3581 L
3612 3581 mt 3569 3581 L
0 5 44 0 0 -5 3612 3581 4 MP
PP
3612 3581 mt 3612 3576 L
3612 3576 mt 3656 3576 L
3656 3576 mt 3656 3581 L
3656 3581 mt 3612 3581 L
0 0 43 0 0 0 3656 3581 4 MP
PP
3656 3581 mt 3656 3581 L
3656 3581 mt 3699 3581 L
3699 3581 mt 3699 3581 L
3699 3581 mt 3656 3581 L
0 5 43 0 0 -5 3699 3581 4 MP
PP
3699 3581 mt 3699 3576 L
3699 3576 mt 3742 3576 L
3742 3576 mt 3742 3581 L
3742 3581 mt 3699 3581 L
0 0 44 0 0 0 3742 3581 4 MP
PP
3742 3581 mt 3742 3581 L
3742 3581 mt 3786 3581 L
3786 3581 mt 3786 3581 L
3786 3581 mt 3742 3581 L
0 4 43 0 0 -4 3786 3581 4 MP
PP
3786 3581 mt 3786 3577 L
3786 3577 mt 3829 3577 L
3829 3577 mt 3829 3581 L
3829 3581 mt 3786 3581 L
0 0 44 0 0 0 3829 3581 4 MP
PP
3829 3581 mt 3829 3581 L
3829 3581 mt 3873 3581 L
3873 3581 mt 3873 3581 L
3873 3581 mt 3829 3581 L
0 4 43 0 0 -4 3873 3581 4 MP
PP
3873 3581 mt 3873 3577 L
3873 3577 mt 3916 3577 L
3916 3577 mt 3916 3581 L
3916 3581 mt 3873 3581 L
0 0 44 0 0 0 3916 3581 4 MP
PP
3916 3581 mt 3916 3581 L
3916 3581 mt 3960 3581 L
3960 3581 mt 3960 3581 L
3960 3581 mt 3916 3581 L
0 4 43 0 0 -4 3960 3581 4 MP
PP
3960 3581 mt 3960 3577 L
3960 3577 mt 4003 3577 L
4003 3577 mt 4003 3581 L
4003 3581 mt 3960 3581 L
0 0 44 0 0 0 4003 3581 4 MP
PP
4003 3581 mt 4003 3581 L
4003 3581 mt 4047 3581 L
4047 3581 mt 4047 3581 L
4047 3581 mt 4003 3581 L
0 3 43 0 0 -3 4047 3581 4 MP
PP
4047 3581 mt 4047 3578 L
4047 3578 mt 4090 3578 L
4090 3578 mt 4090 3581 L
4090 3581 mt 4047 3581 L
0 0 43 0 0 0 4090 3581 4 MP
PP
4090 3581 mt 4090 3581 L
4090 3581 mt 4133 3581 L
4133 3581 mt 4133 3581 L
4133 3581 mt 4090 3581 L
0 4 44 0 0 -4 4133 3581 4 MP
PP
4133 3581 mt 4133 3577 L
4133 3577 mt 4177 3577 L
4177 3577 mt 4177 3581 L
4177 3581 mt 4133 3581 L
0 0 43 0 0 0 4177 3581 4 MP
PP
4177 3581 mt 4177 3581 L
4177 3581 mt 4220 3581 L
4220 3581 mt 4220 3581 L
4220 3581 mt 4177 3581 L
0 4 44 0 0 -4 4220 3581 4 MP
PP
4220 3581 mt 4220 3577 L
4220 3577 mt 4264 3577 L
4264 3577 mt 4264 3581 L
4264 3581 mt 4220 3581 L
0 0 43 0 0 0 4264 3581 4 MP
PP
4264 3581 mt 4264 3581 L
4264 3581 mt 4307 3581 L
4307 3581 mt 4307 3581 L
4307 3581 mt 4264 3581 L
0 3 44 0 0 -3 4307 3581 4 MP
PP
4307 3581 mt 4307 3578 L
4307 3578 mt 4351 3578 L
4351 3578 mt 4351 3581 L
4351 3581 mt 4307 3581 L
0 2 43 0 0 -2 4351 3581 4 MP
PP
4351 3581 mt 4351 3579 L
4351 3579 mt 4394 3579 L
4394 3579 mt 4394 3581 L
4394 3581 mt 4351 3581 L
0 0 43 0 0 0 4394 3581 4 MP
PP
4394 3581 mt 4394 3581 L
4394 3581 mt 4437 3581 L
4437 3581 mt 4437 3581 L
4437 3581 mt 4394 3581 L
0 2 44 0 0 -2 4437 3581 4 MP
PP
4437 3581 mt 4437 3579 L
4437 3579 mt 4481 3579 L
4481 3579 mt 4481 3581 L
4481 3581 mt 4437 3581 L
0 0 43 0 0 0 4481 3581 4 MP
PP
4481 3581 mt 4481 3581 L
4481 3581 mt 4524 3581 L
4524 3581 mt 4524 3581 L
4524 3581 mt 4481 3581 L
0 2 44 0 0 -2 4524 3581 4 MP
PP
4524 3581 mt 4524 3579 L
4524 3579 mt 4568 3579 L
4568 3579 mt 4568 3581 L
4568 3581 mt 4524 3581 L
0 0 43 0 0 0 4568 3581 4 MP
PP
4568 3581 mt 4568 3581 L
4568 3581 mt 4611 3581 L
4611 3581 mt 4611 3581 L
4611 3581 mt 4568 3581 L
0 2 44 0 0 -2 4611 3581 4 MP
PP
4611 3581 mt 4611 3579 L
4611 3579 mt 4655 3579 L
4655 3579 mt 4655 3581 L
4655 3581 mt 4611 3581 L
0 0 43 0 0 0 4655 3581 4 MP
PP
4655 3581 mt 4655 3581 L
4655 3581 mt 4698 3581 L
4698 3581 mt 4698 3581 L
4698 3581 mt 4655 3581 L
0 2 44 0 0 -2 4698 3581 4 MP
PP
4698 3581 mt 4698 3579 L
4698 3579 mt 4742 3579 L
4742 3579 mt 4742 3581 L
4742 3581 mt 4698 3581 L
0 0 43 0 0 0 4742 3581 4 MP
PP
4742 3581 mt 4742 3581 L
4742 3581 mt 4785 3581 L
4785 3581 mt 4785 3581 L
4785 3581 mt 4742 3581 L
0 2 43 0 0 -2 4785 3581 4 MP
PP
4785 3581 mt 4785 3579 L
4785 3579 mt 4828 3579 L
4828 3579 mt 4828 3581 L
4828 3581 mt 4785 3581 L
0 0 44 0 0 0 4828 3581 4 MP
PP
4828 3581 mt 4828 3581 L
4828 3581 mt 4872 3581 L
4872 3581 mt 4872 3581 L
4872 3581 mt 4828 3581 L
0 2 43 0 0 -2 4872 3581 4 MP
PP
4872 3581 mt 4872 3579 L
4872 3579 mt 4915 3579 L
4915 3579 mt 4915 3581 L
4915 3581 mt 4872 3581 L
0 0 44 0 0 0 4915 3581 4 MP
PP
4915 3581 mt 4915 3581 L
4915 3581 mt 4959 3581 L
4959 3581 mt 4959 3581 L
4959 3581 mt 4915 3581 L
0 1 43 0 0 -1 4959 3581 4 MP
PP
4959 3581 mt 4959 3580 L
4959 3580 mt 5002 3580 L
5002 3580 mt 5002 3581 L
5002 3581 mt 4959 3581 L
0 0 44 0 0 0 5002 3581 4 MP
PP
5002 3581 mt 5002 3581 L
5002 3581 mt 5046 3581 L
5046 3581 mt 5046 3581 L
5046 3581 mt 5002 3581 L
0 2 43 0 0 -2 5046 3581 4 MP
PP
5046 3581 mt 5046 3579 L
5046 3579 mt 5089 3579 L
5089 3579 mt 5089 3581 L
5089 3581 mt 5046 3581 L
0 0 44 0 0 0 5089 3581 4 MP
PP
5089 3581 mt 5089 3581 L
5089 3581 mt 5133 3581 L
5133 3581 mt 5133 3581 L
5133 3581 mt 5089 3581 L
0 2 43 0 0 -2 5133 3581 4 MP
PP
5133 3581 mt 5133 3579 L
5133 3579 mt 5176 3579 L
5176 3579 mt 5176 3581 L
5176 3581 mt 5133 3581 L
0 0 43 0 0 0 5176 3581 4 MP
PP
5176 3581 mt 5176 3581 L
5176 3581 mt 5219 3581 L
5219 3581 mt 5219 3581 L
5219 3581 mt 5176 3581 L
0 1 44 0 0 -1 5219 3581 4 MP
PP
5219 3581 mt 5219 3580 L
5219 3580 mt 5263 3580 L
5263 3580 mt 5263 3581 L
5263 3581 mt 5219 3581 L
0 0 43 0 0 0 5263 3581 4 MP
PP
5263 3581 mt 5263 3581 L
5263 3581 mt 5306 3581 L
5306 3581 mt 5306 3581 L
5306 3581 mt 5263 3581 L
0 1 44 0 0 -1 5306 3581 4 MP
PP
5306 3581 mt 5306 3580 L
5306 3580 mt 5350 3580 L
5350 3580 mt 5350 3581 L
5350 3581 mt 5306 3581 L
0 0 43 0 0 0 5350 3581 4 MP
PP
5350 3581 mt 5350 3581 L
5350 3581 mt 5393 3581 L
5393 3581 mt 5393 3581 L
5393 3581 mt 5350 3581 L
0 1 44 0 0 -1 5393 3581 4 MP
PP
5393 3581 mt 5393 3580 L
5393 3580 mt 5437 3580 L
5437 3580 mt 5437 3581 L
5437 3581 mt 5393 3581 L
0 0 43 0 0 0 5437 3581 4 MP
PP
5437 3581 mt 5437 3581 L
5437 3581 mt 5480 3581 L
5480 3581 mt 5480 3581 L
5480 3581 mt 5437 3581 L
0 1 43 0 0 -1 5480 3581 4 MP
PP
5480 3581 mt 5480 3580 L
5480 3580 mt 5523 3580 L
5523 3580 mt 5523 3581 L
5523 3581 mt 5480 3581 L
0 0 44 0 0 0 5523 3581 4 MP
PP
5523 3581 mt 5523 3581 L
5523 3581 mt 5567 3581 L
5567 3581 mt 5567 3581 L
5567 3581 mt 5523 3581 L
0 1 43 0 0 -1 5567 3581 4 MP
PP
5567 3581 mt 5567 3580 L
5567 3580 mt 5610 3580 L
5610 3580 mt 5610 3581 L
5610 3581 mt 5567 3581 L
0 0 44 0 0 0 5610 3581 4 MP
PP
5610 3581 mt 5610 3581 L
5610 3581 mt 5654 3581 L
5654 3581 mt 5654 3581 L
5654 3581 mt 5610 3581 L
0 1 43 0 0 -1 5654 3581 4 MP
PP
5654 3581 mt 5654 3580 L
5654 3580 mt 5697 3580 L
5697 3580 mt 5697 3581 L
5697 3581 mt 5654 3581 L
0 0 44 0 0 0 5697 3581 4 MP
PP
5697 3581 mt 5697 3581 L
5697 3581 mt 5741 3581 L
5741 3581 mt 5741 3581 L
5741 3581 mt 5697 3581 L
0 1 43 0 0 -1 5741 3581 4 MP
PP
5741 3581 mt 5741 3580 L
5741 3580 mt 5784 3580 L
5784 3580 mt 5784 3581 L
5784 3581 mt 5741 3581 L
0 0 44 0 0 0 5784 3581 4 MP
PP
5784 3581 mt 5784 3581 L
5784 3581 mt 5828 3581 L
5828 3581 mt 5828 3581 L
5828 3581 mt 5784 3581 L
0 1 43 0 0 -1 5828 3581 4 MP
PP
5828 3581 mt 5828 3580 L
5828 3580 mt 5871 3580 L
5871 3580 mt 5871 3581 L
5871 3581 mt 5828 3581 L
0 0 43 0 0 0 5871 3581 4 MP
PP
5871 3581 mt 5871 3581 L
5871 3581 mt 5914 3581 L
5914 3581 mt 5914 3581 L
5914 3581 mt 5871 3581 L
0 1 44 0 0 -1 5914 3581 4 MP
PP
5914 3581 mt 5914 3580 L
5914 3580 mt 5958 3580 L
5958 3580 mt 5958 3581 L
5958 3581 mt 5914 3581 L
0 0 43 0 0 0 5958 3581 4 MP
PP
5958 3581 mt 5958 3581 L
5958 3581 mt 6001 3581 L
6001 3581 mt 6001 3581 L
6001 3581 mt 5958 3581 L
0 0 44 0 0 0 6001 3581 4 MP
PP
6001 3581 mt 6001 3581 L
6001 3581 mt 6045 3581 L
6045 3581 mt 6045 3581 L
6045 3581 mt 6001 3581 L
0 0 43 0 0 0 6045 3581 4 MP
PP
6045 3581 mt 6045 3581 L
6045 3581 mt 6088 3581 L
6088 3581 mt 6088 3581 L
6088 3581 mt 6045 3581 L
0 1 44 0 0 -1 6088 3581 4 MP
PP
6088 3581 mt 6088 3580 L
6088 3580 mt 6132 3580 L
6132 3580 mt 6132 3581 L
6132 3581 mt 6088 3581 L
0 0 43 0 0 0 6132 3581 4 MP
PP
6132 3581 mt 6132 3581 L
6132 3581 mt 6175 3581 L
6175 3581 mt 6175 3581 L
6175 3581 mt 6132 3581 L
0 1 43 0 0 -1 6175 3581 4 MP
PP
6175 3581 mt 6175 3580 L
6175 3580 mt 6218 3580 L
6218 3580 mt 6218 3581 L
6218 3581 mt 6175 3581 L
0 0 44 0 0 0 6218 3581 4 MP
PP
6218 3581 mt 6218 3581 L
6218 3581 mt 6262 3581 L
6262 3581 mt 6262 3581 L
6262 3581 mt 6218 3581 L
0 1 43 0 0 -1 6262 3581 4 MP
PP
6262 3581 mt 6262 3580 L
6262 3580 mt 6305 3580 L
6305 3580 mt 6305 3581 L
6305 3581 mt 6262 3581 L
0 0 44 0 0 0 6305 3581 4 MP
PP
6305 3581 mt 6305 3581 L
6305 3581 mt 6349 3581 L
6349 3581 mt 6349 3581 L
6349 3581 mt 6305 3581 L
0 1 43 0 0 -1 6349 3581 4 MP
PP
6349 3581 mt 6349 3580 L
6349 3580 mt 6392 3580 L
6392 3580 mt 6392 3581 L
6392 3581 mt 6349 3581 L
0 0 44 0 0 0 6392 3581 4 MP
PP
6392 3581 mt 6392 3581 L
6392 3581 mt 6436 3581 L
6436 3581 mt 6436 3581 L
6436 3581 mt 6392 3581 L
0 1 43 0 0 -1 6436 3581 4 MP
PP
6436 3581 mt 6436 3580 L
6436 3580 mt 6479 3580 L
6479 3580 mt 6479 3581 L
6479 3581 mt 6436 3581 L
0 0 44 0 0 0 6479 3581 4 MP
PP
6479 3581 mt 6479 3581 L
6479 3581 mt 6523 3581 L
6523 3581 mt 6523 3581 L
6523 3581 mt 6479 3581 L
0 1 43 0 0 -1 6523 3581 4 MP
PP
6523 3581 mt 6523 3580 L
6523 3580 mt 6566 3580 L
6566 3580 mt 6566 3581 L
6566 3581 mt 6523 3581 L
0 0 43 0 0 0 6566 3581 4 MP
PP
6566 3581 mt 6566 3581 L
6566 3581 mt 6609 3581 L
6609 3581 mt 6609 3581 L
6609 3581 mt 6566 3581 L
0 1 44 0 0 -1 6609 3581 4 MP
PP
6609 3581 mt 6609 3580 L
6609 3580 mt 6653 3580 L
6653 3580 mt 6653 3581 L
6653 3581 mt 6609 3581 L
0 0 43 0 0 0 6653 3581 4 MP
PP
6653 3581 mt 6653 3581 L
6653 3581 mt 6696 3581 L
6696 3581 mt 6696 3581 L
6696 3581 mt 6653 3581 L
0 1 44 0 0 -1 6696 3581 4 MP
PP
6696 3581 mt 6696 3580 L
6696 3580 mt 6740 3580 L
6740 3580 mt 6740 3581 L
6740 3581 mt 6696 3581 L
0 0 43 0 0 0 6740 3581 4 MP
PP
6740 3581 mt 6740 3581 L
6740 3581 mt 6783 3581 L
6783 3581 mt 6783 3581 L
6783 3581 mt 6740 3581 L
0 0 44 0 0 0 6783 3581 4 MP
PP
6783 3581 mt 6783 3581 L
6783 3581 mt 6827 3581 L
6827 3581 mt 6827 3581 L
6827 3581 mt 6783 3581 L
0 0 43 0 0 0 6827 3581 4 MP
PP
6827 3581 mt 6827 3581 L
6827 3581 mt 6870 3581 L
6870 3581 mt 6870 3581 L
6870 3581 mt 6827 3581 L
0 0 43 0 0 0 6870 3581 4 MP
PP
6870 3581 mt 6870 3581 L
6870 3581 mt 6913 3581 L
6913 3581 mt 6913 3581 L
6913 3581 mt 6870 3581 L
0 0 44 0 0 0 6913 3581 4 MP
PP
6913 3581 mt 6913 3581 L
6913 3581 mt 6957 3581 L
6957 3581 mt 6957 3581 L
6957 3581 mt 6913 3581 L
0 1 43 0 0 -1 6957 3581 4 MP
PP
6957 3581 mt 6957 3580 L
6957 3580 mt 7000 3580 L
7000 3580 mt 7000 3581 L
7000 3581 mt 6957 3581 L
0 0 44 0 0 0 7000 3581 4 MP
PP
7000 3581 mt 7000 3581 L
7000 3581 mt 7044 3581 L
7044 3581 mt 7044 3581 L
7044 3581 mt 7000 3581 L
0 1 43 0 0 -1 7044 3581 4 MP
PP
7044 3581 mt 7044 3580 L
7044 3580 mt 7087 3580 L
7087 3580 mt 7087 3581 L
7087 3581 mt 7044 3581 L
0 0 44 0 0 0 7087 3581 4 MP
PP
7087 3581 mt 7087 3581 L
7087 3581 mt 7131 3581 L
7131 3581 mt 7131 3581 L
7131 3581 mt 7087 3581 L
0 0 43 0 0 0 7131 3581 4 MP
PP
7131 3581 mt 7131 3581 L
7131 3581 mt 7174 3581 L
7174 3581 mt 7174 3581 L
7174 3581 mt 7131 3581 L
0 0 44 0 0 0 7174 3581 4 MP
PP
7174 3581 mt 7174 3581 L
7174 3581 mt 7218 3581 L
7218 3581 mt 7218 3581 L
7218 3581 mt 7174 3581 L
0 1 43 0 0 -1 7218 3581 4 MP
PP
7218 3581 mt 7218 3580 L
7218 3580 mt 7261 3580 L
7261 3580 mt 7261 3581 L
7261 3581 mt 7218 3581 L
0 0 43 0 0 0 7261 3581 4 MP
PP
7261 3581 mt 7261 3581 L
7261 3581 mt 7304 3581 L
7304 3581 mt 7304 3581 L
7304 3581 mt 7261 3581 L
0 0 44 0 0 0 7304 3581 4 MP
PP
7304 3581 mt 7304 3581 L
7304 3581 mt 7348 3581 L
7348 3581 mt 7348 3581 L
7348 3581 mt 7304 3581 L
0 0 43 0 0 0 7348 3581 4 MP
PP
7348 3581 mt 7348 3581 L
7348 3581 mt 7391 3581 L
7391 3581 mt 7391 3581 L
7391 3581 mt 7348 3581 L
0 0 44 0 0 0 7391 3581 4 MP
PP
7391 3581 mt 7391 3581 L
7391 3581 mt 7435 3581 L
7435 3581 mt 7435 3581 L
7435 3581 mt 7391 3581 L
0 0 43 0 0 0 7435 3581 4 MP
PP
7435 3581 mt 7435 3581 L
7435 3581 mt 7478 3581 L
7478 3581 mt 7478 3581 L
7478 3581 mt 7435 3581 L
0 0 44 0 0 0 7478 3581 4 MP
PP
7478 3581 mt 7478 3581 L
7478 3581 mt 7522 3581 L
7522 3581 mt 7522 3581 L
7522 3581 mt 7478 3581 L
0 0 43 0 0 0 7522 3581 4 MP
PP
7522 3581 mt 7522 3581 L
7522 3581 mt 7565 3581 L
7565 3581 mt 7565 3581 L
7565 3581 mt 7522 3581 L
0 0 43 0 0 0 7565 3581 4 MP
PP
7565 3581 mt 7565 3581 L
7565 3581 mt 7608 3581 L
7608 3581 mt 7608 3581 L
7608 3581 mt 7565 3581 L
0 0 44 0 0 0 7608 3581 4 MP
PP
7608 3581 mt 7608 3581 L
7608 3581 mt 7652 3581 L
7652 3581 mt 7652 3581 L
7652 3581 mt 7608 3581 L
0 0 43 0 0 0 7652 3581 4 MP
PP
7652 3581 mt 7652 3581 L
7652 3581 mt 7695 3581 L
7695 3581 mt 7695 3581 L
7695 3581 mt 7652 3581 L
0 0 44 0 0 0 7695 3581 4 MP
PP
7695 3581 mt 7695 3581 L
7695 3581 mt 7739 3581 L
7739 3581 mt 7739 3581 L
7739 3581 mt 7695 3581 L
0 0 43 0 0 0 7739 3581 4 MP
PP
7739 3581 mt 7739 3581 L
7739 3581 mt 7782 3581 L
7782 3581 mt 7782 3581 L
7782 3581 mt 7739 3581 L
0 0 44 0 0 0 7782 3581 4 MP
PP
7782 3581 mt 7782 3581 L
7782 3581 mt 7826 3581 L
7826 3581 mt 7826 3581 L
7826 3581 mt 7782 3581 L
0 0 43 0 0 0 7826 3581 4 MP
PP
7826 3581 mt 7826 3581 L
7826 3581 mt 7869 3581 L
7869 3581 mt 7869 3581 L
7869 3581 mt 7826 3581 L
0 0 44 0 0 0 7869 3581 4 MP
PP
7869 3581 mt 7869 3581 L
7869 3581 mt 7913 3581 L
7913 3581 mt 7913 3581 L
7913 3581 mt 7869 3581 L
0 0 43 0 0 0 7913 3581 4 MP
PP
7913 3581 mt 7913 3581 L
7913 3581 mt 7956 3581 L
7956 3581 mt 7956 3581 L
7956 3581 mt 7913 3581 L
0 0 43 0 0 0 7956 3581 4 MP
PP
7956 3581 mt 7956 3581 L
7956 3581 mt 7999 3581 L
7999 3581 mt 7999 3581 L
7999 3581 mt 7956 3581 L
0 0 44 0 0 0 7999 3581 4 MP
PP
7999 3581 mt 7999 3581 L
7999 3581 mt 8043 3581 L
8043 3581 mt 8043 3581 L
8043 3581 mt 7999 3581 L
0 0 43 0 0 0 8043 3581 4 MP
PP
8043 3581 mt 8043 3581 L
8043 3581 mt 8086 3581 L
8086 3581 mt 8086 3581 L
8086 3581 mt 8043 3581 L
0 0 44 0 0 0 8086 3581 4 MP
PP
8086 3581 mt 8086 3581 L
8086 3581 mt 8130 3581 L
8130 3581 mt 8130 3581 L
8130 3581 mt 8086 3581 L
0 0 43 0 0 0 8130 3581 4 MP
PP
8130 3581 mt 8130 3581 L
8130 3581 mt 8173 3581 L
8173 3581 mt 8173 3581 L
8173 3581 mt 8130 3581 L
0 0 44 0 0 0 8173 3581 4 MP
PP
8173 3581 mt 8173 3581 L
8173 3581 mt 8217 3581 L
8217 3581 mt 8217 3581 L
8217 3581 mt 8173 3581 L
0 0 43 0 0 0 8217 3581 4 MP
PP
8217 3581 mt 8217 3581 L
8217 3581 mt 8260 3581 L
8260 3581 mt 8260 3581 L
8260 3581 mt 8217 3581 L
0 0 43 0 0 0 8260 3581 4 MP
PP
8260 3581 mt 8260 3581 L
8260 3581 mt 8303 3581 L
8303 3581 mt 8303 3581 L
8303 3581 mt 8260 3581 L
0 0 44 0 0 0 8303 3581 4 MP
PP
8303 3581 mt 8303 3581 L
8303 3581 mt 8347 3581 L
8347 3581 mt 8347 3581 L
8347 3581 mt 8303 3581 L
0 0 43 0 0 0 8347 3581 4 MP
PP
8347 3581 mt 8347 3581 L
8347 3581 mt 8390 3581 L
8390 3581 mt 8390 3581 L
8390 3581 mt 8347 3581 L
0 0 44 0 0 0 8390 3581 4 MP
PP
8390 3581 mt 8390 3581 L
8390 3581 mt 8434 3581 L
8434 3581 mt 8434 3581 L
8434 3581 mt 8390 3581 L
0 0 43 0 0 0 8434 3581 4 MP
PP
8434 3581 mt 8434 3581 L
8434 3581 mt 8477 3581 L
8477 3581 mt 8477 3581 L
8477 3581 mt 8434 3581 L
0 0 44 0 0 0 8477 3581 4 MP
PP
8477 3581 mt 8477 3581 L
8477 3581 mt 8521 3581 L
8521 3581 mt 8521 3581 L
8521 3581 mt 8477 3581 L
0 0 43 0 0 0 8521 3581 4 MP
PP
8521 3581 mt 8521 3581 L
8521 3581 mt 8564 3581 L
8564 3581 mt 8564 3581 L
8564 3581 mt 8521 3581 L
0 0 44 0 0 0 8564 3581 4 MP
PP
8564 3581 mt 8564 3581 L
8564 3581 mt 8608 3581 L
8608 3581 mt 8608 3581 L
8608 3581 mt 8564 3581 L
0 0 43 0 0 0 8608 3581 4 MP
PP
8608 3581 mt 8608 3581 L
8608 3581 mt 8651 3581 L
8651 3581 mt 8651 3581 L
8651 3581 mt 8608 3581 L
0 0 43 0 0 0 8651 3581 4 MP
PP
8651 3581 mt 8651 3581 L
8651 3581 mt 8694 3581 L
8694 3581 mt 8694 3581 L
8694 3581 mt 8651 3581 L
0 0 44 0 0 0 8694 3581 4 MP
PP
8694 3581 mt 8694 3581 L
8694 3581 mt 8738 3581 L
8738 3581 mt 8738 3581 L
8738 3581 mt 8694 3581 L
0 0 43 0 0 0 8738 3581 4 MP
PP
8738 3581 mt 8738 3581 L
8738 3581 mt 8781 3581 L
8781 3581 mt 8781 3581 L
8781 3581 mt 8738 3581 L
0 0 44 0 0 0 8781 3581 4 MP
PP
8781 3581 mt 8781 3581 L
8781 3581 mt 8825 3581 L
8825 3581 mt 8825 3581 L
8825 3581 mt 8781 3581 L
0 0 43 0 0 0 8825 3581 4 MP
PP
8825 3581 mt 8825 3581 L
8825 3581 mt 8868 3581 L
8868 3581 mt 8868 3581 L
8868 3581 mt 8825 3581 L
0 0 44 0 0 0 8868 3581 4 MP
PP
8868 3581 mt 8868 3581 L
8868 3581 mt 8912 3581 L
8912 3581 mt 8912 3581 L
8912 3581 mt 8868 3581 L
0 0 43 0 0 0 8912 3581 4 MP
PP
8912 3581 mt 8912 3581 L
8912 3581 mt 8955 3581 L
8955 3581 mt 8955 3581 L
8955 3581 mt 8912 3581 L
0 0 43 0 0 0 8955 3581 4 MP
PP
8955 3581 mt 8955 3581 L
8955 3581 mt 8998 3581 L
8998 3581 mt 8998 3581 L
8998 3581 mt 8955 3581 L
0 0 44 0 0 0 8998 3581 4 MP
PP
8998 3581 mt 8998 3581 L
8998 3581 mt 9042 3581 L
9042 3581 mt 9042 3581 L
9042 3581 mt 8998 3581 L
0 0 43 0 0 0 9042 3581 4 MP
PP
9042 3581 mt 9042 3581 L
9042 3581 mt 9085 3581 L
9085 3581 mt 9085 3581 L
9085 3581 mt 9042 3581 L
0 0 44 0 0 0 9085 3581 4 MP
PP
9085 3581 mt 9085 3581 L
9085 3581 mt 9129 3581 L
9129 3581 mt 9129 3581 L
9129 3581 mt 9085 3581 L
0 0 43 0 0 0 9129 3581 4 MP
PP
9129 3581 mt 9129 3581 L
9129 3581 mt 9172 3581 L
9172 3581 mt 9172 3581 L
9172 3581 mt 9129 3581 L
0 0 44 0 0 0 9172 3581 4 MP
PP
9172 3581 mt 9172 3581 L
9172 3581 mt 9216 3581 L
9216 3581 mt 9216 3581 L
9216 3581 mt 9172 3581 L
0 0 43 0 0 0 9216 3581 4 MP
PP
9216 3581 mt 9216 3581 L
9216 3581 mt 9259 3581 L
9259 3581 mt 9259 3581 L
9259 3581 mt 9216 3581 L
0 0 44 0 0 0 9259 3581 4 MP
PP
9259 3581 mt 9259 3581 L
9259 3581 mt 9303 3581 L
9303 3581 mt 9303 3581 L
9303 3581 mt 9259 3581 L
0 0 43 0 0 0 9303 3581 4 MP
PP
9303 3581 mt 9303 3581 L
9303 3581 mt 9346 3581 L
9346 3581 mt 9346 3581 L
9346 3581 mt 9303 3581 L
0 0 43 0 0 0 9346 3581 4 MP
PP
9346 3581 mt 9346 3581 L
9346 3581 mt 9389 3581 L
9389 3581 mt 9389 3581 L
9389 3581 mt 9346 3581 L
0 0 44 0 0 0 9389 3581 4 MP
PP
9389 3581 mt 9389 3581 L
9389 3581 mt 9433 3581 L
9433 3581 mt 9433 3581 L
9433 3581 mt 9389 3581 L
0 0 43 0 0 0 9433 3581 4 MP
PP
9433 3581 mt 9433 3581 L
9433 3581 mt 9476 3581 L
9476 3581 mt 9476 3581 L
9476 3581 mt 9433 3581 L
0 0 44 0 0 0 9476 3581 4 MP
PP
9476 3581 mt 9476 3581 L
9476 3581 mt 9520 3581 L
9520 3581 mt 9520 3581 L
9520 3581 mt 9476 3581 L
0 0 43 0 0 0 9520 3581 4 MP
PP
9520 3581 mt 9520 3581 L
9520 3581 mt 9563 3581 L
9563 3581 mt 9563 3581 L
9563 3581 mt 9520 3581 L
0 0 44 0 0 0 9563 3581 4 MP
PP
9563 3581 mt 9563 3581 L
9563 3581 mt 9607 3581 L
9607 3581 mt 9607 3581 L
9607 3581 mt 9563 3581 L
0 0 43 0 0 0 9607 3581 4 MP
PP
9607 3581 mt 9607 3581 L
9607 3581 mt 9650 3581 L
9650 3581 mt 9650 3581 L
9650 3581 mt 9607 3581 L
0 0 43 0 0 0 9650 3581 4 MP
PP
9650 3581 mt 9650 3581 L
9650 3581 mt 9693 3581 L
9693 3581 mt 9693 3581 L
9693 3581 mt 9650 3581 L
0 0 44 0 0 0 9693 3581 4 MP
PP
9693 3581 mt 9693 3581 L
9693 3581 mt 9737 3581 L
9737 3581 mt 9737 3581 L
9737 3581 mt 9693 3581 L
0 0 43 0 0 0 9737 3581 4 MP
PP
9737 3581 mt 9737 3581 L
9737 3581 mt 9780 3581 L
9780 3581 mt 9780 3581 L
9780 3581 mt 9737 3581 L
0 0 44 0 0 0 9780 3581 4 MP
PP
9780 3581 mt 9780 3581 L
9780 3581 mt 9824 3581 L
9824 3581 mt 9824 3581 L
9824 3581 mt 9780 3581 L
0 0 43 0 0 0 9824 3581 4 MP
PP
9824 3581 mt 9824 3581 L
9824 3581 mt 9867 3581 L
9867 3581 mt 9867 3581 L
9867 3581 mt 9824 3581 L
0 0 44 0 0 0 9867 3581 4 MP
PP
9867 3581 mt 9867 3581 L
9867 3581 mt 9911 3581 L
9911 3581 mt 9911 3581 L
9911 3581 mt 9867 3581 L
0 0 43 0 0 0 9911 3581 4 MP
PP
9911 3581 mt 9911 3581 L
9911 3581 mt 9954 3581 L
9954 3581 mt 9954 3581 L
9954 3581 mt 9911 3581 L
0 0 44 0 0 0 9954 3581 4 MP
PP
9954 3581 mt 9954 3581 L
9954 3581 mt 9998 3581 L
9998 3581 mt 9998 3581 L
9998 3581 mt 9954 3581 L
0 0 43 0 0 0 9998 3581 4 MP
PP
9998 3581 mt 9998 3581 L
9998 3581 mt 10041 3581 L
10041 3581 mt 10041 3581 L
10041 3581 mt 9998 3581 L
0 0 43 0 0 0 10041 3581 4 MP
PP
10041 3581 mt 10041 3581 L
10041 3581 mt 10084 3581 L
10084 3581 mt 10084 3581 L
10084 3581 mt 10041 3581 L
0 0 44 0 0 0 10084 3581 4 MP
PP
10084 3581 mt 10084 3581 L
10084 3581 mt 10128 3581 L
10128 3581 mt 10128 3581 L
10128 3581 mt 10084 3581 L
0 0 43 0 0 0 10128 3581 4 MP
PP
10128 3581 mt 10128 3581 L
10128 3581 mt 10171 3581 L
10171 3581 mt 10171 3581 L
10171 3581 mt 10128 3581 L
0 0 44 0 0 0 10171 3581 4 MP
PP
10171 3581 mt 10171 3581 L
10171 3581 mt 10215 3581 L
10215 3581 mt 10215 3581 L
10215 3581 mt 10171 3581 L
0 0 43 0 0 0 10215 3581 4 MP
PP
10215 3581 mt 10215 3581 L
10215 3581 mt 10258 3581 L
10258 3581 mt 10258 3581 L
10258 3581 mt 10215 3581 L
0 0 44 0 0 0 10258 3581 4 MP
PP
10258 3581 mt 10258 3581 L
10258 3581 mt 10302 3581 L
10302 3581 mt 10302 3581 L
10302 3581 mt 10258 3581 L
0 0 43 0 0 0 10302 3581 4 MP
PP
10302 3581 mt 10302 3581 L
10302 3581 mt 10345 3581 L
10345 3581 mt 10345 3581 L
10345 3581 mt 10302 3581 L
0 0 44 0 0 0 10345 3581 4 MP
PP
10345 3581 mt 10345 3581 L
10345 3581 mt 10389 3581 L
10389 3581 mt 10389 3581 L
10389 3581 mt 10345 3581 L
0 0 43 0 0 0 10389 3581 4 MP
PP
10389 3581 mt 10389 3581 L
10389 3581 mt 10432 3581 L
10432 3581 mt 10432 3581 L
10432 3581 mt 10389 3581 L
0 0 43 0 0 0 10432 3581 4 MP
PP
10432 3581 mt 10432 3581 L
10432 3581 mt 10475 3581 L
10475 3581 mt 10475 3581 L
10475 3581 mt 10432 3581 L
0 0 44 0 0 0 10475 3581 4 MP
PP
10475 3581 mt 10475 3581 L
10475 3581 mt 10519 3581 L
10519 3581 mt 10519 3581 L
10519 3581 mt 10475 3581 L
0 0 43 0 0 0 10519 3581 4 MP
PP
10519 3581 mt 10519 3581 L
10519 3581 mt 10562 3581 L
10562 3581 mt 10562 3581 L
10562 3581 mt 10519 3581 L
0 0 44 0 0 0 10562 3581 4 MP
PP
10562 3581 mt 10562 3581 L
10562 3581 mt 10606 3581 L
10606 3581 mt 10606 3581 L
10606 3581 mt 10562 3581 L
0 0 43 0 0 0 10606 3581 4 MP
PP
10606 3581 mt 10606 3581 L
10606 3581 mt 10649 3581 L
10649 3581 mt 10649 3581 L
10649 3581 mt 10606 3581 L
0 0 44 0 0 0 10649 3581 4 MP
PP
10649 3581 mt 10649 3581 L
10649 3581 mt 10693 3581 L
10693 3581 mt 10693 3581 L
10693 3581 mt 10649 3581 L
0 0 43 0 0 0 10693 3581 4 MP
PP
10693 3581 mt 10693 3581 L
10693 3581 mt 10736 3581 L
10736 3581 mt 10736 3581 L
10736 3581 mt 10693 3581 L
0 0 43 0 0 0 10736 3581 4 MP
PP
10736 3581 mt 10736 3581 L
10736 3581 mt 10779 3581 L
10779 3581 mt 10779 3581 L
10779 3581 mt 10736 3581 L
0 0 44 0 0 0 10779 3581 4 MP
PP
10779 3581 mt 10779 3581 L
10779 3581 mt 10823 3581 L
10823 3581 mt 10823 3581 L
10823 3581 mt 10779 3581 L
0 0 43 0 0 0 10823 3581 4 MP
PP
10823 3581 mt 10823 3581 L
10823 3581 mt 10866 3581 L
10866 3581 mt 10866 3581 L
10866 3581 mt 10823 3581 L
0 0 44 0 0 0 10866 3581 4 MP
PP
10866 3581 mt 10866 3581 L
10866 3581 mt 10910 3581 L
10910 3581 mt 10910 3581 L
10910 3581 mt 10866 3581 L
0 0 43 0 0 0 10910 3581 4 MP
PP
10910 3581 mt 10910 3581 L
10910 3581 mt 10953 3581 L
10953 3581 mt 10953 3581 L
10953 3581 mt 10910 3581 L
0 0 44 0 0 0 10953 3581 4 MP
PP
10953 3581 mt 10953 3581 L
10953 3581 mt 10997 3581 L
10997 3581 mt 10997 3581 L
10997 3581 mt 10953 3581 L
0 0 43 0 0 0 10997 3581 4 MP
PP
10997 3581 mt 10997 3581 L
10997 3581 mt 11040 3581 L
11040 3581 mt 11040 3581 L
11040 3581 mt 10997 3581 L
0 0 44 0 0 0 11040 3581 4 MP
PP
11040 3581 mt 11040 3581 L
11040 3581 mt 11084 3581 L
11084 3581 mt 11084 3581 L
11084 3581 mt 11040 3581 L
0 0 43 0 0 0 11084 3581 4 MP
PP
11084 3581 mt 11084 3581 L
11084 3581 mt 11127 3581 L
11127 3581 mt 11127 3581 L
11127 3581 mt 11084 3581 L
0 0 43 0 0 0 11127 3581 4 MP
PP
11127 3581 mt 11127 3581 L
11127 3581 mt 11170 3581 L
11170 3581 mt 11170 3581 L
11170 3581 mt 11127 3581 L
0 0 44 0 0 0 11170 3581 4 MP
PP
11170 3581 mt 11170 3581 L
11170 3581 mt 11214 3581 L
11214 3581 mt 11214 3581 L
11214 3581 mt 11170 3581 L
0 0 43 0 0 0 11214 3581 4 MP
PP
11214 3581 mt 11214 3581 L
11214 3581 mt 11257 3581 L
11257 3581 mt 11257 3581 L
11257 3581 mt 11214 3581 L
0 0 44 0 0 0 11257 3581 4 MP
PP
11257 3581 mt 11257 3581 L
11257 3581 mt 11301 3581 L
11301 3581 mt 11301 3581 L
11301 3581 mt 11257 3581 L
0 0 43 0 0 0 11301 3581 4 MP
PP
11301 3581 mt 11301 3581 L
11301 3581 mt 11344 3581 L
11344 3581 mt 11344 3581 L
11344 3581 mt 11301 3581 L
0 0 44 0 0 0 11344 3581 4 MP
PP
11344 3581 mt 11344 3581 L
11344 3581 mt 11388 3581 L
11388 3581 mt 11388 3581 L
11388 3581 mt 11344 3581 L
0 0 43 0 0 0 11388 3581 4 MP
PP
11388 3581 mt 11388 3581 L
11388 3581 mt 11431 3581 L
11431 3581 mt 11431 3581 L
11431 3581 mt 11388 3581 L
0 0 43 0 0 0 11431 3581 4 MP
PP
11431 3581 mt 11431 3581 L
11431 3581 mt 11474 3581 L
11474 3581 mt 11474 3581 L
11474 3581 mt 11431 3581 L
0 0 44 0 0 0 11474 3581 4 MP
PP
11474 3581 mt 11474 3581 L
11474 3581 mt 11518 3581 L
11518 3581 mt 11518 3581 L
11518 3581 mt 11474 3581 L
0 0 43 0 0 0 11518 3581 4 MP
PP
11518 3581 mt 11518 3581 L
11518 3581 mt 11561 3581 L
11561 3581 mt 11561 3581 L
11561 3581 mt 11518 3581 L
0 0 44 0 0 0 11561 3581 4 MP
PP
11561 3581 mt 11561 3581 L
11561 3581 mt 11605 3581 L
11605 3581 mt 11605 3581 L
11605 3581 mt 11561 3581 L
0 0 43 0 0 0 11605 3581 4 MP
PP
11605 3581 mt 11605 3581 L
11605 3581 mt 11648 3581 L
11648 3581 mt 11648 3581 L
11648 3581 mt 11605 3581 L
0 0 44 0 0 0 11648 3581 4 MP
PP
11648 3581 mt 11648 3581 L
11648 3581 mt 11692 3581 L
11692 3581 mt 11692 3581 L
11692 3581 mt 11648 3581 L
0 0 43 0 0 0 11692 3581 4 MP
PP
11692 3581 mt 11692 3581 L
11692 3581 mt 11735 3581 L
11735 3581 mt 11735 3581 L
11735 3581 mt 11692 3581 L
0 0 44 0 0 0 11735 3581 4 MP
PP
11735 3581 mt 11735 3581 L
11735 3581 mt 11779 3581 L
11779 3581 mt 11779 3581 L
11779 3581 mt 11735 3581 L
0 0 43 0 0 0 11779 3581 4 MP
PP
11779 3581 mt 11779 3581 L
11779 3581 mt 11822 3581 L
11822 3581 mt 11822 3581 L
11822 3581 mt 11779 3581 L
0 0 43 0 0 0 11822 3581 4 MP
PP
11822 3581 mt 11822 3581 L
11822 3581 mt 11865 3581 L
11865 3581 mt 11865 3581 L
11865 3581 mt 11822 3581 L
0 0 44 0 0 0 11865 3581 4 MP
PP
11865 3581 mt 11865 3581 L
11865 3581 mt 11909 3581 L
11909 3581 mt 11909 3581 L
11909 3581 mt 11865 3581 L
0 0 43 0 0 0 11909 3581 4 MP
PP
11909 3581 mt 11909 3581 L
11909 3581 mt 11952 3581 L
11952 3581 mt 11952 3581 L
11952 3581 mt 11909 3581 L
0 0 44 0 0 0 11952 3581 4 MP
PP
11952 3581 mt 11952 3581 L
11952 3581 mt 11996 3581 L
11996 3581 mt 11996 3581 L
11996 3581 mt 11952 3581 L
0 0 43 0 0 0 11996 3581 4 MP
PP
11996 3581 mt 11996 3581 L
11996 3581 mt 12039 3581 L
12039 3581 mt 12039 3581 L
12039 3581 mt 11996 3581 L
0 0 44 0 0 0 12039 3581 4 MP
PP
12039 3581 mt 12039 3581 L
12039 3581 mt 12083 3581 L
12083 3581 mt 12083 3581 L
12083 3581 mt 12039 3581 L
0 0 43 0 0 0 12083 3581 4 MP
PP
12083 3581 mt 12083 3581 L
12083 3581 mt 12126 3581 L
12126 3581 mt 12126 3581 L
12126 3581 mt 12083 3581 L
0 0 43 0 0 0 12126 3581 4 MP
PP
12126 3581 mt 12126 3581 L
12126 3581 mt 12169 3581 L
12169 3581 mt 12169 3581 L
12169 3581 mt 12126 3581 L
0 0 44 0 0 0 12169 3581 4 MP
PP
12169 3581 mt 12169 3581 L
12169 3581 mt 12213 3581 L
12213 3581 mt 12213 3581 L
12213 3581 mt 12169 3581 L
0 0 43 0 0 0 12213 3581 4 MP
PP
12213 3581 mt 12213 3581 L
12213 3581 mt 12256 3581 L
12256 3581 mt 12256 3581 L
12256 3581 mt 12213 3581 L
0 0 44 0 0 0 12256 3581 4 MP
PP
12256 3581 mt 12256 3581 L
12256 3581 mt 12300 3581 L
12300 3581 mt 12300 3581 L
12300 3581 mt 12256 3581 L
0 0 43 0 0 0 12300 3581 4 MP
PP
12300 3581 mt 12300 3581 L
12300 3581 mt 12343 3581 L
12343 3581 mt 12343 3581 L
12343 3581 mt 12300 3581 L
0 0 44 0 0 0 12343 3581 4 MP
PP
12343 3581 mt 12343 3581 L
12343 3581 mt 12387 3581 L
12387 3581 mt 12387 3581 L
12387 3581 mt 12343 3581 L
0 0 43 0 0 0 12387 3581 4 MP
PP
12387 3581 mt 12387 3581 L
12387 3581 mt 12430 3581 L
12430 3581 mt 12430 3581 L
12430 3581 mt 12387 3581 L
0 0 44 0 0 0 12430 3581 4 MP
PP
12430 3581 mt 12430 3581 L
12430 3581 mt 12474 3581 L
12474 3581 mt 12474 3581 L
12474 3581 mt 12430 3581 L
0 0 43 0 0 0 12474 3581 4 MP
PP
12474 3581 mt 12474 3581 L
12474 3581 mt 12517 3581 L
12517 3581 mt 12517 3581 L
12517 3581 mt 12474 3581 L
0 0 43 0 0 0 12517 3581 4 MP
PP
12517 3581 mt 12517 3581 L
12517 3581 mt 12560 3581 L
12560 3581 mt 12560 3581 L
12560 3581 mt 12517 3581 L
0 0 44 0 0 0 12560 3581 4 MP
PP
12560 3581 mt 12560 3581 L
12560 3581 mt 12604 3581 L
12604 3581 mt 12604 3581 L
12604 3581 mt 12560 3581 L
0 0 43 0 0 0 12604 3581 4 MP
PP
12604 3581 mt 12604 3581 L
12604 3581 mt 12647 3581 L
12647 3581 mt 12647 3581 L
12647 3581 mt 12604 3581 L
0 0 44 0 0 0 12647 3581 4 MP
PP
12647 3581 mt 12647 3581 L
12647 3581 mt 12691 3581 L
12691 3581 mt 12691 3581 L
12691 3581 mt 12647 3581 L
0 0 43 0 0 0 12691 3581 4 MP
PP
12691 3581 mt 12691 3581 L
12691 3581 mt 12734 3581 L
12734 3581 mt 12734 3581 L
12734 3581 mt 12691 3581 L
0 0 44 0 0 0 12734 3581 4 MP
PP
12734 3581 mt 12734 3581 L
12734 3581 mt 12778 3581 L
12778 3581 mt 12778 3581 L
12778 3581 mt 12734 3581 L
0 0 43 0 0 0 12778 3581 4 MP
PP
12778 3581 mt 12778 3581 L
12778 3581 mt 12821 3581 L
12821 3581 mt 12821 3581 L
12821 3581 mt 12778 3581 L
0 0 43 0 0 0 12821 3581 4 MP
PP
12821 3581 mt 12821 3581 L
12821 3581 mt 12864 3581 L
12864 3581 mt 12864 3581 L
12864 3581 mt 12821 3581 L
0 0 44 0 0 0 12864 3581 4 MP
PP
12864 3581 mt 12864 3581 L
12864 3581 mt 12908 3581 L
12908 3581 mt 12908 3581 L
12908 3581 mt 12864 3581 L
0 0 43 0 0 0 12908 3581 4 MP
PP
12908 3581 mt 12908 3581 L
12908 3581 mt 12951 3581 L
12951 3581 mt 12951 3581 L
12951 3581 mt 12908 3581 L
0 0 44 0 0 0 12951 3581 4 MP
PP
12951 3581 mt 12951 3581 L
12951 3581 mt 12995 3581 L
12995 3581 mt 12995 3581 L
12995 3581 mt 12951 3581 L
0 0 43 0 0 0 12995 3581 4 MP
PP
12995 3581 mt 12995 3581 L
12995 3581 mt 13038 3581 L
13038 3581 mt 13038 3581 L
13038 3581 mt 12995 3581 L
0 0 44 0 0 0 13038 3581 4 MP
PP
13038 3581 mt 13038 3581 L
13038 3581 mt 13082 3581 L
13082 3581 mt 13082 3581 L
13082 3581 mt 13038 3581 L
0 0 43 0 0 0 13082 3581 4 MP
PP
13082 3581 mt 13082 3581 L
13082 3581 mt 13125 3581 L
13125 3581 mt 13125 3581 L
13125 3581 mt 13082 3581 L
0 0 44 0 0 0 13125 3581 4 MP
PP
13125 3581 mt 13125 3581 L
13125 3581 mt 13169 3581 L
13169 3581 mt 13169 3581 L
13169 3581 mt 13125 3581 L
0 0 43 0 0 0 13169 3581 4 MP
PP
13169 3581 mt 13169 3581 L
13169 3581 mt 13212 3581 L
13212 3581 mt 13212 3581 L
13212 3581 mt 13169 3581 L
0 0 43 0 0 0 13212 3581 4 MP
PP
13212 3581 mt 13212 3581 L
13212 3581 mt 13255 3581 L
13255 3581 mt 13255 3581 L
13255 3581 mt 13212 3581 L
0 0 44 0 0 0 13255 3581 4 MP
PP
13255 3581 mt 13255 3581 L
13255 3581 mt 13299 3581 L
13299 3581 mt 13299 3581 L
13299 3581 mt 13255 3581 L
0 0 43 0 0 0 13299 3581 4 MP
PP
13299 3581 mt 13299 3581 L
13299 3581 mt 13342 3581 L
13342 3581 mt 13342 3581 L
13342 3581 mt 13299 3581 L
0 0 44 0 0 0 13342 3581 4 MP
PP
13342 3581 mt 13342 3581 L
13342 3581 mt 13386 3581 L
13386 3581 mt 13386 3581 L
13386 3581 mt 13342 3581 L
0 0 43 0 0 0 13386 3581 4 MP
PP
13386 3581 mt 13386 3581 L
13386 3581 mt 13429 3581 L
13429 3581 mt 13429 3581 L
13429 3581 mt 13386 3581 L
0 0 44 0 0 0 13429 3581 4 MP
PP
13429 3581 mt 13429 3581 L
13429 3581 mt 13473 3581 L
13473 3581 mt 13473 3581 L
13473 3581 mt 13429 3581 L
0 0 43 0 0 0 13473 3581 4 MP
PP
13473 3581 mt 13473 3581 L
13473 3581 mt 13516 3581 L
13516 3581 mt 13516 3581 L
13516 3581 mt 13473 3581 L
0 0 43 0 0 0 13516 3581 4 MP
PP
13516 3581 mt 13516 3581 L
13516 3581 mt 13559 3581 L
13559 3581 mt 13559 3581 L
13559 3581 mt 13516 3581 L
0 0 44 0 0 0 13559 3581 4 MP
PP
13559 3581 mt 13559 3581 L
13559 3581 mt 13603 3581 L
13603 3581 mt 13603 3581 L
13603 3581 mt 13559 3581 L
0 0 43 0 0 0 13603 3581 4 MP
PP
13603 3581 mt 13603 3581 L
13603 3581 mt 13646 3581 L
13646 3581 mt 13646 3581 L
13646 3581 mt 13603 3581 L
0 0 44 0 0 0 13646 3581 4 MP
PP
13646 3581 mt 13646 3581 L
13646 3581 mt 13690 3581 L
13690 3581 mt 13690 3581 L
13690 3581 mt 13646 3581 L
0 0 43 0 0 0 13690 3581 4 MP
PP
13690 3581 mt 13690 3581 L
13690 3581 mt 13733 3581 L
13733 3581 mt 13733 3581 L
13733 3581 mt 13690 3581 L
0 0 44 0 0 0 13733 3581 4 MP
PP
13733 3581 mt 13733 3581 L
13733 3581 mt 13777 3581 L
13777 3581 mt 13777 3581 L
13777 3581 mt 13733 3581 L
0 0 43 0 0 0 13777 3581 4 MP
PP
13777 3581 mt 13777 3581 L
13777 3581 mt 13820 3581 L
13820 3581 mt 13820 3581 L
13820 3581 mt 13777 3581 L
0 0 44 0 0 0 13820 3581 4 MP
PP
13820 3581 mt 13820 3581 L
13820 3581 mt 13864 3581 L
13864 3581 mt 13864 3581 L
13864 3581 mt 13820 3581 L
0 0 43 0 0 0 13864 3581 4 MP
PP
13864 3581 mt 13864 3581 L
13864 3581 mt 13907 3581 L
13907 3581 mt 13907 3581 L
13907 3581 mt 13864 3581 L
0 0 43 0 0 0 13907 3581 4 MP
PP
13907 3581 mt 13907 3581 L
13907 3581 mt 13950 3581 L
13950 3581 mt 13950 3581 L
13950 3581 mt 13907 3581 L
0 0 44 0 0 0 13950 3581 4 MP
PP
13950 3581 mt 13950 3581 L
13950 3581 mt 13994 3581 L
13994 3581 mt 13994 3581 L
13994 3581 mt 13950 3581 L
0 0 43 0 0 0 13994 3581 4 MP
PP
13994 3581 mt 13994 3581 L
13994 3581 mt 14037 3581 L
14037 3581 mt 14037 3581 L
14037 3581 mt 13994 3581 L
0 0 44 0 0 0 14037 3581 4 MP
PP
14037 3581 mt 14037 3581 L
14037 3581 mt 14081 3581 L
14081 3581 mt 14081 3581 L
14081 3581 mt 14037 3581 L
0 0 43 0 0 0 14081 3581 4 MP
PP
14081 3581 mt 14081 3581 L
14081 3581 mt 14124 3581 L
14124 3581 mt 14124 3581 L
14124 3581 mt 14081 3581 L
0 0 44 0 0 0 14124 3581 4 MP
PP
14124 3581 mt 14124 3581 L
14124 3581 mt 14168 3581 L
14168 3581 mt 14168 3581 L
14168 3581 mt 14124 3581 L
0 0 43 0 0 0 14168 3581 4 MP
PP
14168 3581 mt 14168 3581 L
14168 3581 mt 14211 3581 L
14211 3581 mt 14211 3581 L
14211 3581 mt 14168 3581 L
0 0 43 0 0 0 14211 3581 4 MP
PP
14211 3581 mt 14211 3581 L
14211 3581 mt 14254 3581 L
14254 3581 mt 14254 3581 L
14254 3581 mt 14211 3581 L
0 0 44 0 0 0 14254 3581 4 MP
PP
14254 3581 mt 14254 3581 L
14254 3581 mt 14298 3581 L
14298 3581 mt 14298 3581 L
14298 3581 mt 14254 3581 L
0 0 43 0 0 0 14298 3581 4 MP
PP
14298 3581 mt 14298 3581 L
14298 3581 mt 14341 3581 L
14341 3581 mt 14341 3581 L
14341 3581 mt 14298 3581 L
0 0 44 0 0 0 14341 3581 4 MP
PP
14341 3581 mt 14341 3581 L
14341 3581 mt 14385 3581 L
14385 3581 mt 14385 3581 L
14385 3581 mt 14341 3581 L
0 0 53 0 0 0 14385 3581 4 MP
PP
14385 3581 mt 14385 3581 L
14385 3581 mt 14438 3581 L
14438 3581 mt 14438 3581 L
14438 3581 mt 14385 3581 L
gr

c8
0 sg
%%IncludeResource: font Helvetica
/Helvetica /ISOLatin1Encoding 120 FMSR

 416 2227 mt  -90 rotate
(Frequency) s
90 rotate
2228 3877 mt 
(Maximum population) s
 682 3631 mt 
( ) s
4849  343 mt 
( ) s
1 sg
0 188 2323 0 0 -188 2483 549 4 MP
PP
-2323 0 0 188 2323 0 0 -188 2483 549 5 MP stroke
4 w
DO
SO
6 w
0 sg
2483  549 mt 4806  549 L
2483  361 mt 4806  361 L
2483  549 mt 2483  361 L
4806  549 mt 4806  361 L
2483  549 mt 4806  549 L
2483  549 mt 2483  361 L
2483  549 mt 4806  549 L
2483  361 mt 4806  361 L
2483  549 mt 2483  361 L
4806  549 mt 4806  361 L
2954  498 mt 
(Histogram of maximum population) s
gs 2483 361 2324 189 rc
c8
0 111 362 0 0 -111 2555 510 4 MP
PP
2555  510 mt 2555  399 L
2555  399 mt 2917  399 L
2917  399 mt 2917  510 L
2917  510 mt 2555  510 L
gr

c8

end %%Color Dict

eplot
%%EndObject

epage
end

showpage

%%Trailer
%%EOF
