%!PS-Adobe-3.0 EPSF-3.0
%%Creator: MATLAB, The MathWorks, Inc. Version 7.14.0.739 (R2012a). Operating System: Linux 2.6.38-16-generic #67-Ubuntu SMP Thu Sep 6 17:58:38 UTC 2012 x86_64.
%%Title: /home/birkeland/andreros/tma4265-stochastic-processes/project/second_problem/histogram_total_population.eps
%%CreationDate: 10/22/2012  10:35:30
%%DocumentNeededFonts: Helvetica
%%DocumentProcessColors: Cyan Magenta Yellow Black
%%LanguageLevel: 2
%%Pages: 1
%%BoundingBox:    81   227   529   564
%%EndComments

%%BeginProlog
% MathWorks dictionary
/MathWorks 160 dict begin
% definition operators
/bdef {bind def} bind def
/ldef {load def} bind def
/xdef {exch def} bdef
/xstore {exch store} bdef
% operator abbreviations
/c  /clip ldef
/cc /concat ldef
/cp /closepath ldef
/gr /grestore ldef
/gs /gsave ldef
/mt /moveto ldef
/np /newpath ldef
/cm /currentmatrix ldef
/sm /setmatrix ldef
/rm /rmoveto ldef
/rl /rlineto ldef
/s {show newpath} bdef
/sc {setcmykcolor} bdef
/sr /setrgbcolor ldef
/sg /setgray ldef
/w /setlinewidth ldef
/j /setlinejoin ldef
/cap /setlinecap ldef
/rc {rectclip} bdef
/rf {rectfill} bdef
% page state control
/pgsv () def
/bpage {/pgsv save def} bdef
/epage {pgsv restore} bdef
/bplot /gsave ldef
/eplot {stroke grestore} bdef
% orientation switch
/portraitMode 0 def /landscapeMode 1 def /rotateMode 2 def
% coordinate system mappings
/dpi2point 0 def
% font control
/FontSize 0 def
/FMS {/FontSize xstore findfont [FontSize 0 0 FontSize neg 0 0]
  makefont setfont} bdef
/reencode {exch dup where {pop load} {pop StandardEncoding} ifelse
  exch dup 3 1 roll findfont dup length dict begin
  { 1 index /FID ne {def}{pop pop} ifelse } forall
  /Encoding exch def currentdict end definefont pop} bdef
/isroman {findfont /CharStrings get /Agrave known} bdef
/FMSR {3 1 roll 1 index dup isroman {reencode} {pop pop} ifelse
  exch FMS} bdef
/csm {1 dpi2point div -1 dpi2point div scale neg translate
 dup landscapeMode eq {pop -90 rotate}
  {rotateMode eq {90 rotate} if} ifelse} bdef
% line types: solid, dotted, dashed, dotdash
/SO { [] 0 setdash } bdef
/DO { [.5 dpi2point mul 4 dpi2point mul] 0 setdash } bdef
/DA { [6 dpi2point mul] 0 setdash } bdef
/DD { [.5 dpi2point mul 4 dpi2point mul 6 dpi2point mul 4
  dpi2point mul] 0 setdash } bdef
% macros for lines and objects
/L {lineto stroke} bdef
/MP {3 1 roll moveto 1 sub {rlineto} repeat} bdef
/AP {{rlineto} repeat} bdef
/PDlw -1 def
/W {/PDlw currentlinewidth def setlinewidth} def
/PP {closepath eofill} bdef
/DP {closepath stroke} bdef
/MR {4 -2 roll moveto dup  0 exch rlineto exch 0 rlineto
  neg 0 exch rlineto closepath} bdef
/FR {MR stroke} bdef
/PR {MR fill} bdef
/L1i {{currentfile picstr readhexstring pop} image} bdef
/tMatrix matrix def
/MakeOval {newpath tMatrix currentmatrix pop translate scale
0 0 1 0 360 arc tMatrix setmatrix} bdef
/FO {MakeOval stroke} bdef
/PO {MakeOval fill} bdef
/PD {currentlinewidth 2 div 0 360 arc fill
   PDlw -1 eq not {PDlw w /PDlw -1 def} if} def
/FA {newpath tMatrix currentmatrix pop translate scale
  0 0 1 5 -2 roll arc tMatrix setmatrix stroke} bdef
/PA {newpath tMatrix currentmatrix pop	translate 0 0 moveto scale
  0 0 1 5 -2 roll arc closepath tMatrix setmatrix fill} bdef
/FAn {newpath tMatrix currentmatrix pop translate scale
  0 0 1 5 -2 roll arcn tMatrix setmatrix stroke} bdef
/PAn {newpath tMatrix currentmatrix pop translate 0 0 moveto scale
  0 0 1 5 -2 roll arcn closepath tMatrix setmatrix fill} bdef
/vradius 0 def /hradius 0 def /lry 0 def
/lrx 0 def /uly 0 def /ulx 0 def /rad 0 def
/MRR {/vradius xdef /hradius xdef /lry xdef /lrx xdef /uly xdef
  /ulx xdef newpath tMatrix currentmatrix pop ulx hradius add uly
  vradius add translate hradius vradius scale 0 0 1 180 270 arc 
  tMatrix setmatrix lrx hradius sub uly vradius add translate
  hradius vradius scale 0 0 1 270 360 arc tMatrix setmatrix
  lrx hradius sub lry vradius sub translate hradius vradius scale
  0 0 1 0 90 arc tMatrix setmatrix ulx hradius add lry vradius sub
  translate hradius vradius scale 0 0 1 90 180 arc tMatrix setmatrix
  closepath} bdef
/FRR {MRR stroke } bdef
/PRR {MRR fill } bdef
/MlrRR {/lry xdef /lrx xdef /uly xdef /ulx xdef /rad lry uly sub 2 div def
  newpath tMatrix currentmatrix pop ulx rad add uly rad add translate
  rad rad scale 0 0 1 90 270 arc tMatrix setmatrix lrx rad sub lry rad
  sub translate rad rad scale 0 0 1 270 90 arc tMatrix setmatrix
  closepath} bdef
/FlrRR {MlrRR stroke } bdef
/PlrRR {MlrRR fill } bdef
/MtbRR {/lry xdef /lrx xdef /uly xdef /ulx xdef /rad lrx ulx sub 2 div def
  newpath tMatrix currentmatrix pop ulx rad add uly rad add translate
  rad rad scale 0 0 1 180 360 arc tMatrix setmatrix lrx rad sub lry rad
  sub translate rad rad scale 0 0 1 0 180 arc tMatrix setmatrix
  closepath} bdef
/FtbRR {MtbRR stroke } bdef
/PtbRR {MtbRR fill } bdef
/stri 6 array def /dtri 6 array def
/smat 6 array def /dmat 6 array def
/tmat1 6 array def /tmat2 6 array def /dif 3 array def
/asub {/ind2 exch def /ind1 exch def dup dup
  ind1 get exch ind2 get sub exch } bdef
/tri_to_matrix {
  2 0 asub 3 1 asub 4 0 asub 5 1 asub
  dup 0 get exch 1 get 7 -1 roll astore } bdef
/compute_transform {
  dmat dtri tri_to_matrix tmat1 invertmatrix 
  smat stri tri_to_matrix tmat2 concatmatrix } bdef
/ds {stri astore pop} bdef
/dt {dtri astore pop} bdef
/db {2 copy /cols xdef /rows xdef mul dup 3 mul string
  currentfile 
  3 index 0 eq {/ASCIIHexDecode filter}
  {/ASCII85Decode filter 3 index 2 eq {/RunLengthDecode filter} if }
  ifelse exch readstring pop
  dup 0 3 index getinterval /rbmap xdef
  dup 2 index dup getinterval /gbmap xdef
  1 index dup 2 mul exch getinterval /bbmap xdef pop pop}bdef
/it {gs np dtri aload pop moveto lineto lineto cp c
  cols rows 8 compute_transform 
  rbmap gbmap bbmap true 3 colorimage gr}bdef
/il {newpath moveto lineto stroke}bdef
currentdict end def
%%EndProlog

%%BeginSetup
MathWorks begin

0 cap

end
%%EndSetup

%%Page: 1 1
%%BeginPageSetup
%%PageBoundingBox:    81   227   529   564
MathWorks begin
bpage
%%EndPageSetup

%%BeginObject: obj1
bplot

/dpi2point 12 def
portraitMode 0972 6768 csm

    0     0  5376  4033 rc
85 dict begin %Colortable dictionary
/c0 { 0.000000 0.000000 0.000000 sr} bdef
/c1 { 1.000000 1.000000 1.000000 sr} bdef
/c2 { 0.900000 0.000000 0.000000 sr} bdef
/c3 { 0.000000 0.820000 0.000000 sr} bdef
/c4 { 0.000000 0.000000 0.800000 sr} bdef
/c5 { 0.910000 0.820000 0.320000 sr} bdef
/c6 { 1.000000 0.260000 0.820000 sr} bdef
/c7 { 0.000000 0.820000 0.820000 sr} bdef
c0
1 j
1 sg
   0    0 5377 4034 rf
6 w
0 3287 4166 0 0 -3287 699 3589 4 MP
PP
-4166 0 0 3287 4166 0 0 -3287 699 3589 5 MP stroke
4 w
DO
SO
6 w
0 sg
 699 3589 mt 4865 3589 L
 699  302 mt 4865  302 L
 699 3589 mt  699  302 L
4865 3589 mt 4865  302 L
 699 3589 mt 4865 3589 L
 699 3589 mt  699  302 L
1343 3589 mt 1343 3547 L
1343  302 mt 1343  343 L
%%IncludeResource: font Helvetica
/Helvetica /ISOLatin1Encoding 120 FMSR

1243 3734 mt 
(100) s
1993 3589 mt 1993 3547 L
1993  302 mt 1993  343 L
1893 3734 mt 
(200) s
2644 3589 mt 2644 3547 L
2644  302 mt 2644  343 L
2544 3734 mt 
(300) s
3294 3589 mt 3294 3547 L
3294  302 mt 3294  343 L
3194 3734 mt 
(400) s
3945 3589 mt 3945 3547 L
3945  302 mt 3945  343 L
3845 3734 mt 
(500) s
4595 3589 mt 4595 3547 L
4595  302 mt 4595  343 L
4495 3734 mt 
(600) s
 699 3302 mt  740 3302 L
4865 3302 mt 4823 3302 L
 498 3346 mt 
(0.2) s
 699 3008 mt  740 3008 L
4865 3008 mt 4823 3008 L
 498 3052 mt 
(0.4) s
 699 2714 mt  740 2714 L
4865 2714 mt 4823 2714 L
 498 2758 mt 
(0.6) s
 699 2420 mt  740 2420 L
4865 2420 mt 4823 2420 L
 498 2464 mt 
(0.8) s
 699 2126 mt  740 2126 L
4865 2126 mt 4823 2126 L
 598 2170 mt 
(1) s
 699 1832 mt  740 1832 L
4865 1832 mt 4823 1832 L
 498 1876 mt 
(1.2) s
 699 1539 mt  740 1539 L
4865 1539 mt 4823 1539 L
 498 1583 mt 
(1.4) s
 699 1245 mt  740 1245 L
4865 1245 mt 4823 1245 L
 498 1289 mt 
(1.6) s
 699  951 mt  740  951 L
4865  951 mt 4823  951 L
 498  995 mt 
(1.8) s
 699  657 mt  740  657 L
4865  657 mt 4823  657 L
 598  701 mt 
(2) s
 699  363 mt  740  363 L
4865  363 mt 4823  363 L
 498  407 mt 
(2.2) s
 699  248 mt 
(x 10) s
%%IncludeResource: font Helvetica
/Helvetica /ISOLatin1Encoding 80 FMSR

 925  174 mt 
(4) s
 699 3589 mt 4865 3589 L
 699  302 mt 4865  302 L
 699 3589 mt  699  302 L
4865 3589 mt 4865  302 L
gs 699 302 4167 3288 rc
/c8 { 0.000000 0.000000 0.562500 sr} bdef
c8
0 12899 117 0 0 -12899 699 3596 4 MP
PP
 699 3596 mt  699 -9303 L
 699 -9303 mt  816 -9303 L
 816 -9303 mt  816 3596 L
 816 3596 mt  699 3596 L
0 621 117 0 0 -621 816 3596 4 MP
PP
 816 3596 mt  816 2975 L
 816 2975 mt  933 2975 L
 933 2975 mt  933 3596 L
 933 3596 mt  816 3596 L
0 274 117 0 0 -274 933 3596 4 MP
PP
 933 3596 mt  933 3322 L
 933 3322 mt 1050 3322 L
1050 3322 mt 1050 3596 L
1050 3596 mt  933 3596 L
0 172 117 0 0 -172 1050 3596 4 MP
PP
1050 3596 mt 1050 3424 L
1050 3424 mt 1167 3424 L
1167 3424 mt 1167 3596 L
1167 3596 mt 1050 3596 L
0 117 117 0 0 -117 1167 3596 4 MP
PP
1167 3596 mt 1167 3479 L
1167 3479 mt 1284 3479 L
1284 3479 mt 1284 3596 L
1284 3596 mt 1167 3596 L
0 87 117 0 0 -87 1284 3596 4 MP
PP
1284 3596 mt 1284 3509 L
1284 3509 mt 1401 3509 L
1401 3509 mt 1401 3596 L
1401 3596 mt 1284 3596 L
0 59 117 0 0 -59 1401 3596 4 MP
PP
1401 3596 mt 1401 3537 L
1401 3537 mt 1518 3537 L
1518 3537 mt 1518 3596 L
1518 3596 mt 1401 3596 L
0 51 117 0 0 -51 1518 3596 4 MP
PP
1518 3596 mt 1518 3545 L
1518 3545 mt 1635 3545 L
1635 3545 mt 1635 3596 L
1635 3596 mt 1518 3596 L
0 40 117 0 0 -40 1635 3596 4 MP
PP
1635 3596 mt 1635 3556 L
1635 3556 mt 1752 3556 L
1752 3556 mt 1752 3596 L
1752 3596 mt 1635 3596 L
0 33 117 0 0 -33 1752 3596 4 MP
PP
1752 3596 mt 1752 3563 L
1752 3563 mt 1869 3563 L
1869 3563 mt 1869 3596 L
1869 3596 mt 1752 3596 L
0 33 117 0 0 -33 1869 3596 4 MP
PP
1869 3596 mt 1869 3563 L
1869 3563 mt 1986 3563 L
1986 3563 mt 1986 3596 L
1986 3596 mt 1869 3596 L
0 24 117 0 0 -24 1986 3596 4 MP
PP
1986 3596 mt 1986 3572 L
1986 3572 mt 2103 3572 L
2103 3572 mt 2103 3596 L
2103 3596 mt 1986 3596 L
0 23 117 0 0 -23 2103 3596 4 MP
PP
2103 3596 mt 2103 3573 L
2103 3573 mt 2220 3573 L
2220 3573 mt 2220 3596 L
2220 3596 mt 2103 3596 L
0 20 117 0 0 -20 2220 3596 4 MP
PP
2220 3596 mt 2220 3576 L
2220 3576 mt 2337 3576 L
2337 3576 mt 2337 3596 L
2337 3596 mt 2220 3596 L
0 17 118 0 0 -17 2337 3596 4 MP
PP
2337 3596 mt 2337 3579 L
2337 3579 mt 2455 3579 L
2455 3579 mt 2455 3596 L
2455 3596 mt 2337 3596 L
0 16 117 0 0 -16 2455 3596 4 MP
PP
2455 3596 mt 2455 3580 L
2455 3580 mt 2572 3580 L
2572 3580 mt 2572 3596 L
2572 3596 mt 2455 3596 L
0 12 117 0 0 -12 2572 3596 4 MP
PP
2572 3596 mt 2572 3584 L
2572 3584 mt 2689 3584 L
2689 3584 mt 2689 3596 L
2689 3596 mt 2572 3596 L
0 10 117 0 0 -10 2689 3596 4 MP
PP
2689 3596 mt 2689 3586 L
2689 3586 mt 2806 3586 L
2806 3586 mt 2806 3596 L
2806 3596 mt 2689 3596 L
0 14 117 0 0 -14 2806 3596 4 MP
PP
2806 3596 mt 2806 3582 L
2806 3582 mt 2923 3582 L
2923 3582 mt 2923 3596 L
2923 3596 mt 2806 3596 L
0 9 117 0 0 -9 2923 3596 4 MP
PP
2923 3596 mt 2923 3587 L
2923 3587 mt 3040 3587 L
3040 3587 mt 3040 3596 L
3040 3596 mt 2923 3596 L
0 12 117 0 0 -12 3040 3596 4 MP
PP
3040 3596 mt 3040 3584 L
3040 3584 mt 3157 3584 L
3157 3584 mt 3157 3596 L
3157 3596 mt 3040 3596 L
0 7 117 0 0 -7 3157 3596 4 MP
PP
3157 3596 mt 3157 3589 L
3157 3589 mt 3274 3589 L
3274 3589 mt 3274 3596 L
3274 3596 mt 3157 3596 L
0 8 117 0 0 -8 3274 3596 4 MP
PP
3274 3596 mt 3274 3588 L
3274 3588 mt 3391 3588 L
3391 3588 mt 3391 3596 L
3391 3596 mt 3274 3596 L
0 7 117 0 0 -7 3391 3596 4 MP
PP
3391 3596 mt 3391 3589 L
3391 3589 mt 3508 3589 L
3508 3589 mt 3508 3596 L
3508 3596 mt 3391 3596 L
0 6 117 0 0 -6 3508 3596 4 MP
PP
3508 3596 mt 3508 3590 L
3508 3590 mt 3625 3590 L
3625 3590 mt 3625 3596 L
3625 3596 mt 3508 3596 L
0 6 117 0 0 -6 3625 3596 4 MP
PP
3625 3596 mt 3625 3590 L
3625 3590 mt 3742 3590 L
3742 3590 mt 3742 3596 L
3742 3596 mt 3625 3596 L
0 6 117 0 0 -6 3742 3596 4 MP
PP
3742 3596 mt 3742 3590 L
3742 3590 mt 3859 3590 L
3859 3590 mt 3859 3596 L
3859 3596 mt 3742 3596 L
0 7 117 0 0 -7 3859 3596 4 MP
PP
3859 3596 mt 3859 3589 L
3859 3589 mt 3976 3589 L
3976 3589 mt 3976 3596 L
3976 3596 mt 3859 3596 L
0 6 117 0 0 -6 3976 3596 4 MP
PP
3976 3596 mt 3976 3590 L
3976 3590 mt 4093 3590 L
4093 3590 mt 4093 3596 L
4093 3596 mt 3976 3596 L
0 4 117 0 0 -4 4093 3596 4 MP
PP
4093 3596 mt 4093 3592 L
4093 3592 mt 4210 3592 L
4210 3592 mt 4210 3596 L
4210 3596 mt 4093 3596 L
0 6 117 0 0 -6 4210 3596 4 MP
PP
4210 3596 mt 4210 3590 L
4210 3590 mt 4327 3590 L
4327 3590 mt 4327 3596 L
4327 3596 mt 4210 3596 L
0 4 117 0 0 -4 4327 3596 4 MP
PP
4327 3596 mt 4327 3592 L
4327 3592 mt 4444 3592 L
4444 3592 mt 4444 3596 L
4444 3596 mt 4327 3596 L
0 4 117 0 0 -4 4444 3596 4 MP
PP
4444 3596 mt 4444 3592 L
4444 3592 mt 4561 3592 L
4561 3592 mt 4561 3596 L
4561 3596 mt 4444 3596 L
0 4 117 0 0 -4 4561 3596 4 MP
PP
4561 3596 mt 4561 3592 L
4561 3592 mt 4678 3592 L
4678 3592 mt 4678 3596 L
4678 3596 mt 4561 3596 L
0 3 117 0 0 -3 4678 3596 4 MP
PP
4678 3596 mt 4678 3593 L
4678 3593 mt 4795 3593 L
4795 3593 mt 4795 3596 L
4795 3596 mt 4678 3596 L
0 4 117 0 0 -4 4795 3596 4 MP
PP
4795 3596 mt 4795 3592 L
4795 3592 mt 4912 3592 L
4912 3592 mt 4912 3596 L
4912 3596 mt 4795 3596 L
0 3 117 0 0 -3 4912 3596 4 MP
PP
4912 3596 mt 4912 3593 L
4912 3593 mt 5029 3593 L
5029 3593 mt 5029 3596 L
5029 3596 mt 4912 3596 L
0 3 117 0 0 -3 5029 3596 4 MP
PP
5029 3596 mt 5029 3593 L
5029 3593 mt 5146 3593 L
5146 3593 mt 5146 3596 L
5146 3596 mt 5029 3596 L
0 2 117 0 0 -2 5146 3596 4 MP
PP
5146 3596 mt 5146 3594 L
5146 3594 mt 5263 3594 L
5263 3594 mt 5263 3596 L
5263 3596 mt 5146 3596 L
0 2 117 0 0 -2 5263 3596 4 MP
PP
5263 3596 mt 5263 3594 L
5263 3594 mt 5380 3594 L
5380 3594 mt 5380 3596 L
5380 3596 mt 5263 3596 L
0 2 117 0 0 -2 5380 3596 4 MP
PP
5380 3596 mt 5380 3594 L
5380 3594 mt 5497 3594 L
5497 3594 mt 5497 3596 L
5497 3596 mt 5380 3596 L
0 3 117 0 0 -3 5497 3596 4 MP
PP
5497 3596 mt 5497 3593 L
5497 3593 mt 5614 3593 L
5614 3593 mt 5614 3596 L
5614 3596 mt 5497 3596 L
0 3 117 0 0 -3 5614 3596 4 MP
PP
5614 3596 mt 5614 3593 L
5614 3593 mt 5731 3593 L
5731 3593 mt 5731 3596 L
5731 3596 mt 5614 3596 L
0 2 117 0 0 -2 5731 3596 4 MP
PP
5731 3596 mt 5731 3594 L
5731 3594 mt 5848 3594 L
5848 3594 mt 5848 3596 L
5848 3596 mt 5731 3596 L
0 2 117 0 0 -2 5848 3596 4 MP
PP
5848 3596 mt 5848 3594 L
5848 3594 mt 5965 3594 L
5965 3594 mt 5965 3596 L
5965 3596 mt 5848 3596 L
0 3 117 0 0 -3 5965 3596 4 MP
PP
5965 3596 mt 5965 3593 L
5965 3593 mt 6082 3593 L
6082 3593 mt 6082 3596 L
6082 3596 mt 5965 3596 L
0 2 117 0 0 -2 6082 3596 4 MP
PP
6082 3596 mt 6082 3594 L
6082 3594 mt 6199 3594 L
6199 3594 mt 6199 3596 L
6199 3596 mt 6082 3596 L
0 3 117 0 0 -3 6199 3596 4 MP
PP
6199 3596 mt 6199 3593 L
6199 3593 mt 6316 3593 L
6316 3593 mt 6316 3596 L
6316 3596 mt 6199 3596 L
0 3 117 0 0 -3 6316 3596 4 MP
PP
6316 3596 mt 6316 3593 L
6316 3593 mt 6433 3593 L
6433 3593 mt 6433 3596 L
6433 3596 mt 6316 3596 L
0 1 117 0 0 -1 6433 3596 4 MP
PP
6433 3596 mt 6433 3595 L
6433 3595 mt 6550 3595 L
6550 3595 mt 6550 3596 L
6550 3596 mt 6433 3596 L
0 2 117 0 0 -2 6550 3596 4 MP
PP
6550 3596 mt 6550 3594 L
6550 3594 mt 6667 3594 L
6667 3594 mt 6667 3596 L
6667 3596 mt 6550 3596 L
0 2 117 0 0 -2 6667 3596 4 MP
PP
6667 3596 mt 6667 3594 L
6667 3594 mt 6784 3594 L
6784 3594 mt 6784 3596 L
6784 3596 mt 6667 3596 L
0 2 117 0 0 -2 6784 3596 4 MP
PP
6784 3596 mt 6784 3594 L
6784 3594 mt 6901 3594 L
6901 3594 mt 6901 3596 L
6901 3596 mt 6784 3596 L
0 1 117 0 0 -1 6901 3596 4 MP
PP
6901 3596 mt 6901 3595 L
6901 3595 mt 7018 3595 L
7018 3595 mt 7018 3596 L
7018 3596 mt 6901 3596 L
0 2 117 0 0 -2 7018 3596 4 MP
PP
7018 3596 mt 7018 3594 L
7018 3594 mt 7135 3594 L
7135 3594 mt 7135 3596 L
7135 3596 mt 7018 3596 L
0 1 117 0 0 -1 7135 3596 4 MP
PP
7135 3596 mt 7135 3595 L
7135 3595 mt 7252 3595 L
7252 3595 mt 7252 3596 L
7252 3596 mt 7135 3596 L
0 1 117 0 0 -1 7252 3596 4 MP
PP
7252 3596 mt 7252 3595 L
7252 3595 mt 7369 3595 L
7369 3595 mt 7369 3596 L
7369 3596 mt 7252 3596 L
0 2 118 0 0 -2 7369 3596 4 MP
PP
7369 3596 mt 7369 3594 L
7369 3594 mt 7487 3594 L
7487 3594 mt 7487 3596 L
7487 3596 mt 7369 3596 L
0 1 117 0 0 -1 7487 3596 4 MP
PP
7487 3596 mt 7487 3595 L
7487 3595 mt 7604 3595 L
7604 3595 mt 7604 3596 L
7604 3596 mt 7487 3596 L
0 2 117 0 0 -2 7604 3596 4 MP
PP
7604 3596 mt 7604 3594 L
7604 3594 mt 7721 3594 L
7721 3594 mt 7721 3596 L
7721 3596 mt 7604 3596 L
0 1 117 0 0 -1 7721 3596 4 MP
PP
7721 3596 mt 7721 3595 L
7721 3595 mt 7838 3595 L
7838 3595 mt 7838 3596 L
7838 3596 mt 7721 3596 L
0 1 117 0 0 -1 7838 3596 4 MP
PP
7838 3596 mt 7838 3595 L
7838 3595 mt 7955 3595 L
7955 3595 mt 7955 3596 L
7955 3596 mt 7838 3596 L
0 1 117 0 0 -1 7955 3596 4 MP
PP
7955 3596 mt 7955 3595 L
7955 3595 mt 8072 3595 L
8072 3595 mt 8072 3596 L
8072 3596 mt 7955 3596 L
0 1 117 0 0 -1 8072 3596 4 MP
PP
8072 3596 mt 8072 3595 L
8072 3595 mt 8189 3595 L
8189 3595 mt 8189 3596 L
8189 3596 mt 8072 3596 L
0 0 117 0 0 0 8189 3596 4 MP
PP
8189 3596 mt 8189 3596 L
8189 3596 mt 8306 3596 L
8306 3596 mt 8306 3596 L
8306 3596 mt 8189 3596 L
0 1 117 0 0 -1 8306 3596 4 MP
PP
8306 3596 mt 8306 3595 L
8306 3595 mt 8423 3595 L
8423 3595 mt 8423 3596 L
8423 3596 mt 8306 3596 L
0 1 117 0 0 -1 8423 3596 4 MP
PP
8423 3596 mt 8423 3595 L
8423 3595 mt 8540 3595 L
8540 3595 mt 8540 3596 L
8540 3596 mt 8423 3596 L
0 1 117 0 0 -1 8540 3596 4 MP
PP
8540 3596 mt 8540 3595 L
8540 3595 mt 8657 3595 L
8657 3595 mt 8657 3596 L
8657 3596 mt 8540 3596 L
0 1 117 0 0 -1 8657 3596 4 MP
PP
8657 3596 mt 8657 3595 L
8657 3595 mt 8774 3595 L
8774 3595 mt 8774 3596 L
8774 3596 mt 8657 3596 L
0 1 117 0 0 -1 8774 3596 4 MP
PP
8774 3596 mt 8774 3595 L
8774 3595 mt 8891 3595 L
8891 3595 mt 8891 3596 L
8891 3596 mt 8774 3596 L
0 1 117 0 0 -1 8891 3596 4 MP
PP
8891 3596 mt 8891 3595 L
8891 3595 mt 9008 3595 L
9008 3595 mt 9008 3596 L
9008 3596 mt 8891 3596 L
0 1 117 0 0 -1 9008 3596 4 MP
PP
9008 3596 mt 9008 3595 L
9008 3595 mt 9125 3595 L
9125 3595 mt 9125 3596 L
9125 3596 mt 9008 3596 L
0 1 117 0 0 -1 9125 3596 4 MP
PP
9125 3596 mt 9125 3595 L
9125 3595 mt 9242 3595 L
9242 3595 mt 9242 3596 L
9242 3596 mt 9125 3596 L
0 1 117 0 0 -1 9242 3596 4 MP
PP
9242 3596 mt 9242 3595 L
9242 3595 mt 9359 3595 L
9359 3595 mt 9359 3596 L
9359 3596 mt 9242 3596 L
0 0 117 0 0 0 9359 3596 4 MP
PP
9359 3596 mt 9359 3596 L
9359 3596 mt 9476 3596 L
9476 3596 mt 9476 3596 L
9476 3596 mt 9359 3596 L
0 0 117 0 0 0 9476 3596 4 MP
PP
9476 3596 mt 9476 3596 L
9476 3596 mt 9593 3596 L
9593 3596 mt 9593 3596 L
9593 3596 mt 9476 3596 L
0 0 117 0 0 0 9593 3596 4 MP
PP
9593 3596 mt 9593 3596 L
9593 3596 mt 9710 3596 L
9710 3596 mt 9710 3596 L
9710 3596 mt 9593 3596 L
0 1 117 0 0 -1 9710 3596 4 MP
PP
9710 3596 mt 9710 3595 L
9710 3595 mt 9827 3595 L
9827 3595 mt 9827 3596 L
9827 3596 mt 9710 3596 L
0 1 117 0 0 -1 9827 3596 4 MP
PP
9827 3596 mt 9827 3595 L
9827 3595 mt 9944 3595 L
9944 3595 mt 9944 3596 L
9944 3596 mt 9827 3596 L
0 1 117 0 0 -1 9944 3596 4 MP
PP
9944 3596 mt 9944 3595 L
9944 3595 mt 10061 3595 L
10061 3595 mt 10061 3596 L
10061 3596 mt 9944 3596 L
0 0 117 0 0 0 10061 3596 4 MP
PP
10061 3596 mt 10061 3596 L
10061 3596 mt 10178 3596 L
10178 3596 mt 10178 3596 L
10178 3596 mt 10061 3596 L
0 0 117 0 0 0 10178 3596 4 MP
PP
10178 3596 mt 10178 3596 L
10178 3596 mt 10295 3596 L
10295 3596 mt 10295 3596 L
10295 3596 mt 10178 3596 L
0 1 117 0 0 -1 10295 3596 4 MP
PP
10295 3596 mt 10295 3595 L
10295 3595 mt 10412 3595 L
10412 3595 mt 10412 3596 L
10412 3596 mt 10295 3596 L
0 1 117 0 0 -1 10412 3596 4 MP
PP
10412 3596 mt 10412 3595 L
10412 3595 mt 10529 3595 L
10529 3595 mt 10529 3596 L
10529 3596 mt 10412 3596 L
0 1 117 0 0 -1 10529 3596 4 MP
PP
10529 3596 mt 10529 3595 L
10529 3595 mt 10646 3595 L
10646 3595 mt 10646 3596 L
10646 3596 mt 10529 3596 L
0 1 117 0 0 -1 10646 3596 4 MP
PP
10646 3596 mt 10646 3595 L
10646 3595 mt 10763 3595 L
10763 3595 mt 10763 3596 L
10763 3596 mt 10646 3596 L
0 0 117 0 0 0 10763 3596 4 MP
PP
10763 3596 mt 10763 3596 L
10763 3596 mt 10880 3596 L
10880 3596 mt 10880 3596 L
10880 3596 mt 10763 3596 L
0 1 117 0 0 -1 10880 3596 4 MP
PP
10880 3596 mt 10880 3595 L
10880 3595 mt 10997 3595 L
10997 3595 mt 10997 3596 L
10997 3596 mt 10880 3596 L
0 1 117 0 0 -1 10997 3596 4 MP
PP
10997 3596 mt 10997 3595 L
10997 3595 mt 11114 3595 L
11114 3595 mt 11114 3596 L
11114 3596 mt 10997 3596 L
0 0 117 0 0 0 11114 3596 4 MP
PP
11114 3596 mt 11114 3596 L
11114 3596 mt 11231 3596 L
11231 3596 mt 11231 3596 L
11231 3596 mt 11114 3596 L
0 0 117 0 0 0 11231 3596 4 MP
PP
11231 3596 mt 11231 3596 L
11231 3596 mt 11348 3596 L
11348 3596 mt 11348 3596 L
11348 3596 mt 11231 3596 L
0 0 117 0 0 0 11348 3596 4 MP
PP
11348 3596 mt 11348 3596 L
11348 3596 mt 11465 3596 L
11465 3596 mt 11465 3596 L
11465 3596 mt 11348 3596 L
0 0 117 0 0 0 11465 3596 4 MP
PP
11465 3596 mt 11465 3596 L
11465 3596 mt 11582 3596 L
11582 3596 mt 11582 3596 L
11582 3596 mt 11465 3596 L
0 0 117 0 0 0 11582 3596 4 MP
PP
11582 3596 mt 11582 3596 L
11582 3596 mt 11699 3596 L
11699 3596 mt 11699 3596 L
11699 3596 mt 11582 3596 L
0 1 117 0 0 -1 11699 3596 4 MP
PP
11699 3596 mt 11699 3595 L
11699 3595 mt 11816 3595 L
11816 3595 mt 11816 3596 L
11816 3596 mt 11699 3596 L
0 1 117 0 0 -1 11816 3596 4 MP
PP
11816 3596 mt 11816 3595 L
11816 3595 mt 11933 3595 L
11933 3595 mt 11933 3596 L
11933 3596 mt 11816 3596 L
0 0 117 0 0 0 11933 3596 4 MP
PP
11933 3596 mt 11933 3596 L
11933 3596 mt 12050 3596 L
12050 3596 mt 12050 3596 L
12050 3596 mt 11933 3596 L
0 0 117 0 0 0 12050 3596 4 MP
PP
12050 3596 mt 12050 3596 L
12050 3596 mt 12167 3596 L
12167 3596 mt 12167 3596 L
12167 3596 mt 12050 3596 L
0 0 117 0 0 0 12167 3596 4 MP
PP
12167 3596 mt 12167 3596 L
12167 3596 mt 12284 3596 L
12284 3596 mt 12284 3596 L
12284 3596 mt 12167 3596 L
0 0 117 0 0 0 12284 3596 4 MP
PP
12284 3596 mt 12284 3596 L
12284 3596 mt 12401 3596 L
12401 3596 mt 12401 3596 L
12401 3596 mt 12284 3596 L
0 1 117 0 0 -1 12401 3596 4 MP
PP
12401 3596 mt 12401 3595 L
12401 3595 mt 12518 3595 L
12518 3595 mt 12518 3596 L
12518 3596 mt 12401 3596 L
0 0 118 0 0 0 12518 3596 4 MP
PP
12518 3596 mt 12518 3596 L
12518 3596 mt 12636 3596 L
12636 3596 mt 12636 3596 L
12636 3596 mt 12518 3596 L
0 1 117 0 0 -1 12636 3596 4 MP
PP
12636 3596 mt 12636 3595 L
12636 3595 mt 12753 3595 L
12753 3595 mt 12753 3596 L
12753 3596 mt 12636 3596 L
0 0 117 0 0 0 12753 3596 4 MP
PP
12753 3596 mt 12753 3596 L
12753 3596 mt 12870 3596 L
12870 3596 mt 12870 3596 L
12870 3596 mt 12753 3596 L
0 1 117 0 0 -1 12870 3596 4 MP
PP
12870 3596 mt 12870 3595 L
12870 3595 mt 12987 3595 L
12987 3595 mt 12987 3596 L
12987 3596 mt 12870 3596 L
0 0 117 0 0 0 12987 3596 4 MP
PP
12987 3596 mt 12987 3596 L
12987 3596 mt 13104 3596 L
13104 3596 mt 13104 3596 L
13104 3596 mt 12987 3596 L
0 0 117 0 0 0 13104 3596 4 MP
PP
13104 3596 mt 13104 3596 L
13104 3596 mt 13221 3596 L
13221 3596 mt 13221 3596 L
13221 3596 mt 13104 3596 L
0 0 117 0 0 0 13221 3596 4 MP
PP
13221 3596 mt 13221 3596 L
13221 3596 mt 13338 3596 L
13338 3596 mt 13338 3596 L
13338 3596 mt 13221 3596 L
0 1 117 0 0 -1 13338 3596 4 MP
PP
13338 3596 mt 13338 3595 L
13338 3595 mt 13455 3595 L
13455 3595 mt 13455 3596 L
13455 3596 mt 13338 3596 L
0 1 117 0 0 -1 13455 3596 4 MP
PP
13455 3596 mt 13455 3595 L
13455 3595 mt 13572 3595 L
13572 3595 mt 13572 3596 L
13572 3596 mt 13455 3596 L
0 0 117 0 0 0 13572 3596 4 MP
PP
13572 3596 mt 13572 3596 L
13572 3596 mt 13689 3596 L
13689 3596 mt 13689 3596 L
13689 3596 mt 13572 3596 L
0 0 117 0 0 0 13689 3596 4 MP
PP
13689 3596 mt 13689 3596 L
13689 3596 mt 13806 3596 L
13806 3596 mt 13806 3596 L
13806 3596 mt 13689 3596 L
0 0 117 0 0 0 13806 3596 4 MP
PP
13806 3596 mt 13806 3596 L
13806 3596 mt 13923 3596 L
13923 3596 mt 13923 3596 L
13923 3596 mt 13806 3596 L
0 0 117 0 0 0 13923 3596 4 MP
PP
13923 3596 mt 13923 3596 L
13923 3596 mt 14040 3596 L
14040 3596 mt 14040 3596 L
14040 3596 mt 13923 3596 L
0 0 117 0 0 0 14040 3596 4 MP
PP
14040 3596 mt 14040 3596 L
14040 3596 mt 14157 3596 L
14157 3596 mt 14157 3596 L
14157 3596 mt 14040 3596 L
0 0 117 0 0 0 14157 3596 4 MP
PP
14157 3596 mt 14157 3596 L
14157 3596 mt 14274 3596 L
14274 3596 mt 14274 3596 L
14274 3596 mt 14157 3596 L
0 0 117 0 0 0 14274 3596 4 MP
PP
14274 3596 mt 14274 3596 L
14274 3596 mt 14391 3596 L
14391 3596 mt 14391 3596 L
14391 3596 mt 14274 3596 L
0 0 117 0 0 0 14391 3596 4 MP
PP
14391 3596 mt 14391 3596 L
14391 3596 mt 14508 3596 L
14508 3596 mt 14508 3596 L
14508 3596 mt 14391 3596 L
0 0 117 0 0 0 14508 3596 4 MP
PP
14508 3596 mt 14508 3596 L
14508 3596 mt 14625 3596 L
14625 3596 mt 14625 3596 L
14625 3596 mt 14508 3596 L
0 0 117 0 0 0 14625 3596 4 MP
PP
14625 3596 mt 14625 3596 L
14625 3596 mt 14742 3596 L
14742 3596 mt 14742 3596 L
14742 3596 mt 14625 3596 L
0 0 117 0 0 0 14742 3596 4 MP
PP
14742 3596 mt 14742 3596 L
14742 3596 mt 14859 3596 L
14859 3596 mt 14859 3596 L
14859 3596 mt 14742 3596 L
0 1 117 0 0 -1 14859 3596 4 MP
PP
14859 3596 mt 14859 3595 L
14859 3595 mt 14976 3595 L
14976 3595 mt 14976 3596 L
14976 3596 mt 14859 3596 L
0 1 117 0 0 -1 14976 3596 4 MP
PP
14976 3596 mt 14976 3595 L
14976 3595 mt 15093 3595 L
15093 3595 mt 15093 3596 L
15093 3596 mt 14976 3596 L
0 0 117 0 0 0 15093 3596 4 MP
PP
15093 3596 mt 15093 3596 L
15093 3596 mt 15210 3596 L
15210 3596 mt 15210 3596 L
15210 3596 mt 15093 3596 L
0 0 117 0 0 0 15210 3596 4 MP
PP
15210 3596 mt 15210 3596 L
15210 3596 mt 15327 3596 L
15327 3596 mt 15327 3596 L
15327 3596 mt 15210 3596 L
0 0 117 0 0 0 15327 3596 4 MP
PP
15327 3596 mt 15327 3596 L
15327 3596 mt 15444 3596 L
15444 3596 mt 15444 3596 L
15444 3596 mt 15327 3596 L
0 0 117 0 0 0 15444 3596 4 MP
PP
15444 3596 mt 15444 3596 L
15444 3596 mt 15561 3596 L
15561 3596 mt 15561 3596 L
15561 3596 mt 15444 3596 L
0 0 117 0 0 0 15561 3596 4 MP
PP
15561 3596 mt 15561 3596 L
15561 3596 mt 15678 3596 L
15678 3596 mt 15678 3596 L
15678 3596 mt 15561 3596 L
0 0 117 0 0 0 15678 3596 4 MP
PP
15678 3596 mt 15678 3596 L
15678 3596 mt 15795 3596 L
15795 3596 mt 15795 3596 L
15795 3596 mt 15678 3596 L
0 0 117 0 0 0 15795 3596 4 MP
PP
15795 3596 mt 15795 3596 L
15795 3596 mt 15912 3596 L
15912 3596 mt 15912 3596 L
15912 3596 mt 15795 3596 L
0 0 117 0 0 0 15912 3596 4 MP
PP
15912 3596 mt 15912 3596 L
15912 3596 mt 16029 3596 L
16029 3596 mt 16029 3596 L
16029 3596 mt 15912 3596 L
0 0 117 0 0 0 16029 3596 4 MP
PP
16029 3596 mt 16029 3596 L
16029 3596 mt 16146 3596 L
16146 3596 mt 16146 3596 L
16146 3596 mt 16029 3596 L
0 0 117 0 0 0 16146 3596 4 MP
PP
16146 3596 mt 16146 3596 L
16146 3596 mt 16263 3596 L
16263 3596 mt 16263 3596 L
16263 3596 mt 16146 3596 L
0 0 117 0 0 0 16263 3596 4 MP
PP
16263 3596 mt 16263 3596 L
16263 3596 mt 16380 3596 L
16380 3596 mt 16380 3596 L
16380 3596 mt 16263 3596 L
0 0 117 0 0 0 16380 3596 4 MP
PP
16380 3596 mt 16380 3596 L
16380 3596 mt 16497 3596 L
16497 3596 mt 16497 3596 L
16497 3596 mt 16380 3596 L
0 0 117 0 0 0 16497 3596 4 MP
PP
16497 3596 mt 16497 3596 L
16497 3596 mt 16614 3596 L
16614 3596 mt 16614 3596 L
16614 3596 mt 16497 3596 L
0 0 117 0 0 0 16614 3596 4 MP
PP
16614 3596 mt 16614 3596 L
16614 3596 mt 16731 3596 L
16731 3596 mt 16731 3596 L
16731 3596 mt 16614 3596 L
0 0 117 0 0 0 16731 3596 4 MP
PP
16731 3596 mt 16731 3596 L
16731 3596 mt 16848 3596 L
16848 3596 mt 16848 3596 L
16848 3596 mt 16731 3596 L
0 0 117 0 0 0 16848 3596 4 MP
PP
16848 3596 mt 16848 3596 L
16848 3596 mt 16965 3596 L
16965 3596 mt 16965 3596 L
16965 3596 mt 16848 3596 L
0 0 117 0 0 0 16965 3596 4 MP
PP
16965 3596 mt 16965 3596 L
16965 3596 mt 17082 3596 L
17082 3596 mt 17082 3596 L
17082 3596 mt 16965 3596 L
0 0 117 0 0 0 17082 3596 4 MP
PP
17082 3596 mt 17082 3596 L
17082 3596 mt 17199 3596 L
17199 3596 mt 17199 3596 L
17199 3596 mt 17082 3596 L
0 0 117 0 0 0 17199 3596 4 MP
PP
17199 3596 mt 17199 3596 L
17199 3596 mt 17316 3596 L
17316 3596 mt 17316 3596 L
17316 3596 mt 17199 3596 L
0 1 117 0 0 -1 17316 3596 4 MP
PP
17316 3596 mt 17316 3595 L
17316 3595 mt 17433 3595 L
17433 3595 mt 17433 3596 L
17433 3596 mt 17316 3596 L
0 0 117 0 0 0 17433 3596 4 MP
PP
17433 3596 mt 17433 3596 L
17433 3596 mt 17550 3596 L
17550 3596 mt 17550 3596 L
17550 3596 mt 17433 3596 L
0 0 118 0 0 0 17550 3596 4 MP
PP
17550 3596 mt 17550 3596 L
17550 3596 mt 17668 3596 L
17668 3596 mt 17668 3596 L
17668 3596 mt 17550 3596 L
0 0 117 0 0 0 17668 3596 4 MP
PP
17668 3596 mt 17668 3596 L
17668 3596 mt 17785 3596 L
17785 3596 mt 17785 3596 L
17785 3596 mt 17668 3596 L
0 0 117 0 0 0 17785 3596 4 MP
PP
17785 3596 mt 17785 3596 L
17785 3596 mt 17902 3596 L
17902 3596 mt 17902 3596 L
17902 3596 mt 17785 3596 L
0 0 117 0 0 0 17902 3596 4 MP
PP
17902 3596 mt 17902 3596 L
17902 3596 mt 18019 3596 L
18019 3596 mt 18019 3596 L
18019 3596 mt 17902 3596 L
0 0 117 0 0 0 18019 3596 4 MP
PP
18019 3596 mt 18019 3596 L
18019 3596 mt 18136 3596 L
18136 3596 mt 18136 3596 L
18136 3596 mt 18019 3596 L
0 0 117 0 0 0 18136 3596 4 MP
PP
18136 3596 mt 18136 3596 L
18136 3596 mt 18253 3596 L
18253 3596 mt 18253 3596 L
18253 3596 mt 18136 3596 L
0 0 117 0 0 0 18253 3596 4 MP
PP
18253 3596 mt 18253 3596 L
18253 3596 mt 18370 3596 L
18370 3596 mt 18370 3596 L
18370 3596 mt 18253 3596 L
0 0 117 0 0 0 18370 3596 4 MP
PP
18370 3596 mt 18370 3596 L
18370 3596 mt 18487 3596 L
18487 3596 mt 18487 3596 L
18487 3596 mt 18370 3596 L
0 0 117 0 0 0 18487 3596 4 MP
PP
18487 3596 mt 18487 3596 L
18487 3596 mt 18604 3596 L
18604 3596 mt 18604 3596 L
18604 3596 mt 18487 3596 L
0 0 117 0 0 0 18604 3596 4 MP
PP
18604 3596 mt 18604 3596 L
18604 3596 mt 18721 3596 L
18721 3596 mt 18721 3596 L
18721 3596 mt 18604 3596 L
0 0 117 0 0 0 18721 3596 4 MP
PP
18721 3596 mt 18721 3596 L
18721 3596 mt 18838 3596 L
18838 3596 mt 18838 3596 L
18838 3596 mt 18721 3596 L
0 0 117 0 0 0 18838 3596 4 MP
PP
18838 3596 mt 18838 3596 L
18838 3596 mt 18955 3596 L
18955 3596 mt 18955 3596 L
18955 3596 mt 18838 3596 L
0 0 117 0 0 0 18955 3596 4 MP
PP
18955 3596 mt 18955 3596 L
18955 3596 mt 19072 3596 L
19072 3596 mt 19072 3596 L
19072 3596 mt 18955 3596 L
0 0 117 0 0 0 19072 3596 4 MP
PP
19072 3596 mt 19072 3596 L
19072 3596 mt 19189 3596 L
19189 3596 mt 19189 3596 L
19189 3596 mt 19072 3596 L
0 0 117 0 0 0 19189 3596 4 MP
PP
19189 3596 mt 19189 3596 L
19189 3596 mt 19306 3596 L
19306 3596 mt 19306 3596 L
19306 3596 mt 19189 3596 L
0 0 117 0 0 0 19306 3596 4 MP
PP
19306 3596 mt 19306 3596 L
19306 3596 mt 19423 3596 L
19423 3596 mt 19423 3596 L
19423 3596 mt 19306 3596 L
0 0 117 0 0 0 19423 3596 4 MP
PP
19423 3596 mt 19423 3596 L
19423 3596 mt 19540 3596 L
19540 3596 mt 19540 3596 L
19540 3596 mt 19423 3596 L
0 0 117 0 0 0 19540 3596 4 MP
PP
19540 3596 mt 19540 3596 L
19540 3596 mt 19657 3596 L
19657 3596 mt 19657 3596 L
19657 3596 mt 19540 3596 L
0 0 117 0 0 0 19657 3596 4 MP
PP
19657 3596 mt 19657 3596 L
19657 3596 mt 19774 3596 L
19774 3596 mt 19774 3596 L
19774 3596 mt 19657 3596 L
0 0 117 0 0 0 19774 3596 4 MP
PP
19774 3596 mt 19774 3596 L
19774 3596 mt 19891 3596 L
19891 3596 mt 19891 3596 L
19891 3596 mt 19774 3596 L
0 0 117 0 0 0 19891 3596 4 MP
PP
19891 3596 mt 19891 3596 L
19891 3596 mt 20008 3596 L
20008 3596 mt 20008 3596 L
20008 3596 mt 19891 3596 L
0 0 117 0 0 0 20008 3596 4 MP
PP
20008 3596 mt 20008 3596 L
20008 3596 mt 20125 3596 L
20125 3596 mt 20125 3596 L
20125 3596 mt 20008 3596 L
0 0 117 0 0 0 20125 3596 4 MP
PP
20125 3596 mt 20125 3596 L
20125 3596 mt 20242 3596 L
20242 3596 mt 20242 3596 L
20242 3596 mt 20125 3596 L
0 0 117 0 0 0 20242 3596 4 MP
PP
20242 3596 mt 20242 3596 L
20242 3596 mt 20359 3596 L
20359 3596 mt 20359 3596 L
20359 3596 mt 20242 3596 L
0 0 117 0 0 0 20359 3596 4 MP
PP
20359 3596 mt 20359 3596 L
20359 3596 mt 20476 3596 L
20476 3596 mt 20476 3596 L
20476 3596 mt 20359 3596 L
0 0 117 0 0 0 20476 3596 4 MP
PP
20476 3596 mt 20476 3596 L
20476 3596 mt 20593 3596 L
20593 3596 mt 20593 3596 L
20593 3596 mt 20476 3596 L
0 0 117 0 0 0 20593 3596 4 MP
PP
20593 3596 mt 20593 3596 L
20593 3596 mt 20710 3596 L
20710 3596 mt 20710 3596 L
20710 3596 mt 20593 3596 L
0 0 117 0 0 0 20710 3596 4 MP
PP
20710 3596 mt 20710 3596 L
20710 3596 mt 20827 3596 L
20827 3596 mt 20827 3596 L
20827 3596 mt 20710 3596 L
0 0 117 0 0 0 20827 3596 4 MP
PP
20827 3596 mt 20827 3596 L
20827 3596 mt 20944 3596 L
20944 3596 mt 20944 3596 L
20944 3596 mt 20827 3596 L
0 0 117 0 0 0 20944 3596 4 MP
PP
20944 3596 mt 20944 3596 L
20944 3596 mt 21061 3596 L
21061 3596 mt 21061 3596 L
21061 3596 mt 20944 3596 L
0 0 117 0 0 0 21061 3596 4 MP
PP
21061 3596 mt 21061 3596 L
21061 3596 mt 21178 3596 L
21178 3596 mt 21178 3596 L
21178 3596 mt 21061 3596 L
0 0 117 0 0 0 21178 3596 4 MP
PP
21178 3596 mt 21178 3596 L
21178 3596 mt 21295 3596 L
21295 3596 mt 21295 3596 L
21295 3596 mt 21178 3596 L
0 0 117 0 0 0 21295 3596 4 MP
PP
21295 3596 mt 21295 3596 L
21295 3596 mt 21412 3596 L
21412 3596 mt 21412 3596 L
21412 3596 mt 21295 3596 L
0 0 117 0 0 0 21412 3596 4 MP
PP
21412 3596 mt 21412 3596 L
21412 3596 mt 21529 3596 L
21529 3596 mt 21529 3596 L
21529 3596 mt 21412 3596 L
0 0 117 0 0 0 21529 3596 4 MP
PP
21529 3596 mt 21529 3596 L
21529 3596 mt 21646 3596 L
21646 3596 mt 21646 3596 L
21646 3596 mt 21529 3596 L
0 0 117 0 0 0 21646 3596 4 MP
PP
21646 3596 mt 21646 3596 L
21646 3596 mt 21763 3596 L
21763 3596 mt 21763 3596 L
21763 3596 mt 21646 3596 L
0 0 117 0 0 0 21763 3596 4 MP
PP
21763 3596 mt 21763 3596 L
21763 3596 mt 21880 3596 L
21880 3596 mt 21880 3596 L
21880 3596 mt 21763 3596 L
0 0 117 0 0 0 21880 3596 4 MP
PP
21880 3596 mt 21880 3596 L
21880 3596 mt 21997 3596 L
21997 3596 mt 21997 3596 L
21997 3596 mt 21880 3596 L
0 0 117 0 0 0 21997 3596 4 MP
PP
21997 3596 mt 21997 3596 L
21997 3596 mt 22114 3596 L
22114 3596 mt 22114 3596 L
22114 3596 mt 21997 3596 L
0 0 117 0 0 0 22114 3596 4 MP
PP
22114 3596 mt 22114 3596 L
22114 3596 mt 22231 3596 L
22231 3596 mt 22231 3596 L
22231 3596 mt 22114 3596 L
0 0 117 0 0 0 22231 3596 4 MP
PP
22231 3596 mt 22231 3596 L
22231 3596 mt 22348 3596 L
22348 3596 mt 22348 3596 L
22348 3596 mt 22231 3596 L
0 0 117 0 0 0 22348 3596 4 MP
PP
22348 3596 mt 22348 3596 L
22348 3596 mt 22465 3596 L
22465 3596 mt 22465 3596 L
22465 3596 mt 22348 3596 L
0 0 117 0 0 0 22465 3596 4 MP
PP
22465 3596 mt 22465 3596 L
22465 3596 mt 22582 3596 L
22582 3596 mt 22582 3596 L
22582 3596 mt 22465 3596 L
0 0 117 0 0 0 22582 3596 4 MP
PP
22582 3596 mt 22582 3596 L
22582 3596 mt 22699 3596 L
22699 3596 mt 22699 3596 L
22699 3596 mt 22582 3596 L
0 0 118 0 0 0 22699 3596 4 MP
PP
22699 3596 mt 22699 3596 L
22699 3596 mt 22817 3596 L
22817 3596 mt 22817 3596 L
22817 3596 mt 22699 3596 L
0 0 117 0 0 0 22817 3596 4 MP
PP
22817 3596 mt 22817 3596 L
22817 3596 mt 22934 3596 L
22934 3596 mt 22934 3596 L
22934 3596 mt 22817 3596 L
0 0 117 0 0 0 22934 3596 4 MP
PP
22934 3596 mt 22934 3596 L
22934 3596 mt 23051 3596 L
23051 3596 mt 23051 3596 L
23051 3596 mt 22934 3596 L
0 0 117 0 0 0 23051 3596 4 MP
PP
23051 3596 mt 23051 3596 L
23051 3596 mt 23168 3596 L
23168 3596 mt 23168 3596 L
23168 3596 mt 23051 3596 L
0 0 117 0 0 0 23168 3596 4 MP
PP
23168 3596 mt 23168 3596 L
23168 3596 mt 23285 3596 L
23285 3596 mt 23285 3596 L
23285 3596 mt 23168 3596 L
0 0 117 0 0 0 23285 3596 4 MP
PP
23285 3596 mt 23285 3596 L
23285 3596 mt 23402 3596 L
23402 3596 mt 23402 3596 L
23402 3596 mt 23285 3596 L
0 0 117 0 0 0 23402 3596 4 MP
PP
23402 3596 mt 23402 3596 L
23402 3596 mt 23519 3596 L
23519 3596 mt 23519 3596 L
23519 3596 mt 23402 3596 L
0 0 117 0 0 0 23519 3596 4 MP
PP
23519 3596 mt 23519 3596 L
23519 3596 mt 23636 3596 L
23636 3596 mt 23636 3596 L
23636 3596 mt 23519 3596 L
0 0 117 0 0 0 23636 3596 4 MP
PP
23636 3596 mt 23636 3596 L
23636 3596 mt 23753 3596 L
23753 3596 mt 23753 3596 L
23753 3596 mt 23636 3596 L
0 0 117 0 0 0 23753 3596 4 MP
PP
23753 3596 mt 23753 3596 L
23753 3596 mt 23870 3596 L
23870 3596 mt 23870 3596 L
23870 3596 mt 23753 3596 L
0 0 117 0 0 0 23870 3596 4 MP
PP
23870 3596 mt 23870 3596 L
23870 3596 mt 23987 3596 L
23987 3596 mt 23987 3596 L
23987 3596 mt 23870 3596 L
0 0 117 0 0 0 23987 3596 4 MP
PP
23987 3596 mt 23987 3596 L
23987 3596 mt 24104 3596 L
24104 3596 mt 24104 3596 L
24104 3596 mt 23987 3596 L
0 0 117 0 0 0 24104 3596 4 MP
PP
24104 3596 mt 24104 3596 L
24104 3596 mt 24221 3596 L
24221 3596 mt 24221 3596 L
24221 3596 mt 24104 3596 L
0 0 117 0 0 0 24221 3596 4 MP
PP
24221 3596 mt 24221 3596 L
24221 3596 mt 24338 3596 L
24338 3596 mt 24338 3596 L
24338 3596 mt 24221 3596 L
0 0 117 0 0 0 24338 3596 4 MP
PP
24338 3596 mt 24338 3596 L
24338 3596 mt 24455 3596 L
24455 3596 mt 24455 3596 L
24455 3596 mt 24338 3596 L
0 0 117 0 0 0 24455 3596 4 MP
PP
24455 3596 mt 24455 3596 L
24455 3596 mt 24572 3596 L
24572 3596 mt 24572 3596 L
24572 3596 mt 24455 3596 L
0 0 117 0 0 0 24572 3596 4 MP
PP
24572 3596 mt 24572 3596 L
24572 3596 mt 24689 3596 L
24689 3596 mt 24689 3596 L
24689 3596 mt 24572 3596 L
0 0 117 0 0 0 24689 3596 4 MP
PP
24689 3596 mt 24689 3596 L
24689 3596 mt 24806 3596 L
24806 3596 mt 24806 3596 L
24806 3596 mt 24689 3596 L
0 0 117 0 0 0 24806 3596 4 MP
PP
24806 3596 mt 24806 3596 L
24806 3596 mt 24923 3596 L
24923 3596 mt 24923 3596 L
24923 3596 mt 24806 3596 L
0 0 117 0 0 0 24923 3596 4 MP
PP
24923 3596 mt 24923 3596 L
24923 3596 mt 25040 3596 L
25040 3596 mt 25040 3596 L
25040 3596 mt 24923 3596 L
0 0 117 0 0 0 25040 3596 4 MP
PP
25040 3596 mt 25040 3596 L
25040 3596 mt 25157 3596 L
25157 3596 mt 25157 3596 L
25157 3596 mt 25040 3596 L
0 0 117 0 0 0 25157 3596 4 MP
PP
25157 3596 mt 25157 3596 L
25157 3596 mt 25274 3596 L
25274 3596 mt 25274 3596 L
25274 3596 mt 25157 3596 L
0 0 117 0 0 0 25274 3596 4 MP
PP
25274 3596 mt 25274 3596 L
25274 3596 mt 25391 3596 L
25391 3596 mt 25391 3596 L
25391 3596 mt 25274 3596 L
0 0 117 0 0 0 25391 3596 4 MP
PP
25391 3596 mt 25391 3596 L
25391 3596 mt 25508 3596 L
25508 3596 mt 25508 3596 L
25508 3596 mt 25391 3596 L
0 0 117 0 0 0 25508 3596 4 MP
PP
25508 3596 mt 25508 3596 L
25508 3596 mt 25625 3596 L
25625 3596 mt 25625 3596 L
25625 3596 mt 25508 3596 L
0 0 117 0 0 0 25625 3596 4 MP
PP
25625 3596 mt 25625 3596 L
25625 3596 mt 25742 3596 L
25742 3596 mt 25742 3596 L
25742 3596 mt 25625 3596 L
0 0 117 0 0 0 25742 3596 4 MP
PP
25742 3596 mt 25742 3596 L
25742 3596 mt 25859 3596 L
25859 3596 mt 25859 3596 L
25859 3596 mt 25742 3596 L
0 0 117 0 0 0 25859 3596 4 MP
PP
25859 3596 mt 25859 3596 L
25859 3596 mt 25976 3596 L
25976 3596 mt 25976 3596 L
25976 3596 mt 25859 3596 L
0 0 117 0 0 0 25976 3596 4 MP
PP
25976 3596 mt 25976 3596 L
25976 3596 mt 26093 3596 L
26093 3596 mt 26093 3596 L
26093 3596 mt 25976 3596 L
0 0 117 0 0 0 26093 3596 4 MP
PP
26093 3596 mt 26093 3596 L
26093 3596 mt 26210 3596 L
26210 3596 mt 26210 3596 L
26210 3596 mt 26093 3596 L
0 0 117 0 0 0 26210 3596 4 MP
PP
26210 3596 mt 26210 3596 L
26210 3596 mt 26327 3596 L
26327 3596 mt 26327 3596 L
26327 3596 mt 26210 3596 L
0 0 117 0 0 0 26327 3596 4 MP
PP
26327 3596 mt 26327 3596 L
26327 3596 mt 26444 3596 L
26444 3596 mt 26444 3596 L
26444 3596 mt 26327 3596 L
0 0 117 0 0 0 26444 3596 4 MP
PP
26444 3596 mt 26444 3596 L
26444 3596 mt 26561 3596 L
26561 3596 mt 26561 3596 L
26561 3596 mt 26444 3596 L
0 0 117 0 0 0 26561 3596 4 MP
PP
26561 3596 mt 26561 3596 L
26561 3596 mt 26678 3596 L
26678 3596 mt 26678 3596 L
26678 3596 mt 26561 3596 L
0 0 117 0 0 0 26678 3596 4 MP
PP
26678 3596 mt 26678 3596 L
26678 3596 mt 26795 3596 L
26795 3596 mt 26795 3596 L
26795 3596 mt 26678 3596 L
0 0 117 0 0 0 26795 3596 4 MP
PP
26795 3596 mt 26795 3596 L
26795 3596 mt 26912 3596 L
26912 3596 mt 26912 3596 L
26912 3596 mt 26795 3596 L
0 0 117 0 0 0 26912 3596 4 MP
PP
26912 3596 mt 26912 3596 L
26912 3596 mt 27029 3596 L
27029 3596 mt 27029 3596 L
27029 3596 mt 26912 3596 L
0 0 117 0 0 0 27029 3596 4 MP
PP
27029 3596 mt 27029 3596 L
27029 3596 mt 27146 3596 L
27146 3596 mt 27146 3596 L
27146 3596 mt 27029 3596 L
0 0 117 0 0 0 27146 3596 4 MP
PP
27146 3596 mt 27146 3596 L
27146 3596 mt 27263 3596 L
27263 3596 mt 27263 3596 L
27263 3596 mt 27146 3596 L
0 0 117 0 0 0 27263 3596 4 MP
PP
27263 3596 mt 27263 3596 L
27263 3596 mt 27380 3596 L
27380 3596 mt 27380 3596 L
27380 3596 mt 27263 3596 L
0 0 117 0 0 0 27380 3596 4 MP
PP
27380 3596 mt 27380 3596 L
27380 3596 mt 27497 3596 L
27497 3596 mt 27497 3596 L
27497 3596 mt 27380 3596 L
0 0 117 0 0 0 27497 3596 4 MP
PP
27497 3596 mt 27497 3596 L
27497 3596 mt 27614 3596 L
27614 3596 mt 27614 3596 L
27614 3596 mt 27497 3596 L
0 0 117 0 0 0 27614 3596 4 MP
PP
27614 3596 mt 27614 3596 L
27614 3596 mt 27731 3596 L
27731 3596 mt 27731 3596 L
27731 3596 mt 27614 3596 L
0 0 118 0 0 0 27731 3596 4 MP
PP
27731 3596 mt 27731 3596 L
27731 3596 mt 27849 3596 L
27849 3596 mt 27849 3596 L
27849 3596 mt 27731 3596 L
0 0 117 0 0 0 27849 3596 4 MP
PP
27849 3596 mt 27849 3596 L
27849 3596 mt 27966 3596 L
27966 3596 mt 27966 3596 L
27966 3596 mt 27849 3596 L
0 0 117 0 0 0 27966 3596 4 MP
PP
27966 3596 mt 27966 3596 L
27966 3596 mt 28083 3596 L
28083 3596 mt 28083 3596 L
28083 3596 mt 27966 3596 L
0 0 117 0 0 0 28083 3596 4 MP
PP
28083 3596 mt 28083 3596 L
28083 3596 mt 28200 3596 L
28200 3596 mt 28200 3596 L
28200 3596 mt 28083 3596 L
0 0 117 0 0 0 28200 3596 4 MP
PP
28200 3596 mt 28200 3596 L
28200 3596 mt 28317 3596 L
28317 3596 mt 28317 3596 L
28317 3596 mt 28200 3596 L
0 0 117 0 0 0 28317 3596 4 MP
PP
28317 3596 mt 28317 3596 L
28317 3596 mt 28434 3596 L
28434 3596 mt 28434 3596 L
28434 3596 mt 28317 3596 L
0 0 117 0 0 0 28434 3596 4 MP
PP
28434 3596 mt 28434 3596 L
28434 3596 mt 28551 3596 L
28551 3596 mt 28551 3596 L
28551 3596 mt 28434 3596 L
0 0 117 0 0 0 28551 3596 4 MP
PP
28551 3596 mt 28551 3596 L
28551 3596 mt 28668 3596 L
28668 3596 mt 28668 3596 L
28668 3596 mt 28551 3596 L
0 0 117 0 0 0 28668 3596 4 MP
PP
28668 3596 mt 28668 3596 L
28668 3596 mt 28785 3596 L
28785 3596 mt 28785 3596 L
28785 3596 mt 28668 3596 L
0 0 117 0 0 0 28785 3596 4 MP
PP
28785 3596 mt 28785 3596 L
28785 3596 mt 28902 3596 L
28902 3596 mt 28902 3596 L
28902 3596 mt 28785 3596 L
0 0 117 0 0 0 28902 3596 4 MP
PP
28902 3596 mt 28902 3596 L
28902 3596 mt 29019 3596 L
29019 3596 mt 29019 3596 L
29019 3596 mt 28902 3596 L
0 0 117 0 0 0 29019 3596 4 MP
PP
29019 3596 mt 29019 3596 L
29019 3596 mt 29136 3596 L
29136 3596 mt 29136 3596 L
29136 3596 mt 29019 3596 L
0 0 117 0 0 0 29136 3596 4 MP
PP
29136 3596 mt 29136 3596 L
29136 3596 mt 29253 3596 L
29253 3596 mt 29253 3596 L
29253 3596 mt 29136 3596 L
0 0 117 0 0 0 29253 3596 4 MP
PP
29253 3596 mt 29253 3596 L
29253 3596 mt 29370 3596 L
29370 3596 mt 29370 3596 L
29370 3596 mt 29253 3596 L
0 0 117 0 0 0 29370 3596 4 MP
PP
29370 3596 mt 29370 3596 L
29370 3596 mt 29487 3596 L
29487 3596 mt 29487 3596 L
29487 3596 mt 29370 3596 L
0 0 117 0 0 0 29487 3596 4 MP
PP
29487 3596 mt 29487 3596 L
29487 3596 mt 29604 3596 L
29604 3596 mt 29604 3596 L
29604 3596 mt 29487 3596 L
0 0 117 0 0 0 29604 3596 4 MP
PP
29604 3596 mt 29604 3596 L
29604 3596 mt 29721 3596 L
29721 3596 mt 29721 3596 L
29721 3596 mt 29604 3596 L
0 0 117 0 0 0 29721 3596 4 MP
PP
29721 3596 mt 29721 3596 L
29721 3596 mt 29838 3596 L
29838 3596 mt 29838 3596 L
29838 3596 mt 29721 3596 L
0 0 117 0 0 0 29838 3596 4 MP
PP
29838 3596 mt 29838 3596 L
29838 3596 mt 29955 3596 L
29955 3596 mt 29955 3596 L
29955 3596 mt 29838 3596 L
0 0 117 0 0 0 29955 3596 4 MP
PP
29955 3596 mt 29955 3596 L
29955 3596 mt 30072 3596 L
30072 3596 mt 30072 3596 L
30072 3596 mt 29955 3596 L
0 0 117 0 0 0 30072 3596 4 MP
PP
30072 3596 mt 30072 3596 L
30072 3596 mt 30189 3596 L
30189 3596 mt 30189 3596 L
30189 3596 mt 30072 3596 L
0 0 117 0 0 0 30189 3596 4 MP
PP
30189 3596 mt 30189 3596 L
30189 3596 mt 30306 3596 L
30306 3596 mt 30306 3596 L
30306 3596 mt 30189 3596 L
0 0 117 0 0 0 30306 3596 4 MP
PP
30306 3596 mt 30306 3596 L
30306 3596 mt 30423 3596 L
30423 3596 mt 30423 3596 L
30423 3596 mt 30306 3596 L
0 0 117 0 0 0 30423 3596 4 MP
PP
30423 3596 mt 30423 3596 L
30423 3596 mt 30540 3596 L
30540 3596 mt 30540 3596 L
30540 3596 mt 30423 3596 L
0 0 117 0 0 0 30540 3596 4 MP
PP
30540 3596 mt 30540 3596 L
30540 3596 mt 30657 3596 L
30657 3596 mt 30657 3596 L
30657 3596 mt 30540 3596 L
0 0 117 0 0 0 30657 3596 4 MP
PP
30657 3596 mt 30657 3596 L
30657 3596 mt 30774 3596 L
30774 3596 mt 30774 3596 L
30774 3596 mt 30657 3596 L
0 0 117 0 0 0 30774 3596 4 MP
PP
30774 3596 mt 30774 3596 L
30774 3596 mt 30891 3596 L
30891 3596 mt 30891 3596 L
30891 3596 mt 30774 3596 L
0 0 117 0 0 0 30891 3596 4 MP
PP
30891 3596 mt 30891 3596 L
30891 3596 mt 31008 3596 L
31008 3596 mt 31008 3596 L
31008 3596 mt 30891 3596 L
0 0 117 0 0 0 31008 3596 4 MP
PP
31008 3596 mt 31008 3596 L
31008 3596 mt 31125 3596 L
31125 3596 mt 31125 3596 L
31125 3596 mt 31008 3596 L
0 0 117 0 0 0 31125 3596 4 MP
PP
31125 3596 mt 31125 3596 L
31125 3596 mt 31242 3596 L
31242 3596 mt 31242 3596 L
31242 3596 mt 31125 3596 L
0 0 117 0 0 0 31242 3596 4 MP
PP
31242 3596 mt 31242 3596 L
31242 3596 mt 31359 3596 L
31359 3596 mt 31359 3596 L
31359 3596 mt 31242 3596 L
0 0 117 0 0 0 31359 3596 4 MP
PP
31359 3596 mt 31359 3596 L
31359 3596 mt 31476 3596 L
31476 3596 mt 31476 3596 L
31476 3596 mt 31359 3596 L
0 0 117 0 0 0 31476 3596 4 MP
PP
31476 3596 mt 31476 3596 L
31476 3596 mt 31593 3596 L
31593 3596 mt 31593 3596 L
31593 3596 mt 31476 3596 L
0 0 117 0 0 0 31593 3596 4 MP
PP
31593 3596 mt 31593 3596 L
31593 3596 mt 31710 3596 L
31710 3596 mt 31710 3596 L
31710 3596 mt 31593 3596 L
0 0 57 0 0 0 31710 3596 4 MP
PP
31710 3596 mt 31710 3596 L
31710 3596 mt 31767 3596 L
31767 3596 mt 31767 3596 L
31767 3596 mt 31710 3596 L
0 0 0 0 0 0 31767 3596 4 MP
PP
31767 3596 mt 31767 3596 L
31767 3596 mt 31767 3596 L
31767 3596 mt 31767 3596 L
31767 3596 mt 31767 3596 L
0 0 0 0 0 0 31767 3596 4 MP
PP
31767 3596 mt 31767 3596 L
31767 3596 mt 31767 3596 L
31767 3596 mt 31767 3596 L
31767 3596 mt 31767 3596 L
0 0 0 0 0 0 31767 3596 4 MP
PP
31767 3596 mt 31767 3596 L
31767 3596 mt 31767 3596 L
31767 3596 mt 31767 3596 L
31767 3596 mt 31767 3596 L
0 0 0 0 0 0 31767 3596 4 MP
PP
31767 3596 mt 31767 3596 L
31767 3596 mt 31767 3596 L
31767 3596 mt 31767 3596 L
31767 3596 mt 31767 3596 L
0 0 0 0 0 0 31767 3596 4 MP
PP
31767 3596 mt 31767 3596 L
31767 3596 mt 31767 3596 L
31767 3596 mt 31767 3596 L
31767 3596 mt 31767 3596 L
0 0 0 0 0 0 31767 3596 4 MP
PP
31767 3596 mt 31767 3596 L
31767 3596 mt 31767 3596 L
31767 3596 mt 31767 3596 L
31767 3596 mt 31767 3596 L
0 0 0 0 0 0 31767 3596 4 MP
PP
31767 3596 mt 31767 3596 L
31767 3596 mt 31767 3596 L
31767 3596 mt 31767 3596 L
31767 3596 mt 31767 3596 L
0 0 0 0 0 0 31767 3596 4 MP
PP
31767 3596 mt 31767 3596 L
31767 3596 mt 31767 3596 L
31767 3596 mt 31767 3596 L
31767 3596 mt 31767 3596 L
0 0 0 0 0 0 31767 3596 4 MP
PP
31767 3596 mt 31767 3596 L
31767 3596 mt 31767 3596 L
31767 3596 mt 31767 3596 L
31767 3596 mt 31767 3596 L
0 0 0 0 0 0 31767 3596 4 MP
PP
31767 3596 mt 31767 3596 L
31767 3596 mt 31767 3596 L
31767 3596 mt 31767 3596 L
31767 3596 mt 31767 3596 L
0 0 0 0 0 0 31767 3596 4 MP
PP
31767 3596 mt 31767 3596 L
31767 3596 mt 31767 3596 L
31767 3596 mt 31767 3596 L
31767 3596 mt 31767 3596 L
0 0 0 0 0 0 31767 3596 4 MP
PP
31767 3596 mt 31767 3596 L
31767 3596 mt 31767 3596 L
31767 3596 mt 31767 3596 L
31767 3596 mt 31767 3596 L
0 0 0 0 0 0 31767 3596 4 MP
PP
31767 3596 mt 31767 3596 L
31767 3596 mt 31767 3596 L
31767 3596 mt 31767 3596 L
31767 3596 mt 31767 3596 L
0 0 0 0 0 0 31767 3596 4 MP
PP
31767 3596 mt 31767 3596 L
31767 3596 mt 31767 3596 L
31767 3596 mt 31767 3596 L
31767 3596 mt 31767 3596 L
0 0 0 0 0 0 31767 3596 4 MP
PP
31767 3596 mt 31767 3596 L
31767 3596 mt 31767 3596 L
31767 3596 mt 31767 3596 L
31767 3596 mt 31767 3596 L
0 0 0 0 0 0 31767 3596 4 MP
PP
31767 3596 mt 31767 3596 L
31767 3596 mt 31767 3596 L
31767 3596 mt 31767 3596 L
31767 3596 mt 31767 3596 L
0 0 0 0 0 0 31767 3596 4 MP
PP
31767 3596 mt 31767 3596 L
31767 3596 mt 31767 3596 L
31767 3596 mt 31767 3596 L
31767 3596 mt 31767 3596 L
0 0 0 0 0 0 31767 3596 4 MP
PP
31767 3596 mt 31767 3596 L
31767 3596 mt 31767 3596 L
31767 3596 mt 31767 3596 L
31767 3596 mt 31767 3596 L
0 0 0 0 0 0 31767 3596 4 MP
PP
31767 3596 mt 31767 3596 L
31767 3596 mt 31767 3596 L
31767 3596 mt 31767 3596 L
31767 3596 mt 31767 3596 L
0 0 0 0 0 0 31767 3596 4 MP
PP
31767 3596 mt 31767 3596 L
31767 3596 mt 31767 3596 L
31767 3596 mt 31767 3596 L
31767 3596 mt 31767 3596 L
0 0 0 0 0 0 31767 3596 4 MP
PP
31767 3596 mt 31767 3596 L
31767 3596 mt 31767 3596 L
31767 3596 mt 31767 3596 L
31767 3596 mt 31767 3596 L
0 0 0 0 0 0 31767 3596 4 MP
PP
31767 3596 mt 31767 3596 L
31767 3596 mt 31767 3596 L
31767 3596 mt 31767 3596 L
31767 3596 mt 31767 3596 L
0 0 0 0 0 0 31767 3596 4 MP
PP
31767 3596 mt 31767 3596 L
31767 3596 mt 31767 3596 L
31767 3596 mt 31767 3596 L
31767 3596 mt 31767 3596 L
0 0 0 0 0 0 31767 3596 4 MP
PP
31767 3596 mt 31767 3596 L
31767 3596 mt 31767 3596 L
31767 3596 mt 31767 3596 L
31767 3596 mt 31767 3596 L
0 0 0 0 0 0 31767 3596 4 MP
PP
31767 3596 mt 31767 3596 L
31767 3596 mt 31767 3596 L
31767 3596 mt 31767 3596 L
31767 3596 mt 31767 3596 L
0 0 0 0 0 0 31767 3596 4 MP
PP
31767 3596 mt 31767 3596 L
31767 3596 mt 31767 3596 L
31767 3596 mt 31767 3596 L
31767 3596 mt 31767 3596 L
0 0 0 0 0 0 31767 3596 4 MP
PP
31767 3596 mt 31767 3596 L
31767 3596 mt 31767 3596 L
31767 3596 mt 31767 3596 L
31767 3596 mt 31767 3596 L
0 0 0 0 0 0 31767 3596 4 MP
PP
31767 3596 mt 31767 3596 L
31767 3596 mt 31767 3596 L
31767 3596 mt 31767 3596 L
31767 3596 mt 31767 3596 L
0 0 0 0 0 0 31767 3596 4 MP
PP
31767 3596 mt 31767 3596 L
31767 3596 mt 31767 3596 L
31767 3596 mt 31767 3596 L
31767 3596 mt 31767 3596 L
0 0 0 0 0 0 31767 3596 4 MP
PP
31767 3596 mt 31767 3596 L
31767 3596 mt 31767 3596 L
31767 3596 mt 31767 3596 L
31767 3596 mt 31767 3596 L
0 0 0 0 0 0 31767 3596 4 MP
PP
31767 3596 mt 31767 3596 L
31767 3596 mt 31767 3596 L
31767 3596 mt 31767 3596 L
31767 3596 mt 31767 3596 L
0 0 0 0 0 0 31767 3596 4 MP
PP
31767 3596 mt 31767 3596 L
31767 3596 mt 31767 3596 L
31767 3596 mt 31767 3596 L
31767 3596 mt 31767 3596 L
0 0 0 0 0 0 31767 3596 4 MP
PP
31767 3596 mt 31767 3596 L
31767 3596 mt 31767 3596 L
31767 3596 mt 31767 3596 L
31767 3596 mt 31767 3596 L
0 0 0 0 0 0 31767 3596 4 MP
PP
31767 3596 mt 31767 3596 L
31767 3596 mt 31767 3596 L
31767 3596 mt 31767 3596 L
31767 3596 mt 31767 3596 L
0 0 0 0 0 0 31767 3596 4 MP
PP
31767 3596 mt 31767 3596 L
31767 3596 mt 31767 3596 L
31767 3596 mt 31767 3596 L
31767 3596 mt 31767 3596 L
0 0 0 0 0 0 31767 3596 4 MP
PP
31767 3596 mt 31767 3596 L
31767 3596 mt 31767 3596 L
31767 3596 mt 31767 3596 L
31767 3596 mt 31767 3596 L
0 0 0 0 0 0 31767 3596 4 MP
PP
31767 3596 mt 31767 3596 L
31767 3596 mt 31767 3596 L
31767 3596 mt 31767 3596 L
31767 3596 mt 31767 3596 L
0 0 0 0 0 0 31767 3596 4 MP
PP
31767 3596 mt 31767 3596 L
31767 3596 mt 31767 3596 L
31767 3596 mt 31767 3596 L
31767 3596 mt 31767 3596 L
0 0 0 0 0 0 31767 3596 4 MP
PP
31767 3596 mt 31767 3596 L
31767 3596 mt 31767 3596 L
31767 3596 mt 31767 3596 L
31767 3596 mt 31767 3596 L
0 0 0 0 0 0 31767 3596 4 MP
PP
31767 3596 mt 31767 3596 L
31767 3596 mt 31767 3596 L
31767 3596 mt 31767 3596 L
31767 3596 mt 31767 3596 L
0 0 0 0 0 0 31767 3596 4 MP
PP
31767 3596 mt 31767 3596 L
31767 3596 mt 31767 3596 L
31767 3596 mt 31767 3596 L
31767 3596 mt 31767 3596 L
0 0 0 0 0 0 31767 3596 4 MP
PP
31767 3596 mt 31767 3596 L
31767 3596 mt 31767 3596 L
31767 3596 mt 31767 3596 L
31767 3596 mt 31767 3596 L
0 0 0 0 0 0 31767 3596 4 MP
PP
31767 3596 mt 31767 3596 L
31767 3596 mt 31767 3596 L
31767 3596 mt 31767 3596 L
31767 3596 mt 31767 3596 L
0 0 0 0 0 0 31767 3596 4 MP
PP
31767 3596 mt 31767 3596 L
31767 3596 mt 31767 3596 L
31767 3596 mt 31767 3596 L
31767 3596 mt 31767 3596 L
0 0 0 0 0 0 31767 3596 4 MP
PP
31767 3596 mt 31767 3596 L
31767 3596 mt 31767 3596 L
31767 3596 mt 31767 3596 L
31767 3596 mt 31767 3596 L
0 0 0 0 0 0 31767 3596 4 MP
PP
31767 3596 mt 31767 3596 L
31767 3596 mt 31767 3596 L
31767 3596 mt 31767 3596 L
31767 3596 mt 31767 3596 L
0 0 0 0 0 0 31767 3596 4 MP
PP
31767 3596 mt 31767 3596 L
31767 3596 mt 31767 3596 L
31767 3596 mt 31767 3596 L
31767 3596 mt 31767 3596 L
0 0 0 0 0 0 31767 3596 4 MP
PP
31767 3596 mt 31767 3596 L
31767 3596 mt 31767 3596 L
31767 3596 mt 31767 3596 L
31767 3596 mt 31767 3596 L
0 0 0 0 0 0 31767 3596 4 MP
PP
31767 3596 mt 31767 3596 L
31767 3596 mt 31767 3596 L
31767 3596 mt 31767 3596 L
31767 3596 mt 31767 3596 L
0 0 0 0 0 0 31767 3596 4 MP
PP
31767 3596 mt 31767 3596 L
31767 3596 mt 31767 3596 L
31767 3596 mt 31767 3596 L
31767 3596 mt 31767 3596 L
gr

c8
0 sg
%%IncludeResource: font Helvetica
/Helvetica /ISOLatin1Encoding 120 FMSR

 416 2227 mt  -90 rotate
(Frequency) s
90 rotate
2361 3877 mt 
(Total population) s
 682 3632 mt 
( ) s
4849  344 mt 
( ) s
1 sg
0 188 2030 0 0 -188 2776 550 4 MP
PP
-2030 0 0 188 2030 0 0 -188 2776 550 5 MP stroke
4 w
DO
SO
6 w
0 sg
2776  550 mt 4806  550 L
2776  362 mt 4806  362 L
2776  550 mt 2776  362 L
4806  550 mt 4806  362 L
2776  550 mt 4806  550 L
2776  550 mt 2776  362 L
2776  550 mt 4806  550 L
2776  362 mt 4806  362 L
2776  550 mt 2776  362 L
4806  550 mt 4806  362 L
3246  499 mt 
(Histogram of total population) s
gs 2776 362 2031 189 rc
c8
0 111 361 0 0 -111 2848 511 4 MP
PP
2848  511 mt 2848  400 L
2848  400 mt 3209  400 L
3209  400 mt 3209  511 L
3209  511 mt 2848  511 L
gr

c8

end %%Color Dict

eplot
%%EndObject

epage
end

showpage

%%Trailer
%%EOF
