%!PS-Adobe-3.0 EPSF-3.0
%%Creator: MATLAB, The MathWorks, Inc. Version 7.14.0.739 (R2012a). Operating System: Linux 2.6.38-16-generic #67-Ubuntu SMP Thu Sep 6 17:58:38 UTC 2012 x86_64.
%%Title: /home/birkeland/andreros/tma4265-stochastic-processes/project/second_problem/many_populations_first.eps
%%CreationDate: 10/21/2012  23:00:56
%%DocumentNeededFonts: Helvetica
%%DocumentProcessColors: Cyan Magenta Yellow Black
%%LanguageLevel: 2
%%Pages: 1
%%BoundingBox:   -43   227   657   564
%%EndComments

%%BeginProlog
% MathWorks dictionary
/MathWorks 160 dict begin
% definition operators
/bdef {bind def} bind def
/ldef {load def} bind def
/xdef {exch def} bdef
/xstore {exch store} bdef
% operator abbreviations
/c  /clip ldef
/cc /concat ldef
/cp /closepath ldef
/gr /grestore ldef
/gs /gsave ldef
/mt /moveto ldef
/np /newpath ldef
/cm /currentmatrix ldef
/sm /setmatrix ldef
/rm /rmoveto ldef
/rl /rlineto ldef
/s {show newpath} bdef
/sc {setcmykcolor} bdef
/sr /setrgbcolor ldef
/sg /setgray ldef
/w /setlinewidth ldef
/j /setlinejoin ldef
/cap /setlinecap ldef
/rc {rectclip} bdef
/rf {rectfill} bdef
% page state control
/pgsv () def
/bpage {/pgsv save def} bdef
/epage {pgsv restore} bdef
/bplot /gsave ldef
/eplot {stroke grestore} bdef
% orientation switch
/portraitMode 0 def /landscapeMode 1 def /rotateMode 2 def
% coordinate system mappings
/dpi2point 0 def
% font control
/FontSize 0 def
/FMS {/FontSize xstore findfont [FontSize 0 0 FontSize neg 0 0]
  makefont setfont} bdef
/reencode {exch dup where {pop load} {pop StandardEncoding} ifelse
  exch dup 3 1 roll findfont dup length dict begin
  { 1 index /FID ne {def}{pop pop} ifelse } forall
  /Encoding exch def currentdict end definefont pop} bdef
/isroman {findfont /CharStrings get /Agrave known} bdef
/FMSR {3 1 roll 1 index dup isroman {reencode} {pop pop} ifelse
  exch FMS} bdef
/csm {1 dpi2point div -1 dpi2point div scale neg translate
 dup landscapeMode eq {pop -90 rotate}
  {rotateMode eq {90 rotate} if} ifelse} bdef
% line types: solid, dotted, dashed, dotdash
/SO { [] 0 setdash } bdef
/DO { [.5 dpi2point mul 4 dpi2point mul] 0 setdash } bdef
/DA { [6 dpi2point mul] 0 setdash } bdef
/DD { [.5 dpi2point mul 4 dpi2point mul 6 dpi2point mul 4
  dpi2point mul] 0 setdash } bdef
% macros for lines and objects
/L {lineto stroke} bdef
/MP {3 1 roll moveto 1 sub {rlineto} repeat} bdef
/AP {{rlineto} repeat} bdef
/PDlw -1 def
/W {/PDlw currentlinewidth def setlinewidth} def
/PP {closepath eofill} bdef
/DP {closepath stroke} bdef
/MR {4 -2 roll moveto dup  0 exch rlineto exch 0 rlineto
  neg 0 exch rlineto closepath} bdef
/FR {MR stroke} bdef
/PR {MR fill} bdef
/L1i {{currentfile picstr readhexstring pop} image} bdef
/tMatrix matrix def
/MakeOval {newpath tMatrix currentmatrix pop translate scale
0 0 1 0 360 arc tMatrix setmatrix} bdef
/FO {MakeOval stroke} bdef
/PO {MakeOval fill} bdef
/PD {currentlinewidth 2 div 0 360 arc fill
   PDlw -1 eq not {PDlw w /PDlw -1 def} if} def
/FA {newpath tMatrix currentmatrix pop translate scale
  0 0 1 5 -2 roll arc tMatrix setmatrix stroke} bdef
/PA {newpath tMatrix currentmatrix pop	translate 0 0 moveto scale
  0 0 1 5 -2 roll arc closepath tMatrix setmatrix fill} bdef
/FAn {newpath tMatrix currentmatrix pop translate scale
  0 0 1 5 -2 roll arcn tMatrix setmatrix stroke} bdef
/PAn {newpath tMatrix currentmatrix pop translate 0 0 moveto scale
  0 0 1 5 -2 roll arcn closepath tMatrix setmatrix fill} bdef
/vradius 0 def /hradius 0 def /lry 0 def
/lrx 0 def /uly 0 def /ulx 0 def /rad 0 def
/MRR {/vradius xdef /hradius xdef /lry xdef /lrx xdef /uly xdef
  /ulx xdef newpath tMatrix currentmatrix pop ulx hradius add uly
  vradius add translate hradius vradius scale 0 0 1 180 270 arc 
  tMatrix setmatrix lrx hradius sub uly vradius add translate
  hradius vradius scale 0 0 1 270 360 arc tMatrix setmatrix
  lrx hradius sub lry vradius sub translate hradius vradius scale
  0 0 1 0 90 arc tMatrix setmatrix ulx hradius add lry vradius sub
  translate hradius vradius scale 0 0 1 90 180 arc tMatrix setmatrix
  closepath} bdef
/FRR {MRR stroke } bdef
/PRR {MRR fill } bdef
/MlrRR {/lry xdef /lrx xdef /uly xdef /ulx xdef /rad lry uly sub 2 div def
  newpath tMatrix currentmatrix pop ulx rad add uly rad add translate
  rad rad scale 0 0 1 90 270 arc tMatrix setmatrix lrx rad sub lry rad
  sub translate rad rad scale 0 0 1 270 90 arc tMatrix setmatrix
  closepath} bdef
/FlrRR {MlrRR stroke } bdef
/PlrRR {MlrRR fill } bdef
/MtbRR {/lry xdef /lrx xdef /uly xdef /ulx xdef /rad lrx ulx sub 2 div def
  newpath tMatrix currentmatrix pop ulx rad add uly rad add translate
  rad rad scale 0 0 1 180 360 arc tMatrix setmatrix lrx rad sub lry rad
  sub translate rad rad scale 0 0 1 0 180 arc tMatrix setmatrix
  closepath} bdef
/FtbRR {MtbRR stroke } bdef
/PtbRR {MtbRR fill } bdef
/stri 6 array def /dtri 6 array def
/smat 6 array def /dmat 6 array def
/tmat1 6 array def /tmat2 6 array def /dif 3 array def
/asub {/ind2 exch def /ind1 exch def dup dup
  ind1 get exch ind2 get sub exch } bdef
/tri_to_matrix {
  2 0 asub 3 1 asub 4 0 asub 5 1 asub
  dup 0 get exch 1 get 7 -1 roll astore } bdef
/compute_transform {
  dmat dtri tri_to_matrix tmat1 invertmatrix 
  smat stri tri_to_matrix tmat2 concatmatrix } bdef
/ds {stri astore pop} bdef
/dt {dtri astore pop} bdef
/db {2 copy /cols xdef /rows xdef mul dup 3 mul string
  currentfile 
  3 index 0 eq {/ASCIIHexDecode filter}
  {/ASCII85Decode filter 3 index 2 eq {/RunLengthDecode filter} if }
  ifelse exch readstring pop
  dup 0 3 index getinterval /rbmap xdef
  dup 2 index dup getinterval /gbmap xdef
  1 index dup 2 mul exch getinterval /bbmap xdef pop pop}bdef
/it {gs np dtri aload pop moveto lineto lineto cp c
  cols rows 8 compute_transform 
  rbmap gbmap bbmap true 3 colorimage gr}bdef
/il {newpath moveto lineto stroke}bdef
currentdict end def
%%EndProlog

%%BeginSetup
MathWorks begin

0 cap

end
%%EndSetup

%%Page: 1 1
%%BeginPageSetup
%%PageBoundingBox:   -43   227   657   564
MathWorks begin
bpage
%%EndPageSetup

%%BeginObject: obj1
bplot

/dpi2point 12 def
portraitMode -0516 6768 csm

    0     0  8409  4033 rc
85 dict begin %Colortable dictionary
/c0 { 0.000000 0.000000 0.000000 sr} bdef
/c1 { 1.000000 1.000000 1.000000 sr} bdef
/c2 { 0.900000 0.000000 0.000000 sr} bdef
/c3 { 0.000000 0.820000 0.000000 sr} bdef
/c4 { 0.000000 0.000000 0.800000 sr} bdef
/c5 { 0.910000 0.820000 0.320000 sr} bdef
/c6 { 1.000000 0.260000 0.820000 sr} bdef
/c7 { 0.000000 0.820000 0.820000 sr} bdef
c0
1 j
1 sg
   0    0 8410 4034 rf
6 w
0 3287 6517 0 0 -3287 1093 3589 4 MP
PP
-6517 0 0 3287 6517 0 0 -3287 1093 3589 5 MP stroke
4 w
DO
SO
6 w
0 sg
1093 3589 mt 7610 3589 L
1093 3589 mt 1093  302 L
1093 3589 mt 1093 3523 L
%%IncludeResource: font Helvetica
/Helvetica /ISOLatin1Encoding 120 FMSR

1060 3734 mt 
(0) s
2024 3589 mt 2024 3523 L
1958 3734 mt 
(20) s
2955 3589 mt 2955 3523 L
2889 3734 mt 
(40) s
3886 3589 mt 3886 3523 L
3820 3734 mt 
(60) s
4817 3589 mt 4817 3523 L
4751 3734 mt 
(80) s
5748 3589 mt 5748 3523 L
5648 3734 mt 
(100) s
6679 3589 mt 6679 3523 L
6579 3734 mt 
(120) s
7610 3589 mt 7610 3523 L
7510 3734 mt 
(140) s
1093 3589 mt 1158 3589 L
 992 3633 mt 
(0) s
1093 3041 mt 1158 3041 L
 925 3085 mt 
(10) s
1093 2493 mt 1158 2493 L
 925 2537 mt 
(20) s
1093 1945 mt 1158 1945 L
 925 1989 mt 
(30) s
1093 1397 mt 1158 1397 L
 925 1441 mt 
(40) s
1093  849 mt 1158  849 L
 925  893 mt 
(50) s
1093  302 mt 1158  302 L
 925  346 mt 
(60) s
gs 1093 302 6518 3288 rc
/c8 { 0.000000 0.000000 1.000000 sr} bdef
c8
47 110 46 0 47 55 46 164 47 -55 46 -109 47 -110 1139 3534 8 MP stroke
46 110 47 -55 1139 3534 3 MP stroke
47 55 1139 3534 2 MP stroke
47 55 1139 3534 2 MP stroke
47 55 1139 3534 2 MP stroke
47 55 1139 3534 2 MP stroke
47 55 1139 3534 2 MP stroke
47 55 1139 3534 2 MP stroke
46 55 47 110 46 -110 47 110 46 0 47 -110 1139 3534 7 MP stroke
46 110 47 -55 1139 3534 3 MP stroke
47 55 1139 3534 2 MP stroke
47 55 1139 3534 2 MP stroke
47 55 1139 3534 2 MP stroke
46 165 47 0 46 -110 47 219 46 -109 47 -110 1139 3534 7 MP stroke
47 55 1139 3534 2 MP stroke
46 110 47 -55 1139 3534 3 MP stroke
47 55 1139 3534 2 MP stroke
47 55 1139 3534 2 MP stroke
46 55 47 0 1139 3534 3 MP stroke
47 55 1139 3534 2 MP stroke
46 165 47 -110 1139 3534 3 MP stroke
46 110 47 -55 1139 3534 3 MP stroke
47 55 1139 3534 2 MP stroke
47 55 1139 3534 2 MP stroke
47 55 1139 3534 2 MP stroke
47 274 46 -109 47 -55 47 384 46 54 47 -109 46 383 47 -164 
46 164 47 -383 46 109 47 219 47 110 46 329 47 164 46 -493 
47 -274 46 -274 47 -164 46 -110 47 55 46 -55 47 55 47 110 
46 164 47 986 46 -438 47 -219 46 -274 47 -165 46 220 47 -55 
47 328 46 329 47 -438 46 164 47 55 46 -164 47 -110 46 -109 
47 164 46 383 47 329 47 329 46 -274 47 109 46 439 47 602 
46 165 47 -384 46 438 47 -383 47 -329 46 -712 47 274 46 0 
47 383 46 -273 47 -165 46 384 47 328 46 -383 47 0 47 55 
46 -603 47 -109 46 164 47 548 46 219 47 -274 46 -110 47 165 
47 -877 46 -438 47 -384 46 -164 47 110 46 -110 47 55 46 -55 
47 0 46 274 47 -55 47 -109 46 109 47 712 46 384 47 -164 
46 -110 47 -164 46 219 47 -219 47 -329 46 55 47 -110 46 -109 
47 -220 46 -109 47 0 46 -110 47 0 1139 3534 102 MP stroke
47 55 47 274 46 -55 47 55 46 0 47 -164 46 -110 47 110 
46 0 47 -110 1139 3534 11 MP stroke
47 55 1139 3534 2 MP stroke
46 220 47 54 46 -109 47 -110 1139 3534 5 MP stroke
47 110 46 0 47 110 46 -55 47 -110 1139 3534 6 MP stroke
47 55 1139 3534 2 MP stroke
47 55 1139 3534 2 MP stroke
46 165 47 -110 1139 3534 3 MP stroke
46 165 47 -110 1139 3534 3 MP stroke
47 55 1139 3534 2 MP stroke
47 110 46 55 47 -110 1139 3534 4 MP stroke
47 165 46 0 47 -110 1139 3534 4 MP stroke
47 55 1139 3534 2 MP stroke
46 110 47 -55 1139 3534 3 MP stroke
47 55 1139 3534 2 MP stroke
46 110 47 -55 1139 3534 3 MP stroke
46 110 47 -55 1139 3534 3 MP stroke
47 55 1139 3534 2 MP stroke
47 165 46 0 47 109 46 -109 47 -110 1139 3534 6 MP stroke
47 110 46 219 47 -164 46 -55 47 -55 1139 3534 6 MP stroke
46 110 47 0 46 55 47 -110 1139 3534 5 MP stroke
47 55 1139 3534 2 MP stroke
46 55 47 165 46 -110 47 -55 1139 3534 5 MP stroke
47 55 1139 3534 2 MP stroke
47 55 1139 3534 2 MP stroke
47 55 1139 3534 2 MP stroke
47 55 1139 3534 2 MP stroke
47 55 1139 3534 2 MP stroke
46 165 47 -110 46 165 47 0 46 -55 47 -110 1139 3534 7 MP stroke
47 55 1139 3534 2 MP stroke
47 110 46 0 47 164 46 -109 47 -110 1139 3534 6 MP stroke
47 55 1139 3534 2 MP stroke
46 55 47 110 46 -55 47 -55 1139 3534 5 MP stroke
47 55 1139 3534 2 MP stroke
47 55 1139 3534 2 MP stroke
47 55 1139 3534 2 MP stroke
46 110 47 55 46 55 47 -55 47 55 46 -55 47 274 46 109 
47 -219 46 -55 47 0 46 -109 47 -110 1139 3534 14 MP stroke
47 55 1139 3534 2 MP stroke
47 55 1139 3534 2 MP stroke
47 55 1139 3534 2 MP stroke
47 165 46 -55 47 -55 46 0 47 0 1139 3534 6 MP stroke
47 55 1139 3534 2 MP stroke
47 55 1139 3534 2 MP stroke
47 55 1139 3534 2 MP stroke
46 55 47 165 46 -55 47 -110 1139 3534 5 MP stroke
46 110 47 0 47 164 46 -109 47 55 46 109 47 -164 46 657 
47 -219 46 -109 47 109 47 329 46 -110 47 -164 46 -219 47 -219 
46 -55 47 109 46 -109 47 -110 1139 3534 21 MP stroke
47 55 1139 3534 2 MP stroke
46 55 47 55 47 55 46 109 47 -164 46 219 47 -109 46 109 
47 0 46 219 47 -109 47 164 46 55 47 0 46 0 47 -219 
46 109 47 -109 46 -274 47 -55 46 219 47 329 47 -164 46 164 
47 109 46 384 47 -274 46 -55 47 329 46 -603 47 219 47 -54 
46 821 47 -383 46 110 47 54 46 219 47 -219 46 384 47 712 
46 -219 47 -274 47 -110 46 -219 47 -602 46 -384 47 0 46 -109 
47 0 46 -110 47 -164 47 109 46 -55 47 0 46 55 47 -164 
46 -55 47 0 46 0 47 -55 1139 3534 61 MP stroke
47 55 1139 3534 2 MP stroke
47 55 1139 3534 2 MP stroke
46 110 47 -55 1139 3534 3 MP stroke
47 55 1139 3534 2 MP stroke
46 55 47 0 1139 3534 3 MP stroke
47 55 1139 3534 2 MP stroke
46 110 47 -55 1139 3534 3 MP stroke
46 110 47 -55 1139 3534 3 MP stroke
47 55 1139 3534 2 MP stroke
47 55 1139 3534 2 MP stroke
47 55 1139 3534 2 MP stroke
47 55 1139 3534 2 MP stroke
47 55 1139 3534 2 MP stroke
47 55 1139 3534 2 MP stroke
47 55 1139 3534 2 MP stroke
46 165 47 -110 1139 3534 3 MP stroke
47 55 46 219 47 0 46 0 47 55 46 -164 47 -110 1139 3534 8 MP stroke
47 55 1139 3534 2 MP stroke
47 55 1139 3534 2 MP stroke
47 55 1139 3534 2 MP stroke
47 110 46 0 47 -55 1139 3534 4 MP stroke
47 220 46 -55 47 -110 1139 3534 4 MP stroke
46 165 47 -110 1139 3534 3 MP stroke
47 165 46 0 47 -55 46 55 47 0 47 0 46 0 47 109 
46 -164 47 110 46 0 47 -55 46 0 47 -110 1139 3534 15 MP stroke
46 110 47 -55 46 55 47 0 47 55 46 -110 47 110 46 0 
47 -55 46 0 47 0 46 0 47 -55 1139 3534 14 MP stroke
47 55 1139 3534 2 MP stroke
47 55 46 55 47 -55 1139 3534 4 MP stroke
47 165 46 0 47 0 46 164 47 219 46 55 47 -109 46 -165 
47 55 47 383 46 -383 47 -110 46 -164 47 219 46 -55 47 -54 
46 -55 47 -110 1139 3534 19 MP stroke
47 110 46 164 47 55 46 -55 47 -164 46 55 47 219 47 -110 
46 -54 47 54 46 329 47 -55 46 0 47 -274 46 -164 47 -55 
1139 3534 17 MP stroke
47 55 1139 3534 2 MP stroke
47 55 1139 3534 2 MP stroke
47 55 1139 3534 2 MP stroke
47 55 1139 3534 2 MP stroke
47 55 1139 3534 2 MP stroke
47 55 1139 3534 2 MP stroke
47 55 1139 3534 2 MP stroke
47 55 1139 3534 2 MP stroke
47 55 1139 3534 2 MP stroke
46 165 47 -110 1139 3534 3 MP stroke
47 55 1139 3534 2 MP stroke
47 55 1139 3534 2 MP stroke
46 110 47 55 46 0 47 0 46 55 47 -55 46 0 47 -110 
1139 3534 9 MP stroke
47 55 1139 3534 2 MP stroke
47 55 1139 3534 2 MP stroke
47 55 1139 3534 2 MP stroke
47 55 1139 3534 2 MP stroke
47 55 1139 3534 2 MP stroke
46 55 47 55 46 55 47 -110 1139 3534 5 MP stroke
47 55 1139 3534 2 MP stroke
47 55 1139 3534 2 MP stroke
47 165 46 -55 47 -55 1139 3534 4 MP stroke
47 165 46 -55 47 55 46 -55 47 -55 1139 3534 6 MP stroke
47 55 1139 3534 2 MP stroke
46 165 47 -110 1139 3534 3 MP stroke
47 55 1139 3534 2 MP stroke
47 55 1139 3534 2 MP stroke
47 55 1139 3534 2 MP stroke
47 55 46 55 47 110 46 54 47 165 46 -110 47 0 47 110 
46 109 47 -274 46 0 47 -109 46 0 47 -55 46 55 47 -110 
1139 3534 17 MP stroke
47 110 46 55 47 -110 1139 3534 4 MP stroke
47 55 1139 3534 2 MP stroke
47 55 1139 3534 2 MP stroke
47 55 1139 3534 2 MP stroke
47 55 1139 3534 2 MP stroke
47 55 1139 3534 2 MP stroke
46 110 47 55 46 0 47 -110 1139 3534 5 MP stroke
47 55 1139 3534 2 MP stroke
47 55 1139 3534 2 MP stroke
47 55 1139 3534 2 MP stroke
46 55 47 0 46 110 47 -110 1139 3534 5 MP stroke
47 55 1139 3534 2 MP stroke
46 165 47 -110 1139 3534 3 MP stroke
46 55 47 0 1139 3534 3 MP stroke
46 165 47 -110 46 55 47 -55 1139 3534 5 MP stroke
46 110 47 164 46 220 47 -110 47 -55 46 55 47 164 46 0 
47 165 46 -329 47 -219 46 -55 47 -55 1139 3534 14 MP stroke
47 55 1139 3534 2 MP stroke
47 55 1139 3534 2 MP stroke
47 165 46 109 47 -54 46 109 47 -109 46 54 47 -109 46 0 
47 -110 1139 3534 10 MP stroke
47 55 1139 3534 2 MP stroke
47 55 1139 3534 2 MP stroke
47 55 1139 3534 2 MP stroke
47 55 1139 3534 2 MP stroke
46 55 47 55 46 0 47 219 47 274 46 164 47 55 46 -109 
47 -165 46 -219 47 -164 46 -55 47 -55 1139 3534 14 MP stroke
47 110 47 0 46 110 47 -55 46 109 47 0 46 -54 47 -55 
46 55 47 274 47 -110 46 110 47 164 46 55 47 -165 46 -274 
47 -164 46 55 47 -110 1139 3534 20 MP stroke
46 165 47 -110 1139 3534 3 MP stroke
47 55 1139 3534 2 MP stroke
47 55 1139 3534 2 MP stroke
47 55 1139 3534 2 MP stroke
47 55 46 55 47 -55 1139 3534 4 MP stroke
47 55 1139 3534 2 MP stroke
47 55 1139 3534 2 MP stroke
47 55 1139 3534 2 MP stroke
47 55 1139 3534 2 MP stroke
47 165 46 -55 47 55 46 -55 47 -55 1139 3534 6 MP stroke
47 55 1139 3534 2 MP stroke
46 165 47 0 46 -110 47 110 46 -55 47 438 46 -109 47 -110 
47 329 46 329 47 493 46 219 47 -274 46 -384 47 -109 46 109 
47 0 47 -328 46 383 47 -55 46 165 47 0 46 -165 47 493 
46 274 47 493 46 -602 47 -493 47 -274 46 -274 47 0 46 0 
47 -55 46 -55 47 0 46 110 47 -219 47 -110 46 -55 47 -109 
46 55 47 54 46 0 47 0 46 -109 47 -110 1139 3534 47 MP stroke
47 220 46 -55 47 -110 1139 3534 4 MP stroke
47 165 46 164 47 -164 46 -55 47 0 46 0 47 55 46 383 
47 110 46 -164 47 273 47 -273 46 383 47 0 46 -383 47 0 
46 -274 47 383 46 -109 47 -55 47 164 46 -329 47 55 46 -164 
47 -55 46 0 47 0 46 0 47 -55 1139 3534 30 MP stroke
47 55 1139 3534 2 MP stroke
47 55 1139 3534 2 MP stroke
47 55 1139 3534 2 MP stroke
47 165 47 219 46 -55 47 55 46 -164 47 109 46 -219 47 0 
46 0 47 -55 1139 3534 11 MP stroke
47 55 1139 3534 2 MP stroke
46 110 47 0 46 0 47 -55 1139 3534 5 MP stroke
47 55 1139 3534 2 MP stroke
47 110 46 0 47 55 47 0 46 0 47 -55 46 55 47 0 
46 0 47 55 46 -55 47 -110 1139 3534 13 MP stroke
46 110 47 -55 1139 3534 3 MP stroke
46 548 47 0 46 877 47 -329 46 55 47 438 47 -109 46 -110 
47 493 46 -109 47 -274 46 -274 47 -110 46 -55 47 220 46 -55 
47 -219 47 -439 46 274 47 219 46 -274 47 -109 46 -164 47 -165 
46 165 47 602 47 -383 46 -110 47 -109 46 219 47 219 46 -165 
47 494 46 109 47 -438 46 109 47 -219 47 384 46 -219 47 274 
46 383 47 219 46 -657 47 109 46 -219 47 -109 47 -329 46 219 
47 -274 46 -329 47 -109 46 55 47 -55 46 0 47 -110 1139 3534 56 MP stroke
47 55 1139 3534 2 MP stroke
47 55 1139 3534 2 MP stroke
46 165 47 -110 1139 3534 3 MP stroke
47 55 1139 3534 2 MP stroke
47 55 1139 3534 2 MP stroke
47 55 1139 3534 2 MP stroke
47 55 1139 3534 2 MP stroke
47 55 1139 3534 2 MP stroke
47 55 46 110 47 -110 1139 3534 4 MP stroke
46 165 47 -110 1139 3534 3 MP stroke
47 55 1139 3534 2 MP stroke
47 55 1139 3534 2 MP stroke
47 110 46 55 47 0 46 0 47 -110 1139 3534 6 MP stroke
47 55 1139 3534 2 MP stroke
47 55 1139 3534 2 MP stroke
47 55 1139 3534 2 MP stroke
46 55 47 110 46 -110 47 55 46 55 47 -110 1139 3534 7 MP stroke
46 165 47 -110 1139 3534 3 MP stroke
47 55 1139 3534 2 MP stroke
47 165 46 0 47 -55 46 55 47 -110 1139 3534 6 MP stroke
47 55 1139 3534 2 MP stroke
46 165 47 -110 1139 3534 3 MP stroke
47 55 1139 3534 2 MP stroke
46 55 47 0 1139 3534 3 MP stroke
46 165 47 -110 1139 3534 3 MP stroke
46 110 47 -55 1139 3534 3 MP stroke
47 55 1139 3534 2 MP stroke
47 165 46 0 47 55 46 -55 47 -110 1139 3534 6 MP stroke
47 55 1139 3534 2 MP stroke
47 55 1139 3534 2 MP stroke
46 165 47 -110 1139 3534 3 MP stroke
47 55 1139 3534 2 MP stroke
47 55 1139 3534 2 MP stroke
47 55 1139 3534 2 MP stroke
47 55 1139 3534 2 MP stroke
47 55 1139 3534 2 MP stroke
46 110 47 219 46 219 47 274 46 274 47 0 46 110 47 -384 
47 0 46 329 47 -110 46 220 47 -110 46 -274 47 -55 46 329 
47 -219 46 109 47 165 47 328 46 110 47 -383 46 -110 47 -219 
46 657 47 110 46 -219 47 -165 47 -219 46 -164 47 493 46 438 
47 -109 46 -329 47 329 46 -110 47 -219 46 -110 47 -274 47 55 
46 -383 47 383 46 329 47 0 46 -274 47 -219 46 -274 47 219 
47 164 46 329 47 -548 46 219 47 -164 46 -438 47 -274 46 0 
47 -110 1139 3534 58 MP stroke
47 55 1139 3534 2 MP stroke
47 55 1139 3534 2 MP stroke
47 55 1139 3534 2 MP stroke
47 494 46 164 47 -329 46 -219 47 -55 46 110 47 -110 1139 3534 8 MP stroke
47 55 1139 3534 2 MP stroke
46 165 47 -110 1139 3534 3 MP stroke
47 55 1139 3534 2 MP stroke
46 110 47 -55 1139 3534 3 MP stroke
47 55 1139 3534 2 MP stroke
46 110 47 -55 1139 3534 3 MP stroke
47 55 46 219 47 110 46 493 47 -219 46 274 47 -165 47 -54 
46 274 47 274 46 -384 47 -383 46 54 47 -274 46 -109 47 -110 
1139 3534 17 MP stroke
47 55 1139 3534 2 MP stroke
47 55 1139 3534 2 MP stroke
46 165 47 -110 1139 3534 3 MP stroke
47 55 1139 3534 2 MP stroke
47 55 46 110 47 -110 1139 3534 4 MP stroke
47 55 1139 3534 2 MP stroke
47 55 1139 3534 2 MP stroke
47 110 46 0 47 -55 1139 3534 4 MP stroke
47 55 1139 3534 2 MP stroke
47 55 1139 3534 2 MP stroke
46 110 47 55 46 0 47 -110 1139 3534 5 MP stroke
47 55 1139 3534 2 MP stroke
47 55 1139 3534 2 MP stroke
47 55 1139 3534 2 MP stroke
47 55 1139 3534 2 MP stroke
47 220 46 -110 47 -55 1139 3534 4 MP stroke
47 55 1139 3534 2 MP stroke
47 165 46 109 47 274 46 -328 47 -55 46 0 47 -110 1139 3534 8 MP stroke
47 55 1139 3534 2 MP stroke
47 55 1139 3534 2 MP stroke
47 55 1139 3534 2 MP stroke
46 55 47 55 47 110 46 164 47 -164 46 -110 47 0 46 0 
47 0 46 0 47 -55 1139 3534 12 MP stroke
47 220 46 -55 47 383 46 329 47 -110 46 -219 47 -328 46 274 
47 -220 47 55 46 -164 47 329 46 164 47 -274 46 -55 47 -55 
46 -164 47 -55 1139 3534 19 MP stroke
46 55 47 110 46 0 47 -110 1139 3534 5 MP stroke
46 110 47 -55 1139 3534 3 MP stroke
47 55 1139 3534 2 MP stroke
47 329 46 -109 47 0 46 328 47 0 46 165 47 0 47 -55 
46 219 47 -55 46 110 47 -55 46 -438 47 109 46 0 47 55 
47 0 46 219 47 -55 46 -54 47 -110 46 -164 47 0 46 -274 
47 -110 1139 3534 26 MP stroke
46 55 47 110 46 0 47 -110 1139 3534 5 MP stroke
47 110 46 0 47 -55 1139 3534 4 MP stroke
47 110 46 55 47 55 46 -55 47 -55 46 0 47 55 47 0 
46 0 47 383 46 -164 47 329 46 493 47 -493 46 -165 47 -54 
46 0 47 -55 47 164 46 -109 47 -55 46 274 47 54 46 -273 
47 -165 46 0 47 384 47 -110 46 -55 47 -219 46 55 47 -55 
46 -164 47 -55 46 55 47 -110 1139 3534 37 MP stroke
47 55 1139 3534 2 MP stroke
47 220 46 -55 47 -110 1139 3534 4 MP stroke
47 55 1139 3534 2 MP stroke
47 55 1139 3534 2 MP stroke
46 110 47 55 46 0 47 -110 1139 3534 5 MP stroke
47 274 47 274 46 -109 47 164 46 219 47 -274 46 219 47 220 
46 -110 47 55 46 -384 47 55 47 219 46 548 47 438 46 -219 
47 -55 46 -273 47 -274 46 0 47 -329 47 0 46 -164 47 54 
46 -164 47 -110 46 -54 47 0 46 -110 47 -55 1139 3534 31 MP stroke
47 110 46 110 47 109 46 0 47 -164 46 -110 47 110 46 -110 
47 0 1139 3534 10 MP stroke
47 55 1139 3534 2 MP stroke
47 55 1139 3534 2 MP stroke
47 55 1139 3534 2 MP stroke
47 55 46 110 47 -55 46 55 47 55 46 -55 47 0 46 0 
47 0 47 55 46 438 47 164 46 0 47 329 46 -548 47 110 
46 164 47 164 46 -109 47 -110 47 0 46 -328 47 -55 46 109 
47 165 46 -329 47 493 46 219 47 -602 47 -165 46 -109 47 54 
46 165 47 55 46 -329 47 0 46 0 47 -110 1139 3534 39 MP stroke
47 55 1139 3534 2 MP stroke
46 55 47 0 1139 3534 3 MP stroke
47 55 1139 3534 2 MP stroke
47 55 1139 3534 2 MP stroke
47 55 1139 3534 2 MP stroke
46 55 47 0 46 219 47 -164 46 603 47 274 47 219 46 -439 
47 -273 46 -220 47 -109 46 0 47 0 46 0 47 -110 1139 3534 16 MP stroke
46 110 47 -55 1139 3534 3 MP stroke
47 55 1139 3534 2 MP stroke
47 55 1139 3534 2 MP stroke
47 55 1139 3534 2 MP stroke
47 55 1139 3534 2 MP stroke
47 55 1139 3534 2 MP stroke
47 110 46 0 47 55 46 0 47 -110 1139 3534 6 MP stroke
47 55 1139 3534 2 MP stroke
47 55 1139 3534 2 MP stroke
47 55 1139 3534 2 MP stroke
47 55 1139 3534 2 MP stroke
46 110 47 219 47 274 46 110 47 0 46 -219 47 109 46 -219 
47 -55 46 -164 47 -110 1139 3534 12 MP stroke
47 220 47 438 46 -164 47 219 46 109 47 -219 46 -274 47 219 
46 165 47 -165 47 -109 46 109 47 -54 46 -55 47 -165 46 -109 
47 55 46 -55 47 -110 1139 3534 20 MP stroke
47 110 47 -55 46 55 47 55 46 329 47 -55 46 -274 47 -110 
46 55 47 -55 1139 3534 11 MP stroke
47 110 46 55 47 -110 1139 3534 4 MP stroke
47 165 46 0 47 -110 1139 3534 4 MP stroke
47 55 1139 3534 2 MP stroke
47 55 1139 3534 2 MP stroke
47 110 46 0 47 -55 1139 3534 4 MP stroke
47 165 46 -110 47 0 1139 3534 4 MP stroke
47 55 1139 3534 2 MP stroke
47 55 1139 3534 2 MP stroke
46 329 47 -164 46 -55 47 0 46 55 47 -110 1139 3534 7 MP stroke
47 55 1139 3534 2 MP stroke
47 55 46 55 47 -55 1139 3534 4 MP stroke
47 55 1139 3534 2 MP stroke
47 55 1139 3534 2 MP stroke
47 55 1139 3534 2 MP stroke
47 55 1139 3534 2 MP stroke
47 55 1139 3534 2 MP stroke
47 165 46 0 47 -110 1139 3534 4 MP stroke
47 110 46 0 47 -55 46 110 47 -55 46 55 47 -110 1139 3534 8 MP stroke
47 55 1139 3534 2 MP stroke
47 55 1139 3534 2 MP stroke
47 55 1139 3534 2 MP stroke
47 110 46 55 47 -55 46 55 47 -110 1139 3534 6 MP stroke
47 274 46 -109 47 -110 1139 3534 4 MP stroke
47 110 46 110 47 -55 46 55 47 109 46 -219 47 -55 1139 3534 8 MP stroke
47 220 46 54 47 55 46 -164 47 -110 1139 3534 6 MP stroke
47 55 1139 3534 2 MP stroke
47 55 1139 3534 2 MP stroke
47 55 1139 3534 2 MP stroke
47 55 1139 3534 2 MP stroke
47 55 1139 3534 2 MP stroke
47 55 1139 3534 2 MP stroke
47 55 1139 3534 2 MP stroke
46 110 47 -55 1139 3534 3 MP stroke
46 165 47 0 46 0 47 -110 1139 3534 5 MP stroke
47 55 1139 3534 2 MP stroke
47 55 1139 3534 2 MP stroke
47 55 1139 3534 2 MP stroke
47 55 46 274 47 -164 46 -55 47 -55 1139 3534 6 MP stroke
47 220 46 54 47 -164 46 219 47 0 46 -55 47 -164 47 219 
46 -164 47 0 46 55 47 -110 46 55 47 -55 46 0 47 -55 
1139 3534 17 MP stroke
47 55 1139 3534 2 MP stroke
47 55 1139 3534 2 MP stroke
47 55 1139 3534 2 MP stroke
46 165 47 -55 46 110 47 -110 46 55 47 -110 1139 3534 7 MP stroke
46 110 47 55 46 0 47 -110 1139 3534 5 MP stroke
46 110 47 -55 1139 3534 3 MP stroke
47 55 1139 3534 2 MP stroke
47 165 46 55 47 -55 46 0 47 109 46 -164 47 -55 1139 3534 8 MP stroke
47 439 47 109 46 165 47 -55 46 -274 47 -164 46 -55 47 0 
46 -55 47 -55 1139 3534 11 MP stroke
47 55 1139 3534 2 MP stroke
47 55 1139 3534 2 MP stroke
47 55 1139 3534 2 MP stroke
46 110 47 -55 1139 3534 3 MP stroke
47 55 1139 3534 2 MP stroke
47 55 1139 3534 2 MP stroke
47 55 1139 3534 2 MP stroke
47 55 1139 3534 2 MP stroke
47 55 1139 3534 2 MP stroke
47 55 1139 3534 2 MP stroke
46 165 47 -55 46 0 47 0 46 55 47 -110 1139 3534 7 MP stroke
47 55 1139 3534 2 MP stroke
47 55 1139 3534 2 MP stroke
47 55 1139 3534 2 MP stroke
47 55 1139 3534 2 MP stroke
47 55 1139 3534 2 MP stroke
47 55 1139 3534 2 MP stroke
47 55 1139 3534 2 MP stroke
47 165 46 219 47 -55 46 -55 47 0 47 -54 46 109 47 165 
46 -165 47 -164 46 -110 47 55 46 -55 47 0 1139 3534 15 MP stroke
47 55 1139 3534 2 MP stroke
47 55 1139 3534 2 MP stroke
47 55 1139 3534 2 MP stroke
47 55 1139 3534 2 MP stroke
47 55 1139 3534 2 MP stroke
47 110 46 0 47 -55 1139 3534 4 MP stroke
47 55 1139 3534 2 MP stroke
47 110 46 55 47 -110 1139 3534 4 MP stroke
47 55 1139 3534 2 MP stroke
47 55 1139 3534 2 MP stroke
47 55 1139 3534 2 MP stroke
47 55 1139 3534 2 MP stroke
47 55 1139 3534 2 MP stroke
46 110 47 -55 1139 3534 3 MP stroke
47 55 1139 3534 2 MP stroke
47 110 46 -55 47 0 1139 3534 4 MP stroke
47 55 1139 3534 2 MP stroke
47 55 1139 3534 2 MP stroke
47 55 1139 3534 2 MP stroke
47 55 1139 3534 2 MP stroke
46 165 47 -110 1139 3534 3 MP stroke
46 55 47 0 1139 3534 3 MP stroke
47 55 1139 3534 2 MP stroke
47 55 1139 3534 2 MP stroke
47 55 1139 3534 2 MP stroke
47 55 1139 3534 2 MP stroke
47 55 1139 3534 2 MP stroke
47 55 1139 3534 2 MP stroke
46 110 47 -55 1139 3534 3 MP stroke
47 55 1139 3534 2 MP stroke
47 55 1139 3534 2 MP stroke
47 220 46 -55 47 -110 1139 3534 4 MP stroke
47 110 46 0 47 -55 1139 3534 4 MP stroke
47 110 46 0 47 -55 1139 3534 4 MP stroke
46 110 47 -55 1139 3534 3 MP stroke
47 55 1139 3534 2 MP stroke
47 55 1139 3534 2 MP stroke
46 165 47 -110 1139 3534 3 MP stroke
46 55 47 165 47 -110 46 384 47 -55 46 438 47 0 46 55 
47 383 46 -164 47 -548 47 0 46 55 47 493 46 -274 47 0 
46 164 47 -602 46 -274 47 -110 1139 3534 21 MP stroke
47 55 1139 3534 2 MP stroke
47 55 1139 3534 2 MP stroke
47 55 1139 3534 2 MP stroke
47 55 1139 3534 2 MP stroke
46 165 47 -110 1139 3534 3 MP stroke
47 55 1139 3534 2 MP stroke
47 55 1139 3534 2 MP stroke
47 55 1139 3534 2 MP stroke
47 55 1139 3534 2 MP stroke
47 55 46 55 47 164 46 -164 47 0 46 0 47 -55 1139 3534 8 MP stroke
47 165 46 0 47 109 46 -109 47 -110 1139 3534 6 MP stroke
46 55 47 0 1139 3534 3 MP stroke
46 165 47 164 46 110 47 109 46 -219 47 -55 46 -164 47 -55 
1139 3534 9 MP stroke
47 55 46 110 47 -110 1139 3534 4 MP stroke
46 110 47 0 47 0 46 329 47 -110 46 0 47 -55 46 -109 
47 55 46 -55 47 -110 1139 3534 12 MP stroke
47 220 46 -55 47 -110 1139 3534 4 MP stroke
47 165 46 -55 47 0 46 0 47 -55 1139 3534 6 MP stroke
46 55 47 0 1139 3534 3 MP stroke
47 55 1139 3534 2 MP stroke
47 55 1139 3534 2 MP stroke
47 165 46 0 47 -55 46 55 47 -55 46 -55 47 0 1139 3534 8 MP stroke
47 55 1139 3534 2 MP stroke
47 55 1139 3534 2 MP stroke
47 165 46 0 47 -110 1139 3534 4 MP stroke
47 55 1139 3534 2 MP stroke
47 165 46 0 47 -110 1139 3534 4 MP stroke
47 55 1139 3534 2 MP stroke
47 110 46 164 47 -54 46 109 47 274 47 -109 46 -329 47 493 
46 -219 47 -55 46 -55 47 0 46 -219 47 -55 1139 3534 15 MP stroke
47 55 1139 3534 2 MP stroke
47 55 1139 3534 2 MP stroke
47 165 47 109 46 0 47 55 46 -164 47 329 46 54 47 658 
46 -55 47 219 46 -493 47 438 47 -109 46 219 47 -110 46 -54 
47 -274 46 -493 47 0 46 547 47 -109 47 -110 46 -164 47 -329 
46 -55 47 -109 46 0 47 -55 46 55 47 -110 1139 3534 31 MP stroke
47 55 1139 3534 2 MP stroke
46 110 47 -55 1139 3534 3 MP stroke
46 55 47 219 46 0 47 55 47 -164 46 55 47 54 46 -109 
47 -55 46 164 47 -164 46 0 47 -55 1139 3534 14 MP stroke
46 110 47 -55 1139 3534 3 MP stroke
47 165 46 0 47 -110 1139 3534 4 MP stroke
47 55 46 110 47 -55 46 0 47 -55 1139 3534 6 MP stroke
47 55 1139 3534 2 MP stroke
47 55 1139 3534 2 MP stroke
46 55 47 0 1139 3534 3 MP stroke
47 55 1139 3534 2 MP stroke
47 55 1139 3534 2 MP stroke
46 110 47 -55 46 55 47 55 46 -55 47 -55 1139 3534 7 MP stroke
47 55 1139 3534 2 MP stroke
47 55 46 55 47 0 46 55 47 -110 1139 3534 6 MP stroke
46 55 47 0 1139 3534 3 MP stroke
47 55 1139 3534 2 MP stroke
46 110 47 110 46 -55 47 -110 1139 3534 5 MP stroke
47 55 1139 3534 2 MP stroke
47 55 1139 3534 2 MP stroke
47 110 46 0 47 -55 1139 3534 4 MP stroke
46 329 47 -219 46 164 47 0 46 -109 47 -55 47 0 46 219 
47 -164 46 -55 47 219 46 0 47 -164 46 0 47 -110 1139 3534 16 MP stroke
46 55 47 55 46 164 47 -164 46 164 47 55 46 -164 47 -110 
1139 3534 9 MP stroke
46 165 47 55 46 274 47 -165 46 55 47 -219 46 -55 47 -55 
1139 3534 9 MP stroke
46 55 47 55 46 0 47 -55 1139 3534 5 MP stroke
47 55 1139 3534 2 MP stroke
47 329 46 0 47 274 46 -164 47 109 46 274 47 -55 47 220 
46 -55 47 109 46 -383 47 -55 46 0 47 274 46 329 47 -274 
47 -329 46 -383 47 -110 46 164 47 -164 46 -55 47 110 46 -55 
47 -55 1139 3534 26 MP stroke
47 55 1139 3534 2 MP stroke
47 55 1139 3534 2 MP stroke
46 55 47 55 46 164 47 0 46 -109 47 -110 1139 3534 7 MP stroke
47 110 46 55 47 0 46 -55 47 -55 1139 3534 6 MP stroke
47 55 1139 3534 2 MP stroke
47 55 1139 3534 2 MP stroke
47 55 1139 3534 2 MP stroke
47 55 1139 3534 2 MP stroke
47 55 1139 3534 2 MP stroke
46 55 47 0 1139 3534 3 MP stroke
47 55 1139 3534 2 MP stroke
47 55 1139 3534 2 MP stroke
47 110 46 110 47 219 46 0 47 -55 46 -55 47 165 47 219 
46 219 47 -274 46 -274 47 0 46 -219 47 164 46 -219 47 -55 
1139 3534 17 MP stroke
47 55 1139 3534 2 MP stroke
47 55 1139 3534 2 MP stroke
46 55 47 0 1139 3534 3 MP stroke
46 165 47 493 46 0 47 0 47 -110 46 -54 47 109 46 164 
47 -164 46 55 47 -164 46 -329 47 -110 1139 3534 14 MP stroke
47 55 1139 3534 2 MP stroke
47 55 1139 3534 2 MP stroke
47 55 46 55 47 -55 46 110 47 -55 46 55 47 -110 1139 3534 8 MP stroke
47 55 1139 3534 2 MP stroke
47 274 46 -109 47 -110 1139 3534 4 MP stroke
47 110 46 55 47 109 46 55 47 -164 46 0 47 -110 1139 3534 8 MP stroke
47 55 1139 3534 2 MP stroke
47 55 1139 3534 2 MP stroke
47 55 1139 3534 2 MP stroke
47 55 1139 3534 2 MP stroke
47 55 1139 3534 2 MP stroke
47 55 1139 3534 2 MP stroke
47 55 1139 3534 2 MP stroke
46 220 47 0 46 -55 47 -110 1139 3534 5 MP stroke
47 165 46 -55 47 -55 1139 3534 4 MP stroke
47 55 1139 3534 2 MP stroke
47 55 1139 3534 2 MP stroke
47 55 1139 3534 2 MP stroke
47 165 46 55 47 54 46 -109 47 -110 1139 3534 6 MP stroke
46 110 47 -55 1139 3534 3 MP stroke
47 55 1139 3534 2 MP stroke
47 55 1139 3534 2 MP stroke
47 55 1139 3534 2 MP stroke
47 55 1139 3534 2 MP stroke
47 55 1139 3534 2 MP stroke
47 55 1139 3534 2 MP stroke
47 55 1139 3534 2 MP stroke
47 110 46 110 47 274 46 -55 47 55 47 -55 46 -110 47 110 
46 -110 47 0 46 -55 47 -109 46 -55 47 -55 1139 3534 15 MP stroke
47 55 1139 3534 2 MP stroke
46 110 47 -55 1139 3534 3 MP stroke
47 55 1139 3534 2 MP stroke
46 165 47 0 46 109 47 110 47 -110 46 -164 47 219 46 165 
47 -220 46 165 47 0 46 -274 47 -110 1139 3534 14 MP stroke
47 55 1139 3534 2 MP stroke
47 55 1139 3534 2 MP stroke
47 55 1139 3534 2 MP stroke
46 110 47 55 46 0 47 -110 1139 3534 5 MP stroke
47 55 1139 3534 2 MP stroke
47 55 1139 3534 2 MP stroke
47 220 46 54 47 -109 46 -55 47 -55 1139 3534 6 MP stroke
46 110 47 55 46 0 47 -110 1139 3534 5 MP stroke
47 55 1139 3534 2 MP stroke
47 55 1139 3534 2 MP stroke
47 55 1139 3534 2 MP stroke
47 55 1139 3534 2 MP stroke
47 55 1139 3534 2 MP stroke
47 55 1139 3534 2 MP stroke
47 165 46 219 47 -164 46 -110 47 -55 1139 3534 6 MP stroke
47 55 1139 3534 2 MP stroke
47 55 1139 3534 2 MP stroke
47 55 1139 3534 2 MP stroke
47 55 1139 3534 2 MP stroke
47 55 1139 3534 2 MP stroke
47 55 1139 3534 2 MP stroke
46 55 47 0 1139 3534 3 MP stroke
47 55 1139 3534 2 MP stroke
47 55 1139 3534 2 MP stroke
47 55 1139 3534 2 MP stroke
47 55 1139 3534 2 MP stroke
46 55 47 110 46 -55 47 55 46 -55 47 55 47 164 46 -164 
47 0 46 -55 47 55 46 0 47 55 46 -55 47 -110 1139 3534 16 MP stroke
47 55 1139 3534 2 MP stroke
46 55 47 0 1139 3534 3 MP stroke
47 55 1139 3534 2 MP stroke
47 55 1139 3534 2 MP stroke
47 165 46 0 47 55 46 54 47 -109 46 -55 47 -55 1139 3534 8 MP stroke
47 55 1139 3534 2 MP stroke
47 55 1139 3534 2 MP stroke
46 165 47 -110 46 55 47 0 46 0 47 -55 1139 3534 7 MP stroke
47 55 1139 3534 2 MP stroke
47 55 1139 3534 2 MP stroke
46 55 47 384 46 0 47 164 47 55 46 -219 47 55 46 109 
47 0 46 110 47 -110 46 -274 47 165 47 -165 46 0 47 0 
46 -55 47 110 46 110 47 -220 46 -109 47 -110 1139 3534 23 MP stroke
47 55 1139 3534 2 MP stroke
46 110 47 -55 1139 3534 3 MP stroke
47 55 1139 3534 2 MP stroke
47 55 1139 3534 2 MP stroke
47 55 1139 3534 2 MP stroke
47 55 1139 3534 2 MP stroke
47 55 1139 3534 2 MP stroke
47 55 1139 3534 2 MP stroke
47 55 1139 3534 2 MP stroke
47 55 1139 3534 2 MP stroke
47 55 1139 3534 2 MP stroke
47 55 1139 3534 2 MP stroke
46 165 47 164 46 -55 47 -109 46 0 47 -110 1139 3534 7 MP stroke
46 110 47 -55 1139 3534 3 MP stroke
47 110 46 55 47 -110 1139 3534 4 MP stroke
47 165 46 0 47 -110 1139 3534 4 MP stroke
46 110 47 0 47 0 46 110 47 0 46 164 47 0 46 -110 
47 -109 46 0 47 -110 1139 3534 12 MP stroke
47 110 46 -55 47 0 1139 3534 4 MP stroke
47 55 1139 3534 2 MP stroke
47 165 46 -110 47 110 46 -55 47 -55 46 110 47 -110 1139 3534 8 MP stroke
47 55 1139 3534 2 MP stroke
47 55 1139 3534 2 MP stroke
47 55 1139 3534 2 MP stroke
47 55 1139 3534 2 MP stroke
47 55 1139 3534 2 MP stroke
47 55 1139 3534 2 MP stroke
47 55 46 110 47 -110 1139 3534 4 MP stroke
47 55 1139 3534 2 MP stroke
46 329 47 -164 46 0 47 -110 1139 3534 5 MP stroke
46 110 47 110 46 219 47 -274 46 -110 47 0 1139 3534 7 MP stroke
47 55 1139 3534 2 MP stroke
47 55 1139 3534 2 MP stroke
47 55 1139 3534 2 MP stroke
47 55 1139 3534 2 MP stroke
47 55 1139 3534 2 MP stroke
46 110 47 110 46 -110 47 -55 1139 3534 5 MP stroke
47 55 1139 3534 2 MP stroke
47 55 1139 3534 2 MP stroke
46 110 47 -55 1139 3534 3 MP stroke
47 55 1139 3534 2 MP stroke
46 220 47 -55 46 55 47 -55 46 -55 47 -55 1139 3534 7 MP stroke
46 110 47 164 46 55 47 -219 46 -55 47 0 1139 3534 7 MP stroke
47 55 1139 3534 2 MP stroke
47 55 1139 3534 2 MP stroke
47 110 46 0 47 -55 1139 3534 4 MP stroke
47 55 1139 3534 2 MP stroke
47 55 1139 3534 2 MP stroke
47 55 1139 3534 2 MP stroke
47 55 1139 3534 2 MP stroke
47 55 1139 3534 2 MP stroke
47 55 1139 3534 2 MP stroke
47 55 1139 3534 2 MP stroke
47 55 1139 3534 2 MP stroke
47 55 1139 3534 2 MP stroke
47 55 1139 3534 2 MP stroke
47 55 1139 3534 2 MP stroke
46 165 47 0 47 109 46 55 47 -164 46 109 47 -109 46 0 
47 164 46 -164 47 -110 1139 3534 12 MP stroke
47 55 1139 3534 2 MP stroke
46 110 47 -55 1139 3534 3 MP stroke
47 55 1139 3534 2 MP stroke
47 55 1139 3534 2 MP stroke
47 55 1139 3534 2 MP stroke
47 55 1139 3534 2 MP stroke
47 55 1139 3534 2 MP stroke
47 55 1139 3534 2 MP stroke
47 55 1139 3534 2 MP stroke
47 384 46 55 47 -274 46 -55 47 -55 1139 3534 6 MP stroke
47 110 46 55 47 -110 1139 3534 4 MP stroke
46 110 47 384 46 -220 47 110 46 -164 47 -110 47 0 46 164 
47 274 46 0 47 110 46 55 47 -384 46 -164 47 -110 1139 3534 16 MP stroke
47 220 46 -110 47 -55 1139 3534 4 MP stroke
47 55 1139 3534 2 MP stroke
47 55 1139 3534 2 MP stroke
47 165 46 109 47 -109 46 0 47 -55 46 0 47 -55 1139 3534 8 MP stroke
47 55 1139 3534 2 MP stroke
46 55 47 0 1139 3534 3 MP stroke
47 55 1139 3534 2 MP stroke
46 165 47 -110 1139 3534 3 MP stroke
47 55 1139 3534 2 MP stroke
47 110 46 0 47 164 46 -54 47 -110 46 55 47 -110 1139 3534 8 MP stroke
47 55 1139 3534 2 MP stroke
46 110 47 -55 1139 3534 3 MP stroke
46 329 47 -55 46 220 47 0 46 -329 47 -110 1139 3534 7 MP stroke
46 55 47 0 1139 3534 3 MP stroke
47 55 1139 3534 2 MP stroke
47 55 1139 3534 2 MP stroke
47 55 1139 3534 2 MP stroke
47 55 1139 3534 2 MP stroke
47 55 1139 3534 2 MP stroke
47 55 46 110 47 -110 1139 3534 4 MP stroke
47 55 1139 3534 2 MP stroke
47 55 1139 3534 2 MP stroke
47 55 1139 3534 2 MP stroke
47 55 1139 3534 2 MP stroke
46 110 47 110 46 328 47 110 46 -219 47 -110 46 0 47 -109 
47 -110 46 55 47 0 46 219 47 0 46 219 47 329 46 -274 
47 0 47 -219 46 0 47 219 46 -329 47 -55 46 110 47 -110 
46 -109 47 -110 1139 3534 27 MP stroke
47 55 1139 3534 2 MP stroke
46 165 47 -110 1139 3534 3 MP stroke
47 55 1139 3534 2 MP stroke
47 55 1139 3534 2 MP stroke
47 55 1139 3534 2 MP stroke
47 55 1139 3534 2 MP stroke
46 110 47 0 46 164 47 110 47 0 46 -55 47 0 46 0 
47 -55 46 220 47 -220 46 -109 47 0 47 329 46 273 47 -328 
46 -110 47 219 46 -109 47 -219 46 -55 47 -110 1139 3534 23 MP stroke
47 110 46 0 47 -55 1139 3534 4 MP stroke
47 55 1139 3534 2 MP stroke
47 55 1139 3534 2 MP stroke
47 110 47 110 46 -110 47 55 46 -110 47 110 46 109 47 -54 
46 -110 47 -55 1139 3534 11 MP stroke
46 165 47 -110 1139 3534 3 MP stroke
47 110 46 274 47 -55 46 -164 47 0 47 55 46 54 47 -54 
46 547 47 0 46 -273 47 -55 46 -274 47 -110 1139 3534 15 MP stroke
47 55 1139 3534 2 MP stroke
47 55 1139 3534 2 MP stroke
46 165 47 -110 1139 3534 3 MP stroke
47 55 1139 3534 2 MP stroke
47 55 1139 3534 2 MP stroke
47 329 46 -55 47 -109 46 -110 47 0 1139 3534 6 MP stroke
46 165 47 -55 46 0 47 -55 1139 3534 5 MP stroke
46 165 47 -110 1139 3534 3 MP stroke
47 55 1139 3534 2 MP stroke
47 55 1139 3534 2 MP stroke
47 55 1139 3534 2 MP stroke
47 165 46 0 47 -110 1139 3534 4 MP stroke
46 165 47 -110 1139 3534 3 MP stroke
47 55 1139 3534 2 MP stroke
47 55 1139 3534 2 MP stroke
47 55 1139 3534 2 MP stroke
47 55 1139 3534 2 MP stroke
47 110 46 0 47 55 46 0 47 0 46 -55 47 -55 1139 3534 8 MP stroke
47 55 1139 3534 2 MP stroke
47 55 1139 3534 2 MP stroke
47 55 1139 3534 2 MP stroke
47 55 1139 3534 2 MP stroke
47 55 1139 3534 2 MP stroke
47 55 1139 3534 2 MP stroke
47 110 46 164 47 110 46 383 47 274 46 -109 47 164 47 -383 
46 -274 47 -165 46 55 47 -164 46 0 47 -55 46 0 47 0 
47 0 46 55 47 0 46 109 47 -109 46 219 47 0 46 767 
47 0 46 -110 47 -274 47 220 46 -329 47 -329 46 165 47 -55 
46 -110 47 -164 46 -55 47 603 47 -384 46 -55 47 -164 46 55 
47 -55 46 164 47 -109 46 0 47 -110 1139 3534 46 MP stroke
47 55 1139 3534 2 MP stroke
47 55 1139 3534 2 MP stroke
46 165 47 -110 1139 3534 3 MP stroke
47 55 1139 3534 2 MP stroke
47 55 1139 3534 2 MP stroke
47 55 1139 3534 2 MP stroke
46 165 47 -110 1139 3534 3 MP stroke
47 55 1139 3534 2 MP stroke
47 55 1139 3534 2 MP stroke
47 384 46 55 47 -165 46 274 47 0 47 0 46 165 47 -165 
46 -219 47 -164 46 0 47 0 46 0 47 -110 1139 3534 15 MP stroke
46 110 47 -55 1139 3534 3 MP stroke
46 55 47 0 46 55 47 -55 1139 3534 5 MP stroke
47 55 1139 3534 2 MP stroke
47 55 1139 3534 2 MP stroke
47 55 1139 3534 2 MP stroke
47 55 1139 3534 2 MP stroke
47 55 1139 3534 2 MP stroke
47 55 1139 3534 2 MP stroke
47 55 1139 3534 2 MP stroke
47 55 1139 3534 2 MP stroke
47 55 1139 3534 2 MP stroke
47 165 46 0 47 109 46 220 47 -55 46 -110 47 -164 46 0 
47 -110 1139 3534 10 MP stroke
46 110 47 -55 1139 3534 3 MP stroke
46 110 47 164 46 -109 47 -110 46 55 47 -55 1139 3534 7 MP stroke
47 55 1139 3534 2 MP stroke
47 55 1139 3534 2 MP stroke
47 55 46 110 47 -55 46 55 47 -110 1139 3534 6 MP stroke
47 55 46 110 47 -110 1139 3534 4 MP stroke
47 55 1139 3534 2 MP stroke
47 165 46 109 47 0 46 165 47 55 46 -110 47 493 47 -383 
46 -220 47 -54 46 -110 47 55 46 219 47 -55 46 -164 47 -110 
1139 3534 17 MP stroke
46 165 47 -110 1139 3534 3 MP stroke
46 110 47 55 46 0 47 0 46 0 47 -110 1139 3534 7 MP stroke
47 55 1139 3534 2 MP stroke
47 55 1139 3534 2 MP stroke
47 55 1139 3534 2 MP stroke
47 165 46 0 47 164 47 712 46 -164 47 -329 46 55 47 0 
46 -329 47 -54 46 -55 47 -110 1139 3534 13 MP stroke
46 110 47 -55 1139 3534 3 MP stroke
46 110 47 -55 1139 3534 3 MP stroke
47 55 1139 3534 2 MP stroke
47 55 1139 3534 2 MP stroke
47 55 1139 3534 2 MP stroke
46 110 47 -55 46 110 47 0 46 0 47 -110 1139 3534 7 MP stroke
47 55 1139 3534 2 MP stroke
47 55 46 110 47 0 46 -55 47 -55 1139 3534 6 MP stroke
47 55 1139 3534 2 MP stroke
47 55 1139 3534 2 MP stroke
47 55 1139 3534 2 MP stroke
47 274 46 -54 47 54 46 -109 47 -55 46 55 47 -110 1139 3534 8 MP stroke
46 110 47 603 47 -274 46 -219 47 54 46 -109 47 0 46 -55 
47 -55 46 165 47 328 47 -164 46 -55 47 -55 46 -109 47 0 
46 0 47 55 46 164 47 0 46 55 47 -165 47 0 46 -109 
47 164 46 -219 47 219 46 219 47 165 46 -165 47 658 47 -329 
46 -164 47 0 46 0 47 -274 46 -165 47 55 46 219 47 110 
46 55 47 0 47 274 46 -165 47 -164 46 0 47 -219 46 -110 
47 55 46 -219 47 0 47 55 46 -110 47 110 46 109 47 0 
46 -55 47 110 46 -219 47 -110 1139 3534 61 MP stroke
47 55 46 110 47 -110 1139 3534 4 MP stroke
46 110 47 -55 1139 3534 3 MP stroke
47 165 46 -55 47 -55 1139 3534 4 MP stroke
47 55 1139 3534 2 MP stroke
46 110 47 -55 1139 3534 3 MP stroke
47 55 1139 3534 2 MP stroke
47 55 1139 3534 2 MP stroke
47 55 1139 3534 2 MP stroke
47 165 47 -55 46 329 47 -274 46 0 47 0 46 0 47 -55 
46 55 47 55 47 274 46 0 47 -55 46 0 47 -219 46 -55 
47 -55 46 -55 47 0 1139 3534 20 MP stroke
47 55 1139 3534 2 MP stroke
47 55 46 110 47 -110 1139 3534 4 MP stroke
47 55 1139 3534 2 MP stroke
46 165 47 -110 1139 3534 3 MP stroke
47 55 1139 3534 2 MP stroke
47 55 1139 3534 2 MP stroke
47 55 1139 3534 2 MP stroke
47 55 1139 3534 2 MP stroke
47 110 46 55 47 -110 1139 3534 4 MP stroke
47 55 1139 3534 2 MP stroke
47 165 46 55 47 274 46 -165 47 -55 46 -109 47 -55 46 55 
47 0 47 -110 46 110 47 -55 46 110 47 109 46 0 47 -55 
46 -109 47 -110 1139 3534 19 MP stroke
47 55 1139 3534 2 MP stroke
47 55 1139 3534 2 MP stroke
47 55 1139 3534 2 MP stroke
47 55 1139 3534 2 MP stroke
46 274 47 -109 47 -55 46 0 47 274 46 -55 47 110 46 0 
47 0 46 109 47 822 46 -274 47 274 47 164 46 548 47 329 
46 0 47 -164 46 -384 47 -383 46 54 47 -328 47 328 46 713 
47 328 46 55 47 -164 46 -877 47 -274 46 -54 47 -110 46 -55 
47 -219 47 -274 46 110 47 -110 46 -274 47 -55 46 274 47 110 
46 109 47 -328 47 -110 46 0 47 0 46 0 47 219 46 55 
47 219 46 -219 47 -219 46 110 47 0 47 -274 46 54 47 0 
46 274 47 165 46 54 47 274 46 767 47 274 47 110 46 -493 
47 -110 46 165 47 -384 46 -493 47 164 46 -219 47 -55 46 603 
47 931 47 0 46 -328 47 328 46 -164 47 603 46 109 47 55 
46 -712 47 -438 47 54 46 1096 47 -110 46 439 47 -274 46 -329 
47 603 46 -603 47 -329 46 -219 47 55 47 -219 46 329 47 -384 
46 110 47 -274 46 -384 47 -219 46 712 47 603 47 -274 46 -274 
47 -329 46 -273 47 0 46 -110 47 -274 46 274 47 0 46 164 
47 -164 47 -219 46 -165 47 -273 46 219 47 -110 46 329 47 -219 
46 -219 47 164 47 -329 46 0 47 -164 46 -55 47 55 46 -110 
47 55 46 -55 47 0 1139 3534 132 MP stroke
47 55 1139 3534 2 MP stroke
47 110 47 164 46 -109 47 0 46 109 47 0 46 -109 47 -55 
46 0 47 -55 1139 3534 11 MP stroke
46 165 47 164 46 -164 47 -110 1139 3534 5 MP stroke
47 165 46 0 47 -55 46 55 47 164 46 -164 47 -110 1139 3534 8 MP stroke
47 55 46 55 47 55 46 -55 47 -55 1139 3534 6 MP stroke
47 55 1139 3534 2 MP stroke
46 220 47 109 46 110 47 -110 46 -219 47 0 46 55 47 -110 
1139 3534 9 MP stroke
46 165 47 -110 1139 3534 3 MP stroke
47 55 1139 3534 2 MP stroke
47 55 1139 3534 2 MP stroke
47 55 1139 3534 2 MP stroke
47 165 46 109 47 -164 46 0 47 438 46 -54 47 -165 47 -55 
46 -109 47 -55 46 55 47 -55 46 164 47 55 46 -55 47 0 
46 55 47 438 47 -54 46 -55 47 109 46 110 47 -274 46 0 
47 274 46 -164 47 -55 47 -164 46 -165 47 0 46 -164 47 55 
46 219 47 -110 46 -164 47 -110 1139 3534 37 MP stroke
47 55 1139 3534 2 MP stroke
47 55 1139 3534 2 MP stroke
46 110 47 -55 1139 3534 3 MP stroke
47 55 1139 3534 2 MP stroke
46 110 47 -55 1139 3534 3 MP stroke
47 55 1139 3534 2 MP stroke
46 439 47 164 47 -109 46 -274 47 -55 46 -55 47 55 46 55 
47 0 46 -110 47 -55 1139 3534 12 MP stroke
47 55 1139 3534 2 MP stroke
47 110 46 55 47 -110 1139 3534 4 MP stroke
47 55 1139 3534 2 MP stroke
46 220 47 54 46 274 47 -219 46 0 47 0 46 274 47 -164 
47 219 46 164 47 -328 46 383 47 -329 46 -274 47 -164 46 0 
47 -55 1139 3534 18 MP stroke
46 110 47 -55 1139 3534 3 MP stroke
47 220 46 0 47 54 46 110 47 -110 46 -109 47 -110 1139 3534 8 MP stroke
47 55 1139 3534 2 MP stroke
46 110 47 -55 1139 3534 3 MP stroke
47 55 1139 3534 2 MP stroke
47 55 1139 3534 2 MP stroke
46 329 47 -164 46 0 47 -55 46 55 47 -110 1139 3534 7 MP stroke
47 55 1139 3534 2 MP stroke
47 165 46 0 47 -110 1139 3534 4 MP stroke
47 55 1139 3534 2 MP stroke
47 55 1139 3534 2 MP stroke
47 55 1139 3534 2 MP stroke
46 55 47 55 46 55 47 -110 1139 3534 5 MP stroke
47 55 1139 3534 2 MP stroke
47 55 1139 3534 2 MP stroke
47 110 46 55 47 -55 46 164 47 165 46 -165 47 -109 46 -110 
47 55 47 164 46 110 47 164 46 0 47 -219 46 -55 47 -109 
46 0 47 -110 1139 3534 19 MP stroke
47 55 1139 3534 2 MP stroke
47 55 1139 3534 2 MP stroke
46 165 47 -110 1139 3534 3 MP stroke
47 55 1139 3534 2 MP stroke
47 55 1139 3534 2 MP stroke
47 55 1139 3534 2 MP stroke
47 55 1139 3534 2 MP stroke
46 220 47 164 46 -110 47 0 46 55 47 -164 46 0 47 -110 
1139 3534 9 MP stroke
46 110 47 -55 1139 3534 3 MP stroke
46 165 47 -55 46 55 47 -110 1139 3534 5 MP stroke
47 329 47 110 46 -110 47 -164 46 -55 47 55 46 0 47 109 
46 -109 47 -110 1139 3534 11 MP stroke
46 165 47 -110 1139 3534 3 MP stroke
46 110 47 -55 1139 3534 3 MP stroke
47 55 1139 3534 2 MP stroke
46 110 47 -55 1139 3534 3 MP stroke
47 55 46 274 47 -164 46 0 47 -110 1139 3534 6 MP stroke
46 165 47 -110 1139 3534 3 MP stroke
46 110 47 -55 1139 3534 3 MP stroke
47 55 1139 3534 2 MP stroke
47 55 1139 3534 2 MP stroke
47 55 1139 3534 2 MP stroke
47 55 1139 3534 2 MP stroke
46 55 47 0 1139 3534 3 MP stroke
46 110 47 -55 1139 3534 3 MP stroke
47 55 1139 3534 2 MP stroke
47 55 1139 3534 2 MP stroke
47 55 1139 3534 2 MP stroke
47 55 1139 3534 2 MP stroke
46 220 47 109 46 -164 47 -110 1139 3534 5 MP stroke
46 110 47 -55 1139 3534 3 MP stroke
47 55 1139 3534 2 MP stroke
47 55 1139 3534 2 MP stroke
46 110 47 0 46 0 47 -55 1139 3534 5 MP stroke
47 110 46 384 47 -165 46 -164 47 -55 46 55 47 -110 1139 3534 8 MP stroke
46 110 47 55 46 0 47 164 46 110 47 -219 46 -55 47 -110 
1139 3534 9 MP stroke
47 55 1139 3534 2 MP stroke
47 110 47 -55 46 0 47 439 46 -55 47 109 46 165 47 -219 
46 -55 47 55 47 547 46 110 47 164 46 55 47 -109 46 -329 
47 383 46 0 47 -164 46 -384 47 0 47 -109 46 -164 47 -55 
46 164 47 -55 46 -164 47 0 46 -219 47 0 47 55 46 -55 
47 219 46 55 47 109 46 -274 47 -109 46 -55 47 0 46 164 
47 -109 47 329 46 -165 47 165 46 -220 47 -109 46 -55 47 -55 
46 55 47 55 47 -55 46 55 47 0 46 109 47 -109 46 -55 
47 55 46 -55 47 -55 1139 3534 60 MP stroke
46 110 47 55 46 55 47 219 46 -110 47 -55 46 -109 47 -110 
1139 3534 9 MP stroke
46 165 47 0 47 0 46 0 47 0 46 164 47 438 46 439 
47 -110 46 -219 47 -164 47 164 46 -274 47 110 46 0 47 0 
46 -274 47 -165 46 -109 47 -110 1139 3534 21 MP stroke
46 220 47 54 46 -109 47 -110 46 55 47 -55 1139 3534 7 MP stroke
46 165 47 -110 1139 3534 3 MP stroke
47 110 46 55 47 0 46 0 47 -110 1139 3534 6 MP stroke
47 55 1139 3534 2 MP stroke
46 55 47 0 1139 3534 3 MP stroke
47 55 1139 3534 2 MP stroke
46 165 47 219 46 -55 47 0 46 -109 47 -55 46 0 47 -110 
1139 3534 9 MP stroke
46 110 47 -55 1139 3534 3 MP stroke
47 55 1139 3534 2 MP stroke
47 55 1139 3534 2 MP stroke
46 55 47 0 1139 3534 3 MP stroke
47 55 1139 3534 2 MP stroke
46 165 47 55 47 0 46 219 47 -165 46 -54 47 493 46 -55 
47 -384 46 55 47 329 46 219 47 219 47 -164 46 -165 47 55 
46 274 47 -383 46 0 47 54 46 -438 47 -164 47 109 46 0 
47 -109 46 -55 47 0 46 0 47 -55 46 55 47 -55 1139 3534 32 MP stroke
46 165 47 109 46 55 47 165 46 164 47 -274 46 55 47 109 
46 110 47 164 47 -383 46 219 47 55 46 219 47 602 46 -54 
47 -274 46 -55 47 -493 47 219 46 -55 47 -109 46 -219 47 -110 
46 -55 47 -219 46 55 47 -110 1139 3534 29 MP stroke
47 55 1139 3534 2 MP stroke
47 55 46 0 47 0 1139 3534 4 MP stroke
47 55 1139 3534 2 MP stroke
47 110 46 0 47 0 46 55 47 -110 1139 3534 6 MP stroke
47 55 1139 3534 2 MP stroke
47 55 1139 3534 2 MP stroke
46 165 47 -110 1139 3534 3 MP stroke
47 55 1139 3534 2 MP stroke
47 55 1139 3534 2 MP stroke
47 55 1139 3534 2 MP stroke
46 165 47 -110 1139 3534 3 MP stroke
47 55 1139 3534 2 MP stroke
46 110 47 -55 1139 3534 3 MP stroke
47 55 1139 3534 2 MP stroke
46 55 47 0 1139 3534 3 MP stroke
46 110 47 -55 1139 3534 3 MP stroke
47 55 1139 3534 2 MP stroke
46 110 47 -55 1139 3534 3 MP stroke
47 55 1139 3534 2 MP stroke
47 55 1139 3534 2 MP stroke
47 55 1139 3534 2 MP stroke
47 55 46 110 47 -110 1139 3534 4 MP stroke
47 55 1139 3534 2 MP stroke
47 55 46 55 47 55 47 383 46 -109 47 -110 46 110 47 55 
46 -165 47 -164 46 -55 47 -55 1139 3534 13 MP stroke
47 55 1139 3534 2 MP stroke
47 55 1139 3534 2 MP stroke
47 329 47 110 46 -55 47 110 46 164 47 0 46 -55 47 0 
46 219 47 -219 47 384 46 -55 47 -274 46 -55 47 -383 46 -55 
47 0 46 -110 47 0 1139 3534 20 MP stroke
47 55 1139 3534 2 MP stroke
46 110 47 -55 1139 3534 3 MP stroke
47 110 47 0 46 55 47 0 46 383 47 -219 46 110 47 -274 
46 0 47 -110 1139 3534 11 MP stroke
47 55 1139 3534 2 MP stroke
47 55 1139 3534 2 MP stroke
47 55 1139 3534 2 MP stroke
46 110 47 -55 1139 3534 3 MP stroke
47 55 1139 3534 2 MP stroke
47 55 1139 3534 2 MP stroke
47 55 1139 3534 2 MP stroke
47 55 1139 3534 2 MP stroke
47 55 1139 3534 2 MP stroke
47 55 1139 3534 2 MP stroke
47 55 1139 3534 2 MP stroke
47 110 46 55 47 -55 46 55 47 0 46 164 47 -219 46 110 
47 657 47 0 46 -164 47 -165 46 165 47 -55 46 -274 47 -219 
46 0 47 -110 1139 3534 19 MP stroke
47 55 1139 3534 2 MP stroke
47 55 1139 3534 2 MP stroke
47 55 46 110 47 0 46 0 47 -110 1139 3534 6 MP stroke
47 55 1139 3534 2 MP stroke
47 55 1139 3534 2 MP stroke
47 55 1139 3534 2 MP stroke
47 55 1139 3534 2 MP stroke
47 55 1139 3534 2 MP stroke
47 110 46 55 47 -110 1139 3534 4 MP stroke
47 110 46 0 47 164 46 55 47 -164 46 109 47 -109 46 0 
47 -110 1139 3534 10 MP stroke
47 55 1139 3534 2 MP stroke
46 165 47 -110 1139 3534 3 MP stroke
47 165 46 -55 47 -55 1139 3534 4 MP stroke
47 55 1139 3534 2 MP stroke
47 55 1139 3534 2 MP stroke
47 55 1139 3534 2 MP stroke
46 165 47 -110 1139 3534 3 MP stroke
47 55 1139 3534 2 MP stroke
47 55 1139 3534 2 MP stroke
47 55 1139 3534 2 MP stroke
47 110 46 0 47 -55 1139 3534 4 MP stroke
47 55 1139 3534 2 MP stroke
46 165 47 -110 1139 3534 3 MP stroke
47 55 1139 3534 2 MP stroke
47 110 46 164 47 -109 47 109 46 -109 47 109 46 55 47 0 
46 219 47 -54 46 -329 47 -110 1139 3534 13 MP stroke
47 55 46 110 47 -110 1139 3534 4 MP stroke
47 55 1139 3534 2 MP stroke
47 55 1139 3534 2 MP stroke
47 55 1139 3534 2 MP stroke
47 55 1139 3534 2 MP stroke
47 165 46 -110 47 0 1139 3534 4 MP stroke
47 55 1139 3534 2 MP stroke
47 55 46 274 47 -109 46 -55 47 -110 1139 3534 6 MP stroke
47 55 1139 3534 2 MP stroke
46 329 47 55 46 -110 47 -164 46 55 47 -110 1139 3534 7 MP stroke
47 55 1139 3534 2 MP stroke
47 55 1139 3534 2 MP stroke
47 55 46 165 47 109 47 -164 46 -55 47 164 46 -54 47 54 
46 -109 47 109 46 0 47 -54 47 383 46 -219 47 -55 46 110 
47 -165 46 0 47 0 46 -109 47 -110 1139 3534 22 MP stroke
46 110 47 -55 1139 3534 3 MP stroke
47 55 1139 3534 2 MP stroke
47 110 46 0 47 55 47 -110 46 165 47 274 46 -110 47 -219 
46 0 47 -55 46 0 47 -55 1139 3534 13 MP stroke
47 55 1139 3534 2 MP stroke
46 603 47 -164 46 -274 47 -110 1139 3534 5 MP stroke
47 55 1139 3534 2 MP stroke
47 55 1139 3534 2 MP stroke
46 165 47 -55 46 0 47 55 46 0 47 -110 1139 3534 7 MP stroke
47 55 1139 3534 2 MP stroke
47 55 1139 3534 2 MP stroke
47 55 1139 3534 2 MP stroke
47 55 1139 3534 2 MP stroke
47 55 1139 3534 2 MP stroke
47 55 1139 3534 2 MP stroke
47 55 1139 3534 2 MP stroke
46 110 47 -55 1139 3534 3 MP stroke
47 55 1139 3534 2 MP stroke
47 55 1139 3534 2 MP stroke
46 165 47 -110 1139 3534 3 MP stroke
47 110 46 55 47 -110 1139 3534 4 MP stroke
47 55 1139 3534 2 MP stroke
47 55 1139 3534 2 MP stroke
47 55 1139 3534 2 MP stroke
47 55 1139 3534 2 MP stroke
47 55 1139 3534 2 MP stroke
47 165 46 0 47 109 46 -54 47 54 46 55 47 110 46 109 
47 -109 46 -219 47 -55 47 329 46 -220 47 165 46 164 47 0 
46 55 47 -164 46 -165 47 0 47 -55 46 55 47 -55 46 110 
47 -164 46 -110 47 110 46 -55 47 -110 1139 3534 30 MP stroke
46 165 47 -110 1139 3534 3 MP stroke
47 55 46 110 47 438 46 -109 47 164 46 -164 47 -55 46 -110 
47 -164 46 55 47 109 47 55 46 219 47 -109 46 -329 47 164 
46 -164 47 109 46 55 47 -164 47 -55 46 55 47 55 46 164 
47 -55 46 -55 47 -164 46 0 47 -55 1139 3534 30 MP stroke
47 55 1139 3534 2 MP stroke
46 548 47 -109 46 -165 47 -109 46 0 47 -110 1139 3534 7 MP stroke
46 165 47 -110 1139 3534 3 MP stroke
46 274 47 -109 47 -55 46 55 47 55 46 0 47 0 46 -55 
47 -55 46 0 47 -55 1139 3534 12 MP stroke
47 55 1139 3534 2 MP stroke
47 55 1139 3534 2 MP stroke
47 55 1139 3534 2 MP stroke
47 55 1139 3534 2 MP stroke
47 110 46 219 47 -164 46 109 47 -109 46 -55 47 55 46 0 
47 -110 1139 3534 10 MP stroke
47 55 1139 3534 2 MP stroke
47 110 46 110 47 -110 46 -55 47 110 46 -110 47 55 46 55 
47 -110 1139 3534 10 MP stroke
47 55 1139 3534 2 MP stroke
47 55 1139 3534 2 MP stroke
47 110 46 -55 47 110 46 -55 47 -55 1139 3534 6 MP stroke
46 110 47 -55 1139 3534 3 MP stroke
47 55 1139 3534 2 MP stroke
47 55 1139 3534 2 MP stroke
47 55 1139 3534 2 MP stroke
46 165 47 109 46 -164 47 164 46 55 47 0 46 -164 47 -110 
1139 3534 9 MP stroke
47 55 1139 3534 2 MP stroke
47 55 1139 3534 2 MP stroke
47 55 1139 3534 2 MP stroke
47 439 46 -274 47 -110 1139 3534 4 MP stroke
47 110 46 55 47 -110 1139 3534 4 MP stroke
47 55 1139 3534 2 MP stroke
47 55 1139 3534 2 MP stroke
47 55 1139 3534 2 MP stroke
47 55 1139 3534 2 MP stroke
47 55 1139 3534 2 MP stroke
47 55 1139 3534 2 MP stroke
47 55 1139 3534 2 MP stroke
46 55 47 0 1139 3534 3 MP stroke
47 55 1139 3534 2 MP stroke
46 55 47 110 47 164 46 0 47 -55 46 -54 47 -110 46 55 
47 164 46 -164 47 -110 1139 3534 12 MP stroke
46 165 47 -55 46 55 47 109 46 0 47 220 46 -165 47 -109 
47 54 46 329 47 55 46 -55 47 164 46 -273 47 0 46 -165 
47 -219 47 55 46 109 47 0 46 220 47 -110 46 -55 47 -55 
46 -109 47 -110 1139 3534 27 MP stroke
47 55 1139 3534 2 MP stroke
46 110 47 0 46 0 47 -55 1139 3534 5 MP stroke
47 110 47 110 46 -55 47 -55 46 329 47 -219 46 164 47 -110 
46 -109 47 -110 1139 3534 11 MP stroke
47 55 1139 3534 2 MP stroke
47 110 46 55 47 -110 1139 3534 4 MP stroke
46 165 47 -110 1139 3534 3 MP stroke
47 55 1139 3534 2 MP stroke
47 55 1139 3534 2 MP stroke
46 165 47 -110 1139 3534 3 MP stroke
47 55 1139 3534 2 MP stroke
47 55 1139 3534 2 MP stroke
46 110 47 219 46 -164 47 0 46 0 47 -110 1139 3534 7 MP stroke
47 55 1139 3534 2 MP stroke
47 55 1139 3534 2 MP stroke
46 55 47 0 1139 3534 3 MP stroke
47 55 1139 3534 2 MP stroke
47 55 1139 3534 2 MP stroke
47 55 1139 3534 2 MP stroke
47 55 1139 3534 2 MP stroke
46 110 47 -55 1139 3534 3 MP stroke
gr

c8
0 sg
4217 3877 mt 
(Time) s
 843 2243 mt  -90 rotate
(Individiuals) s
90 rotate
1076 3632 mt 
( ) s
7594  344 mt 
( ) s
1 sg
0 188 1353 0 0 -188 6197 550 4 MP
PP
-1353 0 0 188 1353 0 0 -188 6197 550 5 MP stroke
4 w
DO
SO
6 w
0 sg
6197  550 mt 7550  550 L
6197  362 mt 7550  362 L
6197  550 mt 6197  362 L
7550  550 mt 7550  362 L
6197  550 mt 7550  550 L
6197  550 mt 6197  362 L
6197  550 mt 7550  550 L
6197  362 mt 7550  362 L
6197  550 mt 6197  362 L
7550  550 mt 7550  362 L
6660  499 mt 
(Population plots) s
gs 6197 362 1354 189 rc
c8
356 0 6268 456 2 MP stroke
gr

c8

end %%Color Dict

eplot
%%EndObject

epage
end

showpage

%%Trailer
%%EOF
